<svg width="1031" height="465" viewBox="0 0 1031 465" fill="none" xmlns="http://www.w3.org/2000/svg">
<g opacity="0.2">
<path fill-rule="evenodd" clip-rule="evenodd" d="M530.322 418.538L516.441 435.899L502.809 426.379L476.555 448.75L476.214 448.355L502.777 425.721L516.338 435.192L529.912 418.214L530.322 418.538Z" fill="#676767"/>
<path d="M478.357 448.214C478.357 449.694 477.158 450.893 475.679 450.893C474.199 450.893 473 449.694 473 448.214C473 446.735 474.199 445.536 475.679 445.536C477.158 445.536 478.357 446.735 478.357 448.214Z" fill="white"/>
<path fill-rule="evenodd" clip-rule="evenodd" d="M475.679 450.383C476.876 450.383 477.847 449.412 477.847 448.214C477.847 447.017 476.876 446.046 475.679 446.046C474.481 446.046 473.51 447.017 473.51 448.214C473.51 449.412 474.481 450.383 475.679 450.383ZM475.679 450.893C477.158 450.893 478.357 449.694 478.357 448.214C478.357 446.735 477.158 445.536 475.679 445.536C474.199 445.536 473 446.735 473 448.214C473 449.694 474.199 450.893 475.679 450.893Z" fill="#676767"/>
<path d="M506.214 425.179C506.214 426.658 504.895 427.857 503.268 427.857C501.64 427.857 500.321 426.658 500.321 425.179C500.321 423.699 501.64 422.5 503.268 422.5C504.895 422.5 506.214 423.699 506.214 425.179Z" fill="white"/>
<path fill-rule="evenodd" clip-rule="evenodd" d="M503.268 427.347C504.585 427.347 505.653 426.376 505.653 425.179C505.653 423.981 504.585 423.01 503.268 423.01C501.95 423.01 500.883 423.981 500.883 425.179C500.883 426.376 501.95 427.347 503.268 427.347ZM503.268 427.857C504.895 427.857 506.214 426.658 506.214 425.179C506.214 423.699 504.895 422.5 503.268 422.5C501.64 422.5 500.321 423.699 500.321 425.179C500.321 426.658 501.64 427.857 503.268 427.857Z" fill="#676767"/>
<path d="M519.607 435.357C519.607 436.836 518.288 438.036 516.661 438.036C515.034 438.036 513.714 436.836 513.714 435.357C513.714 433.878 515.034 432.679 516.661 432.679C518.288 432.679 519.607 433.878 519.607 435.357Z" fill="white"/>
<path fill-rule="evenodd" clip-rule="evenodd" d="M516.661 437.526C517.978 437.526 519.046 436.555 519.046 435.357C519.046 434.16 517.978 433.189 516.661 433.189C515.343 433.189 514.276 434.16 514.276 435.357C514.276 436.555 515.343 437.526 516.661 437.526ZM516.661 438.036C518.288 438.036 519.607 436.836 519.607 435.357C519.607 433.878 518.288 432.679 516.661 432.679C515.034 432.679 513.714 433.878 513.714 435.357C513.714 436.836 515.034 438.036 516.661 438.036Z" fill="#676767"/>
<path d="M533 417.946C533 419.574 531.8 420.893 530.321 420.893C528.842 420.893 527.643 419.574 527.643 417.946C527.643 416.319 528.842 415 530.321 415C531.8 415 533 416.319 533 417.946Z" fill="white"/>
<path fill-rule="evenodd" clip-rule="evenodd" d="M530.321 420.332C531.519 420.332 532.49 419.264 532.49 417.946C532.49 416.629 531.519 415.561 530.321 415.561C529.124 415.561 528.153 416.629 528.153 417.946C528.153 419.264 529.124 420.332 530.321 420.332ZM530.321 420.893C531.8 420.893 533 419.574 533 417.946C533 416.319 531.8 415 530.321 415C528.842 415 527.643 416.319 527.643 417.946C527.643 419.574 528.842 420.893 530.321 420.893Z" fill="#676767"/>
</g>
<g opacity="0.2">
<path fill-rule="evenodd" clip-rule="evenodd" d="M97.3215 355.538L83.4409 372.899L69.809 363.379L43.5545 385.75L43.2144 385.355L69.7772 362.721L83.3383 372.192L96.9122 355.214L97.3215 355.538Z" fill="#676767"/>
<path d="M45.3571 385.214C45.3571 386.694 44.1579 387.893 42.6786 387.893C41.1992 387.893 40 386.694 40 385.214C40 383.735 41.1992 382.536 42.6786 382.536C44.1579 382.536 45.3571 383.735 45.3571 385.214Z" fill="white"/>
<path fill-rule="evenodd" clip-rule="evenodd" d="M42.6786 387.383C43.8761 387.383 44.8469 386.412 44.8469 385.214C44.8469 384.017 43.8761 383.046 42.6786 383.046C41.481 383.046 40.5102 384.017 40.5102 385.214C40.5102 386.412 41.481 387.383 42.6786 387.383ZM42.6786 387.893C44.1579 387.893 45.3571 386.694 45.3571 385.214C45.3571 383.735 44.1579 382.536 42.6786 382.536C41.1992 382.536 40 383.735 40 385.214C40 386.694 41.1992 387.893 42.6786 387.893Z" fill="#676767"/>
<path d="M73.2141 362.179C73.2141 363.658 71.895 364.857 70.2677 364.857C68.6405 364.857 67.3213 363.658 67.3213 362.179C67.3213 360.699 68.6405 359.5 70.2677 359.5C71.895 359.5 73.2141 360.699 73.2141 362.179Z" fill="white"/>
<path fill-rule="evenodd" clip-rule="evenodd" d="M70.2677 364.347C71.585 364.347 72.6529 363.376 72.6529 362.179C72.6529 360.981 71.585 360.01 70.2677 360.01C68.9504 360.01 67.8825 360.981 67.8825 362.179C67.8825 363.376 68.9504 364.347 70.2677 364.347ZM70.2677 364.857C71.895 364.857 73.2141 363.658 73.2141 362.179C73.2141 360.699 71.895 359.5 70.2677 359.5C68.6405 359.5 67.3213 360.699 67.3213 362.179C67.3213 363.658 68.6405 364.857 70.2677 364.857Z" fill="#676767"/>
<path d="M86.6072 372.357C86.6072 373.836 85.2881 375.036 83.6608 375.036C82.0335 375.036 80.7144 373.836 80.7144 372.357C80.7144 370.878 82.0335 369.679 83.6608 369.679C85.2881 369.679 86.6072 370.878 86.6072 372.357Z" fill="white"/>
<path fill-rule="evenodd" clip-rule="evenodd" d="M83.6608 374.526C84.9781 374.526 86.046 373.555 86.046 372.357C86.046 371.16 84.9781 370.189 83.6608 370.189C82.3435 370.189 81.2756 371.16 81.2756 372.357C81.2756 373.555 82.3435 374.526 83.6608 374.526ZM83.6608 375.036C85.2881 375.036 86.6072 373.836 86.6072 372.357C86.6072 370.878 85.2881 369.679 83.6608 369.679C82.0335 369.679 80.7144 370.878 80.7144 372.357C80.7144 373.836 82.0335 375.036 83.6608 375.036Z" fill="#676767"/>
<path d="M99.9997 354.946C99.9997 356.574 98.8005 357.893 97.3211 357.893C95.8418 357.893 94.6426 356.574 94.6426 354.946C94.6426 353.319 95.8418 352 97.3211 352C98.8005 352 99.9997 353.319 99.9997 354.946Z" fill="white"/>
<path fill-rule="evenodd" clip-rule="evenodd" d="M97.3211 357.332C98.5187 357.332 99.4895 356.264 99.4895 354.946C99.4895 353.629 98.5187 352.561 97.3211 352.561C96.1236 352.561 95.1528 353.629 95.1528 354.946C95.1528 356.264 96.1236 357.332 97.3211 357.332ZM97.3211 357.893C98.8005 357.893 99.9997 356.574 99.9997 354.946C99.9997 353.319 98.8005 352 97.3211 352C95.8418 352 94.6426 353.319 94.6426 354.946C94.6426 356.574 95.8418 357.893 97.3211 357.893Z" fill="#676767"/>
</g>
<g opacity="0.2">
<path fill-rule="evenodd" clip-rule="evenodd" d="M189.322 33.5381L175.441 50.8991L161.809 41.3792L135.555 63.7499L135.214 63.3548L161.777 40.7214L175.338 50.1917L188.912 33.2142L189.322 33.5381Z" fill="#393939"/>
<path d="M137.357 63.2143C137.357 64.6937 136.158 65.8929 134.679 65.8929C133.199 65.8929 132 64.6937 132 63.2143C132 61.735 133.199 60.5358 134.679 60.5358C136.158 60.5358 137.357 61.735 137.357 63.2143Z" fill="white"/>
<path fill-rule="evenodd" clip-rule="evenodd" d="M134.679 65.3827C135.876 65.3827 136.847 64.4119 136.847 63.2143C136.847 62.0168 135.876 61.046 134.679 61.046C133.481 61.046 132.51 62.0168 132.51 63.2143C132.51 64.4119 133.481 65.3827 134.679 65.3827ZM134.679 65.8929C136.158 65.8929 137.357 64.6937 137.357 63.2143C137.357 61.735 136.158 60.5358 134.679 60.5358C133.199 60.5358 132 61.735 132 63.2143C132 64.6937 133.199 65.8929 134.679 65.8929Z" fill="#393939"/>
<path d="M165.214 40.1786C165.214 41.6579 163.895 42.8571 162.268 42.8571C160.64 42.8571 159.321 41.6579 159.321 40.1786C159.321 38.6992 160.64 37.5 162.268 37.5C163.895 37.5 165.214 38.6992 165.214 40.1786Z" fill="white"/>
<path fill-rule="evenodd" clip-rule="evenodd" d="M162.268 42.3469C163.585 42.3469 164.653 41.3761 164.653 40.1786C164.653 38.981 163.585 38.0102 162.268 38.0102C160.95 38.0102 159.883 38.981 159.883 40.1786C159.883 41.3761 160.95 42.3469 162.268 42.3469ZM162.268 42.8571C163.895 42.8571 165.214 41.6579 165.214 40.1786C165.214 38.6992 163.895 37.5 162.268 37.5C160.64 37.5 159.321 38.6992 159.321 40.1786C159.321 41.6579 160.64 42.8571 162.268 42.8571Z" fill="#393939"/>
<path d="M178.607 50.3572C178.607 51.8365 177.288 53.0357 175.661 53.0357C174.034 53.0357 172.714 51.8365 172.714 50.3572C172.714 48.8778 174.034 47.6786 175.661 47.6786C177.288 47.6786 178.607 48.8778 178.607 50.3572Z" fill="white"/>
<path fill-rule="evenodd" clip-rule="evenodd" d="M175.661 52.5255C176.978 52.5255 178.046 51.5547 178.046 50.3572C178.046 49.1596 176.978 48.1888 175.661 48.1888C174.343 48.1888 173.276 49.1596 173.276 50.3572C173.276 51.5547 174.343 52.5255 175.661 52.5255ZM175.661 53.0357C177.288 53.0357 178.607 51.8365 178.607 50.3572C178.607 48.8778 177.288 47.6786 175.661 47.6786C174.034 47.6786 172.714 48.8778 172.714 50.3572C172.714 51.8365 174.034 53.0357 175.661 53.0357Z" fill="#393939"/>
<path d="M192 32.9464C192 34.5737 190.8 35.8929 189.321 35.8929C187.842 35.8929 186.643 34.5737 186.643 32.9464C186.643 31.3192 187.842 30 189.321 30C190.8 30 192 31.3192 192 32.9464Z" fill="white"/>
<path fill-rule="evenodd" clip-rule="evenodd" d="M189.321 35.3316C190.519 35.3316 191.49 34.2637 191.49 32.9464C191.49 31.6291 190.519 30.5612 189.321 30.5612C188.124 30.5612 187.153 31.6291 187.153 32.9464C187.153 34.2637 188.124 35.3316 189.321 35.3316ZM189.321 35.8929C190.8 35.8929 192 34.5737 192 32.9464C192 31.3192 190.8 30 189.321 30C187.842 30 186.643 31.3192 186.643 32.9464C186.643 34.5737 187.842 35.8929 189.321 35.8929Z" fill="#393939"/>
</g>
<g opacity="0.2">
<path fill-rule="evenodd" clip-rule="evenodd" d="M122.768 214.948L111.201 229.416L99.8409 221.483L77.9622 240.125L77.6787 239.796L99.8144 220.935L111.115 228.826L122.427 214.679L122.768 214.948Z" fill="#676767"/>
<path d="M79.4643 239.679C79.4643 240.911 78.4649 241.911 77.2321 241.911C75.9994 241.911 75 240.911 75 239.679C75 238.446 75.9994 237.446 77.2321 237.446C78.4649 237.446 79.4643 238.446 79.4643 239.679Z" fill="white"/>
<path fill-rule="evenodd" clip-rule="evenodd" d="M77.2321 241.486C78.2301 241.486 79.0391 240.677 79.0391 239.679C79.0391 238.681 78.2301 237.872 77.2321 237.872C76.2342 237.872 75.4252 238.681 75.4252 239.679C75.4252 240.677 76.2342 241.486 77.2321 241.486ZM77.2321 241.911C78.4649 241.911 79.4643 240.911 79.4643 239.679C79.4643 238.446 78.4649 237.446 77.2321 237.446C75.9994 237.446 75 238.446 75 239.679C75 240.911 75.9994 241.911 77.2321 241.911Z" fill="#676767"/>
<path d="M102.679 220.482C102.679 221.715 101.579 222.714 100.223 222.714C98.8674 222.714 97.7681 221.715 97.7681 220.482C97.7681 219.249 98.8674 218.25 100.223 218.25C101.579 218.25 102.679 219.249 102.679 220.482Z" fill="white"/>
<path fill-rule="evenodd" clip-rule="evenodd" d="M100.223 222.289C101.321 222.289 102.211 221.48 102.211 220.482C102.211 219.484 101.321 218.675 100.223 218.675C99.1257 218.675 98.2358 219.484 98.2358 220.482C98.2358 221.48 99.1257 222.289 100.223 222.289ZM100.223 222.714C101.579 222.714 102.679 221.715 102.679 220.482C102.679 219.249 101.579 218.25 100.223 218.25C98.8674 218.25 97.7681 219.249 97.7681 220.482C97.7681 221.715 98.8674 222.714 100.223 222.714Z" fill="#676767"/>
<path d="M113.839 228.964C113.839 230.197 112.74 231.196 111.384 231.196C110.028 231.196 108.929 230.197 108.929 228.964C108.929 227.732 110.028 226.732 111.384 226.732C112.74 226.732 113.839 227.732 113.839 228.964Z" fill="white"/>
<path fill-rule="evenodd" clip-rule="evenodd" d="M111.384 230.771C112.482 230.771 113.372 229.962 113.372 228.964C113.372 227.966 112.482 227.157 111.384 227.157C110.286 227.157 109.396 227.966 109.396 228.964C109.396 229.962 110.286 230.771 111.384 230.771ZM111.384 231.196C112.74 231.196 113.839 230.197 113.839 228.964C113.839 227.732 112.74 226.732 111.384 226.732C110.028 226.732 108.929 227.732 108.929 228.964C108.929 230.197 110.028 231.196 111.384 231.196Z" fill="#676767"/>
<path d="M125 214.455C125 215.811 124.001 216.911 122.768 216.911C121.535 216.911 120.536 215.811 120.536 214.455C120.536 213.099 121.535 212 122.768 212C124.001 212 125 213.099 125 214.455Z" fill="white"/>
<path fill-rule="evenodd" clip-rule="evenodd" d="M122.768 216.443C123.766 216.443 124.575 215.553 124.575 214.455C124.575 213.358 123.766 212.468 122.768 212.468C121.77 212.468 120.961 213.358 120.961 214.455C120.961 215.553 121.77 216.443 122.768 216.443ZM122.768 216.911C124.001 216.911 125 215.811 125 214.455C125 213.099 124.001 212 122.768 212C121.535 212 120.536 213.099 120.536 214.455C120.536 215.811 121.535 216.911 122.768 216.911Z" fill="#676767"/>
</g>
<g opacity="0.2">
<path d="M962.429 15.4286V32.5714H979.572V15.4286H962.429ZM976.143 29.1429H965.857V18.8572H976.143V29.1429Z" fill="#676767"/>
<path d="M995 18.8571V15.4286H988.143V10.2857C988.143 9.3764 987.782 8.50433 987.139 7.86135C986.496 7.21837 985.624 6.85714 984.714 6.85714H979.571V0H976.143V6.85714H965.857V0H962.429V6.85714H957.286C956.376 6.85714 955.504 7.21837 954.861 7.86135C954.218 8.50433 953.857 9.3764 953.857 10.2857V15.4286H947V18.8571H953.857V29.1429H947V32.5714H953.857V37.7143C953.857 38.6236 954.218 39.4957 954.861 40.1387C955.504 40.7816 956.376 41.1429 957.286 41.1429H962.429V48H965.857V41.1429H976.143V48H979.571V41.1429H984.714C985.624 41.1429 986.496 40.7816 987.139 40.1387C987.782 39.4957 988.143 38.6236 988.143 37.7143V32.5714H995V29.1429H988.143V18.8571H995ZM984.714 37.7143H957.286V10.2857H984.714V37.7143Z" fill="#676767"/>
</g>
<g opacity="0.2">
<path d="M202.429 420.429V437.571H219.572V420.429H202.429ZM216.143 434.143H205.857V423.857H216.143V434.143Z" fill="#676767"/>
<path d="M235 423.857V420.429H228.143V415.286C228.143 414.376 227.782 413.504 227.139 412.861C226.496 412.218 225.624 411.857 224.714 411.857H219.571V405H216.143V411.857H205.857V405H202.429V411.857H197.286C196.376 411.857 195.504 412.218 194.861 412.861C194.218 413.504 193.857 414.376 193.857 415.286V420.429H187V423.857H193.857V434.143H187V437.571H193.857V442.714C193.857 443.624 194.218 444.496 194.861 445.139C195.504 445.782 196.376 446.143 197.286 446.143H202.429V453H205.857V446.143H216.143V453H219.571V446.143H224.714C225.624 446.143 226.496 445.782 227.139 445.139C227.782 444.496 228.143 443.624 228.143 442.714V437.571H235V434.143H228.143V423.857H235ZM224.714 442.714H197.286V415.286H224.714V442.714Z" fill="#676767"/>
</g>
<g opacity="0.2">
<path d="M412.393 384.393V392.607H420.607V384.393H412.393ZM418.964 390.964H414.036V386.036H418.964V390.964Z" fill="#676767"/>
<path d="M428 386.036V384.393H424.714V381.929C424.714 381.493 424.541 381.075 424.233 380.767C423.925 380.459 423.507 380.286 423.071 380.286H420.607V377H418.964V380.286H414.036V377H412.393V380.286H409.929C409.493 380.286 409.075 380.459 408.767 380.767C408.459 381.075 408.286 381.493 408.286 381.929V384.393H405V386.036H408.286V390.964H405V392.607H408.286V395.071C408.286 395.507 408.459 395.925 408.767 396.233C409.075 396.541 409.493 396.714 409.929 396.714H412.393V400H414.036V396.714H418.964V400H420.607V396.714H423.071C423.507 396.714 423.925 396.541 424.233 396.233C424.541 395.925 424.714 395.507 424.714 395.071V392.607H428V390.964H424.714V386.036H428ZM423.071 395.071H409.929V381.929H423.071V395.071Z" fill="#676767"/>
</g>
<g opacity="0.2">
<path d="M14.3931 15.3928V23.6071H22.6074V15.3928H14.3931ZM20.9645 21.9643H16.0359V17.0357H20.9645V21.9643Z" fill="#676767"/>
<path d="M30 17.0357V15.3929H26.7143V12.9286C26.7143 12.4929 26.5412 12.075 26.2331 11.7669C25.925 11.4588 25.5071 11.2857 25.0714 11.2857H22.6071V8H20.9643V11.2857H16.0357V8H14.3929V11.2857H11.9286C11.4929 11.2857 11.075 11.4588 10.7669 11.7669C10.4588 12.075 10.2857 12.4929 10.2857 12.9286V15.3929H7V17.0357H10.2857V21.9643H7V23.6071H10.2857V26.0714C10.2857 26.5071 10.4588 26.925 10.7669 27.2331C11.075 27.5412 11.4929 27.7143 11.9286 27.7143H14.3929V31H16.0357V27.7143H20.9643V31H22.6071V27.7143H25.0714C25.5071 27.7143 25.925 27.5412 26.2331 27.2331C26.5412 26.925 26.7143 26.5071 26.7143 26.0714V23.6071H30V21.9643H26.7143V17.0357H30ZM25.0714 26.0714H11.9286V12.9286H25.0714V26.0714Z" fill="#676767"/>
</g>
<g opacity="0.2">
<path d="M7.39307 449.393V457.607H15.6074V449.393H7.39307ZM13.9645 455.964H9.03592V451.036H13.9645V455.964Z" fill="#676767"/>
<path d="M23 451.036V449.393H19.7143V446.929C19.7143 446.493 19.5412 446.075 19.2331 445.767C18.925 445.459 18.5071 445.286 18.0714 445.286H15.6071V442H13.9643V445.286H9.03571V442H7.39286V445.286H4.92857C4.49286 445.286 4.07499 445.459 3.7669 445.767C3.4588 446.075 3.28571 446.493 3.28571 446.929V449.393H0V451.036H3.28571V455.964H0V457.607H3.28571V460.071C3.28571 460.507 3.4588 460.925 3.7669 461.233C4.07499 461.541 4.49286 461.714 4.92857 461.714H7.39286V465H9.03571V461.714H13.9643V465H15.6071V461.714H18.0714C18.5071 461.714 18.925 461.541 19.2331 461.233C19.5412 460.925 19.7143 460.507 19.7143 460.071V457.607H23V455.964H19.7143V451.036H23ZM18.0714 460.071H4.92857V446.929H18.0714V460.071Z" fill="#676767"/>
</g>
<g opacity="0.2">
<path fill-rule="evenodd" clip-rule="evenodd" d="M1014.57 115H1013.14V122.5H1014.57V115ZM1023.29 122.5H1018.72L1018.15 121.675V120.175L1018.72 119.5H1023.29L1023.87 120.25V121.75L1023.29 122.5V122.5ZM1016.15 127H1011.57L1011 126.25V124.75L1011.57 124H1016.15L1016.72 124.75V126.25L1016.15 127ZM1021.72 115H1020.29V118H1021.72V115ZM1020.29 124H1021.72V133H1020.29V124ZM1014.57 128.5H1013.14V133H1014.57V128.5ZM1025.87 128.5H1030.43L1031 127.75V126.325L1030.43 125.575H1025.87L1025.3 126.325V127.75L1025.87 128.5ZM1028.87 115H1027.44V124H1028.87V115ZM1027.44 130H1028.87V133H1027.44V130Z" fill="#676767"/>
</g>
<g opacity="0.2">
<path fill-rule="evenodd" clip-rule="evenodd" d="M969.931 326H968.359V334.25H969.931V326ZM979.524 334.25H974.492L973.863 333.342V331.692L974.492 330.95H979.524L980.153 331.775V333.425L979.524 334.25V334.25ZM971.661 339.2H966.629L966 338.375V336.725L966.629 335.9H971.661L972.29 336.725V338.375L971.661 339.2ZM977.794 326H976.222V329.3H977.794V326ZM976.222 335.9H977.794V345.8H976.222V335.9ZM969.931 340.85H968.359V345.8H969.931V340.85ZM982.355 340.85H987.371L988 340.025V338.458L987.371 337.633H982.355L981.726 338.458V340.025L982.355 340.85ZM985.657 326H984.084V335.9H985.657V326ZM984.084 342.5H985.657V345.8H984.084V342.5Z" fill="#676767"/>
</g>
<g opacity="0.2">
<path fill-rule="evenodd" clip-rule="evenodd" d="M604.574 50H603.144V57.5H604.574V50ZM613.294 57.5H608.72L608.148 56.675V55.175L608.72 54.5H613.294L613.866 55.25V56.75L613.294 57.5V57.5ZM606.147 62H601.572L601 61.25V59.75L601.572 59H606.147L606.718 59.75V61.25L606.147 62ZM611.722 50H610.292V53H611.722V50ZM610.292 59H611.722V68H610.292V59ZM604.574 63.5H603.144V68H604.574V63.5ZM615.868 63.5H620.428L621 62.75V61.325L620.428 60.575H615.868L615.296 61.325V62.75L615.868 63.5ZM618.87 50H617.44V59H618.87V50ZM617.44 65H618.87V68H617.44V65Z" fill="#676767"/>
</g>
<g opacity="0.2">
<path fill-rule="evenodd" clip-rule="evenodd" d="M716.574 440H715.144V447.5H716.574V440ZM725.294 447.5H720.72L720.148 446.675V445.175L720.72 444.5H725.294L725.866 445.25V446.75L725.294 447.5V447.5ZM718.147 452H713.572L713 451.25V449.75L713.572 449H718.147L718.718 449.75V451.25L718.147 452ZM723.722 440H722.292V443H723.722V440ZM722.292 449H723.722V458H722.292V449ZM716.574 453.5H715.144V458H716.574V453.5ZM727.868 453.5H732.428L733 452.75V451.325L732.428 450.575H727.868L727.296 451.325V452.75L727.868 453.5ZM730.87 440H729.44V449H730.87V440ZM729.44 455H730.87V458H729.44V455Z" fill="#676767"/>
</g>
<g opacity="0.2">
<path fill-rule="evenodd" clip-rule="evenodd" d="M584.574 366H583.144V373.5H584.574V366ZM593.294 373.5H588.72L588.148 372.675V371.175L588.72 370.5H593.294L593.866 371.25V372.75L593.294 373.5V373.5ZM586.147 378H581.572L581 377.25V375.75L581.572 375H586.147L586.718 375.75V377.25L586.147 378ZM591.722 366H590.292V369H591.722V366ZM590.292 375H591.722V384H590.292V375ZM584.574 379.5H583.144V384H584.574V379.5ZM595.868 379.5H600.428L601 378.75V377.325L600.428 376.575H595.868L595.296 377.325V378.75L595.868 379.5ZM598.87 366H597.44V375H598.87V366ZM597.44 381H598.87V384H597.44V381Z" fill="#676767"/>
</g>
<rect x="429.608" y="290" width="31.707" height="33.6133" rx="15.8535" transform="rotate(22.0298 429.608 290)" fill="#F8F8F8"/>
</svg>
