<svg width="406" height="303" viewBox="0 0 406 303" fill="none" xmlns="http://www.w3.org/2000/svg">
<path d="M203 302.519C289.951 302.519 360.439 298.403 360.439 293.327C360.439 288.25 289.951 284.135 203 284.135C116.049 284.135 45.5615 288.25 45.5615 293.327C45.5615 298.403 116.049 302.519 203 302.519Z" fill="#F5F5F5"/>
<path d="M406 265.849H0V266.052H406V265.849Z" fill="#EBEBEB"/>
<path d="M59.8202 273.579H42.5977V273.782H59.8202V273.579Z" fill="#EBEBEB"/>
<path d="M207.961 271.379H138.966V271.582H207.961V271.379Z" fill="#EBEBEB"/>
<path d="M85.8936 281.123H54.9482V281.326H85.8936V281.123Z" fill="#EBEBEB"/>
<path d="M365.319 279.758H330.249V279.961H365.319V279.758Z" fill="#EBEBEB"/>
<path d="M327.593 279.758H317.874V279.961H327.593V279.758Z" fill="#EBEBEB"/>
<path d="M301.163 276.332H282.487V276.535H301.163V276.332Z" fill="#EBEBEB"/>
<path d="M273.1 276.332H233.767V276.535H273.1V276.332Z" fill="#EBEBEB"/>
<path d="M192.444 229.634H35.6548C34.4265 229.631 33.2493 229.142 32.3815 228.273C31.5137 227.403 31.0264 226.225 31.0264 224.997V4.59592C31.0371 3.37469 31.5292 2.207 32.3958 1.34647C33.2624 0.485948 34.4335 0.00209203 35.6548 0H192.444C193.674 0 194.853 0.488489 195.722 1.35801C196.592 2.22752 197.08 3.40684 197.08 4.63652V224.997C197.08 226.227 196.592 227.406 195.722 228.276C194.853 229.145 193.674 229.634 192.444 229.634ZM35.6548 0.162401C34.4803 0.164552 33.3547 0.632601 32.525 1.46381C31.6954 2.29503 31.2294 3.42148 31.2294 4.59592V224.997C31.2294 226.172 31.6954 227.298 32.525 228.129C33.3547 228.96 34.4803 229.428 35.6548 229.431H192.444C193.618 229.426 194.744 228.958 195.574 228.127C196.405 227.297 196.873 226.172 196.877 224.997V4.59592C196.873 3.42139 196.405 2.2962 195.574 1.46568C194.744 0.635155 193.618 0.166679 192.444 0.162401H35.6548Z" fill="#EBEBEB"/>
<path d="M368.088 229.634H211.29C210.062 229.629 208.885 229.139 208.017 228.271C207.148 227.402 206.658 226.225 206.654 224.997V4.59592C206.667 3.37395 207.161 2.20627 208.028 1.34597C208.896 0.485664 210.068 0.00206921 211.29 0H368.088C369.307 0.00422605 370.476 0.489026 371.341 1.34932C372.206 2.20962 372.697 3.37609 372.708 4.59592V224.997C372.709 225.605 372.59 226.207 372.359 226.769C372.127 227.331 371.787 227.842 371.358 228.272C370.929 228.703 370.419 229.045 369.858 229.278C369.297 229.512 368.695 229.633 368.088 229.634ZM211.29 0.162401C210.116 0.166679 208.991 0.635155 208.16 1.46568C207.33 2.2962 206.861 3.42139 206.857 4.59592V224.997C206.861 226.172 207.33 227.297 208.16 228.127C208.991 228.958 210.116 229.426 211.29 229.431H368.088C369.262 229.426 370.387 228.958 371.218 228.127C372.048 227.297 372.517 226.172 372.521 224.997V4.59592C372.517 3.42139 372.048 2.2962 371.218 1.46568C370.387 0.635155 369.262 0.166679 368.088 0.162401H211.29Z" fill="#EBEBEB"/>
<path d="M255.999 184.381H252.54V266.003H255.999V184.381Z" fill="#F0F0F0"/>
<path d="M217.267 186.711H120.647V204.34H217.267V186.711Z" fill="#E0E0E0"/>
<path d="M160.938 266.068H119.526C119.367 266.068 119.214 266.005 119.101 265.892C118.989 265.779 118.925 265.626 118.925 265.467C118.925 265.308 118.989 265.155 119.101 265.042C119.214 264.93 119.367 264.866 119.526 264.866H160.938C166.923 264.866 167.726 263.12 167.726 256.186V168.742C167.717 168.657 167.725 168.572 167.75 168.491C167.776 168.41 167.818 168.336 167.874 168.272C167.931 168.209 168 168.158 168.077 168.124C168.155 168.089 168.239 168.071 168.323 168.071C168.408 168.071 168.492 168.089 168.569 168.124C168.647 168.158 168.716 168.209 168.772 168.272C168.829 168.336 168.871 168.41 168.896 168.491C168.922 168.572 168.93 168.657 168.92 168.742V256.186C168.896 263.599 167.767 266.068 160.938 266.068Z" fill="#E0E0E0"/>
<path d="M255.057 184.698H124.366V190.82H255.057V184.698Z" fill="#F0F0F0"/>
<path d="M125.308 184.381H83.3438V266.003H125.308V184.381Z" fill="#F5F5F5"/>
<path d="M125.3 184.381H121.841V266.003H125.3V184.381Z" fill="#F0F0F0"/>
<path d="M95.5888 92.7466H52.6665V266.011H95.5888V92.7466Z" fill="#FAFAFA"/>
<path d="M93.2337 97.8054H55.021V136.018H93.2337V97.8054Z" fill="#F5F5F5"/>
<path d="M65.6665 97.2938H82.6129C82.6129 98.3448 82.1955 99.3526 81.4523 100.096C80.7092 100.839 79.7013 101.256 78.6504 101.256H69.6534C69.133 101.26 68.6171 101.16 68.1352 100.964C67.6532 100.768 67.2145 100.479 66.8443 100.113C66.4741 99.7473 66.1795 99.3123 65.9774 98.8327C65.7753 98.3532 65.6697 97.8386 65.6665 97.3182V97.2938Z" fill="#E0E0E0"/>
<path d="M93.2259 139.445H55.0132V177.657H93.2259V139.445Z" fill="#F5F5F5"/>
<path d="M93.2337 181.092H55.021V219.305H93.2337V181.092Z" fill="#F5F5F5"/>
<path d="M93.2337 222.74H55.021V260.952H93.2337V222.74Z" fill="#F5F5F5"/>
<path d="M65.6665 138.941H82.6129C82.6108 139.992 82.1929 141 81.4505 141.744C80.708 142.488 79.7014 142.908 78.6504 142.912H69.6534C69.1324 142.915 68.6158 142.816 68.1333 142.619C67.6508 142.422 67.2118 142.132 66.8415 141.766C66.4711 141.399 66.1767 140.963 65.9751 140.483C65.7735 140.002 65.6686 139.487 65.6665 138.966V138.941Z" fill="#E0E0E0"/>
<path d="M65.6665 180.581H82.6129C82.614 181.101 82.5122 181.617 82.3135 182.098C82.1147 182.58 81.8229 183.017 81.4547 183.385C81.0866 183.753 80.6493 184.045 80.168 184.244C79.6868 184.443 79.1711 184.544 78.6504 184.543H69.6534C68.6039 184.55 67.5946 184.14 66.8472 183.403C66.0997 182.666 65.6751 181.663 65.6665 180.613V180.581Z" fill="#E0E0E0"/>
<path d="M65.6665 222.22H82.6129C82.614 222.741 82.5122 223.256 82.3135 223.738C82.1147 224.219 81.8229 224.656 81.4547 225.024C81.0866 225.392 80.6493 225.684 80.168 225.883C79.6868 226.082 79.1711 226.184 78.6504 226.183H69.6534C68.6039 226.189 67.5946 225.779 66.8472 225.042C66.0997 224.305 65.6751 223.302 65.6665 222.252V222.22Z" fill="#E0E0E0"/>
<path d="M52.6663 92.7466H31.2295V266.011H52.6663V92.7466Z" fill="#F0F0F0"/>
<path d="M163.39 184.381H154.345L156.537 166.76H165.599L163.39 184.381Z" fill="#F0F0F0"/>
<path d="M165.396 184.381H156.342L158.551 166.76H167.597L165.396 184.381Z" fill="#F5F5F5"/>
<path d="M184.819 184.381H178.267L177.016 182.383H183.561L184.819 184.381Z" fill="#F0F0F0"/>
<path d="M219.889 184.381H180.272L179.021 182.383H214.546L219.889 184.381Z" fill="#FAFAFA"/>
<path d="M134.686 179.322H137.553C138.217 179.322 138.874 179.453 139.487 179.707C140.101 179.962 140.658 180.334 141.127 180.804C141.596 181.274 141.968 181.832 142.221 182.446C142.475 183.059 142.604 183.717 142.603 184.381H129.611C129.611 183.039 130.144 181.752 131.093 180.804C132.042 179.855 133.328 179.322 134.67 179.322H134.686Z" fill="#F0F0F0"/>
<path d="M166.492 175.571H157.447L158.551 166.76H167.597L166.492 175.571Z" fill="#F0F0F0"/>
<path d="M133.217 173.459H197.316C197.432 173.46 197.548 173.438 197.656 173.394C197.764 173.35 197.862 173.285 197.944 173.203C198.026 173.12 198.092 173.022 198.136 172.914C198.18 172.806 198.202 172.691 198.201 172.574C198.205 172.537 198.205 172.498 198.201 172.461L193.256 132.981C193.239 132.76 193.14 132.553 192.977 132.403C192.814 132.252 192.601 132.169 192.379 132.169H128.296C128.061 132.169 127.836 132.262 127.67 132.428C127.504 132.594 127.411 132.82 127.411 133.054C127.407 133.092 127.407 133.13 127.411 133.168L132.356 172.688C132.385 172.898 132.487 173.09 132.645 173.232C132.802 173.373 133.005 173.454 133.217 173.459Z" fill="#F0F0F0"/>
<path d="M134.183 173.459H198.225C198.342 173.46 198.458 173.438 198.565 173.394C198.673 173.35 198.771 173.285 198.854 173.203C198.936 173.12 199.001 173.022 199.045 172.914C199.089 172.806 199.112 172.691 199.11 172.574C199.114 172.536 199.114 172.498 199.11 172.461L194.182 132.981C194.158 132.761 194.055 132.558 193.892 132.408C193.729 132.259 193.518 132.174 193.297 132.169H129.246C129.011 132.169 128.786 132.262 128.62 132.428C128.454 132.594 128.361 132.82 128.361 133.054C128.357 133.092 128.357 133.13 128.361 133.168L133.298 172.656C133.316 172.877 133.418 173.083 133.582 173.232C133.746 173.381 133.961 173.462 134.183 173.459Z" fill="#F5F5F5"/>
<path d="M197.04 171.275L192.444 134.321C192.436 134.261 192.406 134.206 192.359 134.167C192.313 134.128 192.253 134.107 192.192 134.11H130.683C130.652 134.108 130.62 134.112 130.59 134.122C130.56 134.133 130.533 134.149 130.509 134.17C130.486 134.191 130.467 134.217 130.453 134.246C130.44 134.275 130.433 134.306 130.432 134.337V134.386L135.052 171.332C135.058 171.392 135.086 171.448 135.131 171.489C135.176 171.529 135.235 171.552 135.296 171.551H196.796C196.829 171.55 196.862 171.543 196.892 171.529C196.922 171.515 196.949 171.496 196.972 171.472C196.995 171.448 197.012 171.419 197.024 171.388C197.036 171.357 197.041 171.324 197.04 171.291V171.275Z" fill="#E0E0E0"/>
<path d="M173.638 184.381H158.892V184.194C158.892 183.806 159.046 183.433 159.32 183.158C159.594 182.882 159.965 182.727 160.354 182.724H172.144C172.534 182.724 172.908 182.879 173.183 183.155C173.459 183.43 173.614 183.804 173.614 184.194V184.381H173.638Z" fill="#FAFAFA"/>
<path d="M160.606 184.381H150.61V184.194C150.609 184.001 150.646 183.811 150.719 183.632C150.792 183.454 150.899 183.292 151.035 183.155C151.171 183.019 151.332 182.91 151.51 182.836C151.688 182.762 151.879 182.724 152.071 182.724H159.152C159.541 182.727 159.912 182.882 160.186 183.158C160.46 183.433 160.614 183.806 160.614 184.194V184.381H160.606Z" fill="#F0F0F0"/>
<path d="M70.8065 73.1774C70.9689 72.6252 71.1232 72.065 71.2613 71.5128C71.5026 71.8978 71.8313 72.2205 72.2207 72.4547C72.6101 72.6889 73.0492 72.828 73.5024 72.8607H73.6973C74.8909 72.747 76.0277 71.5859 76.7504 69.767C76.7661 69.7355 76.7743 69.7007 76.7743 69.6655C76.7743 69.6303 76.7661 69.5955 76.7504 69.564C76.7338 69.5314 76.7109 69.5024 76.683 69.4787C76.6552 69.455 76.6228 69.4371 76.588 69.426C75.7318 69.209 74.8394 69.175 73.9692 69.3261C73.0989 69.4772 72.2703 69.8101 71.5373 70.3029C71.651 69.7751 71.7403 69.2392 71.8215 68.6789C72.0084 68.7183 72.199 68.7374 72.3899 68.7358C73.0556 68.6755 73.7027 68.4837 74.2937 68.1715C74.8847 67.8592 75.4079 67.4328 75.8328 66.9169C75.8791 66.8673 75.9048 66.802 75.9048 66.7342C75.9048 66.6664 75.8791 66.6011 75.8328 66.5515H75.7679C75.3164 66.3269 74.8224 66.2006 74.3185 66.181C73.8146 66.1614 73.3122 66.2489 72.8447 66.4378C72.346 66.6915 71.9418 67.0985 71.6916 67.599C71.3296 66.4693 70.6599 65.4629 69.7578 64.6927C68.8556 63.9224 67.7566 63.4189 66.5841 63.2385C66.5489 63.2298 66.512 63.2297 66.4767 63.2382C66.4414 63.2467 66.4086 63.2635 66.3811 63.2872C66.3513 63.3091 66.3264 63.337 66.3082 63.3692C66.29 63.4014 66.2789 63.4372 66.2756 63.474C66.1781 65.236 66.2756 67.4041 67.5585 68.4272C68.1088 68.835 68.7825 69.0414 69.4667 69.0119C70.0833 69.0026 70.6956 68.907 71.2856 68.7276C71.097 70.0025 70.8257 71.2637 70.4736 72.5034C69.176 70.7475 67.344 69.4597 65.2525 68.8332C65.1897 68.8262 65.1265 68.841 65.0733 68.8749C65.0201 68.9089 64.9802 68.9601 64.9601 69.02C64.5623 70.5465 64.7653 71.7808 65.5529 72.5928C65.9541 72.9488 66.4219 73.2218 66.9292 73.396C67.4365 73.5703 67.9733 73.6422 68.5086 73.6078C69.084 73.6014 69.6576 73.5416 70.2219 73.4291C69.8971 74.4685 69.5073 75.4916 69.1419 76.4579C68.3299 75.7433 66.0157 73.9732 63.4579 74.7202C63.391 74.7452 63.3359 74.7945 63.3037 74.8582C63.2879 74.8898 63.2797 74.9245 63.2797 74.9597C63.2797 74.995 63.2879 75.0297 63.3037 75.0612C64.0182 76.7502 64.7815 77.684 65.7397 78.0007C66.0014 78.0879 66.2757 78.1318 66.5517 78.1306C67.3065 78.1003 68.0425 77.8856 68.6953 77.5054C68.1513 78.7964 67.5748 79.9982 67.0307 81.07C66.3774 80.4044 65.5568 79.9271 64.6551 79.6885C63.7534 79.4498 62.8041 79.4587 61.907 79.714C61.8461 79.7276 61.7924 79.7635 61.7564 79.8145C61.7204 79.8655 61.7046 79.9281 61.7121 79.9901C61.7735 80.5298 61.9762 81.0439 62.2999 81.4801C62.6235 81.9164 63.0566 82.2596 63.5554 82.4748C63.9328 82.6356 64.3388 82.7184 64.749 82.7184C65.3161 82.708 65.8727 82.5633 66.373 82.2962C65.8127 83.3274 65.3012 84.1963 64.8952 84.8459H60.0881C59.2761 83.5304 58.4641 81.8902 57.5466 80.0469C57.9521 80.1696 58.3734 80.2325 58.7971 80.2337C59.2424 80.2401 59.6847 80.1586 60.0985 79.9939C60.5123 79.8292 60.8895 79.5844 61.2086 79.2736C61.5276 78.9629 61.7822 78.5922 61.9578 78.1829C62.1334 77.7735 62.2265 77.3336 62.2318 76.8882C62.2375 76.5898 62.202 76.2919 62.1263 76.0032C62.1093 75.9452 62.0721 75.8953 62.0214 75.8625C61.9707 75.8297 61.91 75.8163 61.8502 75.8245C60.8587 75.9208 59.905 76.2544 59.0697 76.7971C58.2344 77.3399 57.5421 78.0758 57.0513 78.9426C56.4829 77.6596 55.9226 76.2955 55.4273 74.8826C56.0462 75.2329 56.7387 75.4332 57.4491 75.4672C57.7257 75.4677 58.0003 75.421 58.2611 75.3292C59.6903 74.8583 60.5104 73.1368 61.2087 71.3585C61.2245 71.3256 61.2328 71.2895 61.2328 71.253C61.2328 71.2164 61.2245 71.1803 61.2087 71.1474C61.1921 71.1148 61.1692 71.0858 61.1414 71.0621C61.1135 71.0384 61.0812 71.0205 61.0463 71.0094C58.1881 70.1974 55.8414 72.9582 55.1106 73.9488C54.7294 72.7595 54.4122 71.5506 54.1605 70.3273C54.763 70.4425 55.3743 70.505 55.9875 70.514C56.5943 70.5585 57.2037 70.4777 57.7778 70.2765C58.352 70.0754 58.8786 69.7582 59.3249 69.3448C60.1856 68.4272 60.3967 67.0549 59.9339 65.3903C59.9263 65.3576 59.9122 65.3267 59.8925 65.2995C59.8727 65.2722 59.8478 65.2493 59.819 65.2318C59.7902 65.2144 59.7583 65.203 59.725 65.1981C59.6917 65.1932 59.6578 65.1951 59.6253 65.2036C57.3357 65.8949 55.3378 67.3219 53.9413 69.2636L53.8276 68.614C53.823 68.5593 53.8001 68.5078 53.7627 68.4678C53.6434 68.0454 53.4373 67.6525 53.1577 67.3142C52.8781 66.9758 52.531 66.6995 52.1387 66.5028C51.6233 66.3049 51.0721 66.2178 50.5209 66.2472C49.9696 66.2766 49.4308 66.4218 48.9394 66.6733C48.9024 66.6903 48.8694 66.715 48.8428 66.7458C48.8162 66.7767 48.7965 66.8128 48.7851 66.8519C48.7761 66.8916 48.7766 66.9329 48.7864 66.9724C48.7963 67.0119 48.8153 67.0485 48.8419 67.0793C49.308 67.6353 49.8794 68.0937 50.5232 68.4281C51.167 68.7626 51.8705 68.9665 52.5934 69.0281C52.8222 69.0198 53.0501 68.9954 53.2755 68.955C53.3648 69.5559 53.4785 70.1649 53.6084 70.7658C52.7946 70.2309 51.8769 69.8742 50.9155 69.7188C49.9541 69.5635 48.9708 69.6131 48.0299 69.8644C47.9585 69.8887 47.898 69.9376 47.8594 70.0025C47.8353 70.0708 47.8353 70.1453 47.8594 70.2136C48.6714 72.203 49.9544 73.4616 51.2698 73.5672H51.4485C51.9465 73.5242 52.4272 73.3634 52.8507 73.0979C53.2743 72.8325 53.6286 72.4701 53.8845 72.0406C54.2461 73.4158 54.6798 74.771 55.1837 76.1006C53.9494 75.516 51.1724 74.4766 49.183 76.0438C49.1312 76.084 49.0965 76.1424 49.086 76.2072C49.0754 76.2719 49.0898 76.3383 49.1261 76.3929C50.4091 78.1468 51.5621 78.9913 52.7639 78.9913C53.7221 78.9913 54.6477 78.3823 55.5653 77.1887C56.0931 78.496 56.6696 79.7546 57.1893 80.9158C55.9551 80.1525 54.599 80.2662 52.9994 81.273C52.9627 81.2969 52.9325 81.3293 52.9112 81.3675C52.89 81.4058 52.8785 81.4486 52.8776 81.4923C52.8742 81.5338 52.8822 81.5754 52.9008 81.6126C52.9194 81.6498 52.9479 81.6812 52.9831 81.7034C53.9348 82.3912 55.0598 82.799 56.2311 82.8808C56.8372 82.8979 57.4325 82.7184 57.9282 82.3692C58.3829 83.2462 58.8295 84.0501 59.2437 84.8052H57.1731V86.0639H57.9851L58.6509 92.7141H68.3949L69.0526 86.0639H69.8646V84.854H65.4798C65.967 84.042 66.5841 82.9701 67.25 81.7115C67.2668 81.6834 67.2804 81.6534 67.2906 81.6222C67.4611 81.2974 67.6316 80.9726 67.8021 80.6316C68.0917 81.0711 68.4824 81.4347 68.9417 81.6919C69.4009 81.949 69.9151 82.0922 70.4411 82.1094H70.7659C71.3482 82.0428 71.9006 81.8165 72.3621 81.4553C72.8235 81.0941 73.1761 80.6123 73.3806 80.0632C73.4032 80.008 73.404 79.9463 73.3829 79.8906C73.3618 79.8348 73.3204 79.7891 73.2669 79.7627C72.5193 79.3391 71.6815 79.0997 70.823 79.0644C69.9644 79.0291 69.1098 79.1989 68.3299 79.5597C68.6953 78.7477 69.0445 77.9357 69.4099 77.1237C69.4397 77.0923 69.4594 77.0527 69.4667 77.01C69.5642 76.7664 69.6535 76.5229 69.7591 76.2955C70.5711 77.3673 71.448 77.9195 72.325 77.9195C73.3887 77.9195 74.4687 77.1075 75.6217 75.4835C75.6424 75.457 75.6576 75.4266 75.6663 75.3942C75.6751 75.3617 75.6772 75.3279 75.6727 75.2946C75.6682 75.2613 75.657 75.2292 75.6399 75.2003C75.6227 75.1714 75.6 75.1462 75.573 75.1262C73.7541 73.7621 71.2937 74.6959 70.1326 75.2399C70.3681 74.5903 70.5873 73.9407 70.7822 73.283L70.8065 73.1774Z" fill="#E0E0E0"/>
<path d="M232.971 225.192H259.84C262.295 225.186 264.652 224.221 266.405 222.502C268.159 220.783 269.171 218.447 269.227 215.992L270.233 166.842C270.268 165.023 269.58 163.265 268.319 161.954C267.058 160.643 265.328 159.886 263.51 159.85H246.547C244.864 159.847 243.238 160.465 241.981 161.586C240.724 162.706 239.924 164.251 239.735 165.924L232.971 225.192Z" fill="#E6E6E6"/>
<path d="M247.66 225.192H219.021C218.666 225.192 218.325 225.051 218.074 224.8C217.822 224.548 217.681 224.207 217.681 223.852V223.722C217.681 222.749 218.068 221.815 218.756 221.127C219.444 220.439 220.378 220.052 221.351 220.052H247.66V225.2V225.192Z" fill="#E6E6E6"/>
<path d="M245.362 266.677C245.224 266.68 245.089 266.634 244.981 266.548C244.872 266.462 244.797 266.341 244.769 266.206L236.381 225.793H221.765L213.385 266.206C213.339 266.352 213.24 266.475 213.108 266.552C212.976 266.629 212.82 266.654 212.671 266.623C212.521 266.591 212.389 266.506 212.299 266.382C212.209 266.259 212.168 266.106 212.184 265.954L220.677 225.07C220.704 224.932 220.779 224.808 220.889 224.72C220.999 224.632 221.137 224.586 221.278 224.591H236.852C236.991 224.588 237.127 224.635 237.236 224.723C237.344 224.81 237.418 224.933 237.445 225.07L245.93 265.954C245.947 266.031 245.948 266.109 245.935 266.186C245.921 266.263 245.892 266.336 245.85 266.402C245.807 266.468 245.753 266.524 245.688 266.569C245.624 266.613 245.552 266.644 245.476 266.661L245.362 266.677Z" fill="#E6E6E6"/>
<path d="M236.292 266.677H236.17C236.014 266.646 235.877 266.554 235.788 266.421C235.7 266.289 235.668 266.127 235.699 265.971L244.193 225.078C244.222 224.941 244.298 224.819 244.408 224.732C244.517 224.645 244.654 224.598 244.793 224.599H260.368C260.506 224.6 260.64 224.647 260.748 224.734C260.856 224.822 260.931 224.943 260.96 225.078L269.446 265.971C269.462 266.049 269.462 266.13 269.447 266.208C269.432 266.287 269.401 266.361 269.357 266.428C269.313 266.495 269.256 266.552 269.19 266.597C269.124 266.642 269.049 266.673 268.971 266.689C268.892 266.705 268.812 266.706 268.733 266.69C268.655 266.675 268.58 266.645 268.513 266.6C268.446 266.556 268.389 266.5 268.344 266.433C268.299 266.367 268.268 266.293 268.252 266.214L259.84 225.801H245.224L236.844 266.214C236.813 266.34 236.743 266.453 236.644 266.536C236.544 266.619 236.421 266.669 236.292 266.677Z" fill="#E6E6E6"/>
<path d="M337.215 254.814H338.888C338.888 251.371 338.888 242.634 339.067 222.594C339.359 186.281 339.944 184.072 339.944 184.072L335.965 200.84C333.431 219.394 336.679 238.07 337.215 254.814Z" fill="#E6E6E6"/>
<path d="M329.802 194.62C321.032 185.956 303.915 184.795 286.425 184.064C279.564 183.78 305.588 196.967 318.637 206.841C328.722 214.506 334.942 216.317 338.304 224.583C338.693 213.856 337.354 202.09 329.802 194.62Z" fill="#E6E6E6"/>
<path d="M339.416 175.782C345.36 164.495 360.309 153.858 377.085 149.798C383.662 148.214 361.819 170.634 353.537 185.104C347.089 196.342 338.539 209.529 337.215 219.013C335.21 200.264 333.488 187.069 339.416 175.782Z" fill="#E0E0E0"/>
<path d="M338.693 265.678C335.881 265.673 333.178 264.594 331.134 262.662C329.091 260.731 327.862 258.092 327.699 255.285L326.692 245.33H350.63L349.623 255.285C349.46 258.081 348.24 260.71 346.211 262.64C344.181 264.57 341.494 265.656 338.693 265.678Z" fill="#EBEBEB"/>
<path d="M352.197 249.162H325.149L324.37 238.07H352.968L352.197 249.162Z" fill="#F0F0F0"/>
<path d="M362.258 16.8734H224.591V115.304H362.258V16.8734Z" fill="#E0E0E0"/>
<path d="M359.221 16.8734H224.591V115.304H359.221V16.8734Z" fill="#F0F0F0"/>
<path d="M354.178 21.0389H229.089V108.865H354.178V21.0389Z" fill="#FAFAFA"/>
<path d="M364.223 12.5779H219.93V14.2993H364.223V12.5779Z" fill="#E0E0E0"/>
<path d="M218.777 15.8745C220.104 15.8745 221.181 14.7985 221.181 13.471C221.181 12.1436 220.104 11.0675 218.777 11.0675C217.45 11.0675 216.374 12.1436 216.374 13.471C216.374 14.7985 217.45 15.8745 218.777 15.8745Z" fill="#E0E0E0"/>
<path d="M364.222 15.8745C365.55 15.8745 366.626 14.7985 366.626 13.471C366.626 12.1436 365.55 11.0675 364.222 11.0675C362.895 11.0675 361.819 12.1436 361.819 13.471C361.819 14.7985 362.895 15.8745 364.222 15.8745Z" fill="#E0E0E0"/>
<path opacity="0.7" d="M341.763 21.0389L302.105 108.865H286.474L326.132 21.0389H341.763Z" fill="white"/>
<path opacity="0.7" d="M311.751 21.0389L272.093 108.865H244.193L283.851 21.0389H311.751Z" fill="white"/>
<path d="M362.258 56.3934H224.591V59.3816H362.258V56.3934Z" fill="#E0E0E0"/>
<path d="M362.258 52.0005H224.591V54.9886H362.258V52.0005Z" fill="#E0E0E0"/>
<path d="M362.258 47.6157H224.591V50.6039H362.258V47.6157Z" fill="#E0E0E0"/>
<path d="M362.258 43.2228H224.591V46.2109H362.258V43.2228Z" fill="#E0E0E0"/>
<path d="M362.258 38.838H224.591V41.8262H362.258V38.838Z" fill="#E0E0E0"/>
<path d="M362.258 34.4531H224.591V37.4413H362.258V34.4531Z" fill="#E0E0E0"/>
<path d="M362.258 30.0602H224.591V33.0483H362.258V30.0602Z" fill="#E0E0E0"/>
<path d="M362.258 25.6754H224.591V28.6636H362.258V25.6754Z" fill="#E0E0E0"/>
<path d="M362.258 21.2906H224.591V24.2788H362.258V21.2906Z" fill="#E0E0E0"/>
<path d="M362.258 16.8977H224.591V19.8859H362.258V16.8977Z" fill="#E0E0E0"/>
<path d="M175.497 16.0695H150.333V41.2333H175.497V16.0695Z" fill="#F0F0F0"/>
<path d="M173.533 16.0695H148.369V41.2333H173.533V16.0695Z" fill="#F5F5F5"/>
<path d="M171.6 18.0101H150.31V39.3008H171.6V18.0101Z" fill="#FAFAFA"/>
<path d="M150.91 18.0101H150.31V39.3008H150.91V18.0101Z" fill="#F0F0F0"/>
<path d="M169.042 23.6941V33.495C168.22 33.495 167.431 33.8218 166.849 34.4035C166.267 34.9852 165.94 35.7741 165.94 36.5968H156.879C156.879 36.1888 156.798 35.7848 156.642 35.4079C156.485 35.031 156.256 34.6887 155.967 34.4006C155.678 34.1125 155.335 33.8841 154.958 33.7287C154.581 33.5733 154.177 33.4939 153.769 33.495V23.6941C154.177 23.6952 154.581 23.6158 154.958 23.4603C155.335 23.3049 155.678 23.0766 155.967 22.7885C156.256 22.5004 156.485 22.158 156.642 21.7812C156.798 21.4043 156.879 21.0003 156.879 20.5923H165.94C165.94 20.9996 166.021 21.403 166.177 21.7793C166.332 22.1556 166.561 22.4976 166.849 22.7856C167.137 23.0737 167.479 23.3021 167.855 23.458C168.232 23.6139 168.635 23.6941 169.042 23.6941Z" fill="white"/>
<path d="M129.839 15.8665H45.3745V58.8781H129.839V15.8665Z" fill="#E6E6E6"/>
<path d="M126.412 15.8665H41.9478V58.8781H126.412V15.8665Z" fill="#F0F0F0"/>
<path d="M123.375 19.6179H45.1309V54.136H123.375V19.6179Z" fill="#F5F5F5"/>
<path opacity="0.7" d="M104.862 19.6179L89.7178 54.136H79.1699L95.1744 19.6179H104.862Z" fill="white"/>
<path opacity="0.7" d="M91.5531 19.6179L75.3699 54.136H70.6685L87.0952 19.6179H91.5531Z" fill="white"/>
<path d="M105.771 50.9368C105.771 50.9368 100.607 49.7838 99.8758 43.1254C99.2018 36.9461 101.955 35.7199 101.955 35.7199C101.955 35.7199 98.4385 29.4026 104.309 25.7729C110.18 22.1433 119.169 26.9828 122.628 25.3426C126.087 23.7023 129.936 24.6199 128.84 29.4919C127.744 34.3639 122.612 35.6306 122.612 35.6306L110.765 33.5519C110.765 33.5519 115.872 46.8687 112.843 49.3778C109.815 51.8868 105.771 50.9368 105.771 50.9368Z" fill="#263238"/>
<path d="M126.412 31.3108C126.412 31.3108 128.97 41.2497 126.412 42.963C123.854 44.6763 123.302 32.7805 123.302 32.7805L126.412 31.3108Z" fill="#263238"/>
<path d="M107.565 127.573L105.024 133.014L100.517 132.364C96.2703 133.046 94.5002 130.635 94.5002 130.635L91.8287 128.199C76.896 114.216 74.3788 107.087 75.6618 101.459C77.0178 95.5156 86.0148 78.0332 88.7268 73.9651C91.4389 69.897 93.4852 68.7846 93.4852 68.7846C98.4059 66.6652 102.133 68.1918 103.846 73.4536C105.235 77.7084 102.084 82.1501 99.6564 85.3575C96.6698 89.2839 93.9099 93.3776 91.3902 97.6187C90.5782 99.0153 89.7662 100.436 89.0029 101.865C88.67 102.483 86.8349 105.162 87.0379 105.706C88.2884 109.19 94.5732 119.08 96.7819 122.506L97.5452 123.692C105.698 124.861 107.565 127.573 107.565 127.573Z" fill="#263238"/>
<path d="M192.387 70.1163L187.653 72.8202C187.653 72.8202 186.63 74.834 184.941 77.6516C181.1 84.0745 173.833 94.7036 167.41 95.4182C158.973 96.1246 150.106 92.2189 141.198 86.2426C132.291 80.2663 135.433 66.5922 135.433 66.5922C135.433 66.5922 140.752 68.0863 148.986 74.1763C157.219 80.2663 164.202 83.9852 166.232 84.7728C166.232 84.7728 173.216 82.5236 180.775 73.7378L182.919 66.852L190.024 64.416L192.387 70.1163Z" fill="#263238"/>
<path d="M93.1852 89.6935C93.4937 90.132 101.5 129.433 101.5 129.433H138.901C138.901 129.433 139.234 105.406 139.851 99.7055C140.468 94.0052 144.252 70.4735 135.434 66.5921C135.434 66.5921 126.453 64.4566 119.827 64.3672C115.838 64.3132 111.853 64.6532 107.931 65.3822C107.931 65.3822 96.4575 65.9912 93.4775 68.7683C90.4975 71.5453 93.1852 89.6935 93.1852 89.6935Z" fill="#263238"/>
<path d="M138.901 128.905C138.901 128.905 138.267 185.591 136.57 199.151C134.873 212.712 130.472 271.314 130.472 271.314L119.364 268.642C119.364 268.642 118.552 225.988 117.391 204.803C116.23 183.618 116.49 158.519 116.49 158.519C116.49 158.519 108.369 211.299 105.243 216.382C102.117 221.465 89.4012 250.843 81.2 265.524L72.1543 257.615C72.1543 257.615 86.884 210.73 89.4012 202.821C91.9184 194.912 94.1108 136.237 101.5 129.433L138.901 128.905Z" fill="#9094F2"/>
<path d="M79.8275 263.803L77.5701 267.254L74.5251 271.914L68.3052 268.683L70.8549 263.535L72.7549 259.718L79.8275 263.803Z" fill="#FFC5B3"/>
<path d="M192.387 70.1163L187.653 72.8202C187.653 72.8202 186.63 74.834 184.941 77.6516L180.775 73.7378L182.919 66.852L190.024 64.416L192.387 70.1163Z" fill="#FFC5B3"/>
<path opacity="0.3" d="M138.893 128.905C138.893 128.905 138.267 185.591 136.57 199.143C134.873 212.695 130.472 271.314 130.472 271.314L119.502 269.47C119.502 269.47 118.487 225.988 117.366 204.795C117.05 198.753 116.489 194.157 116.368 190.625C116.246 187.093 116.27 180.881 116.368 174.799C116.473 165.997 116.668 157.439 116.668 157.439L116.425 158.998C116.425 159.225 116.351 159.477 116.303 159.745L116.254 160.07C114.524 170.999 107.931 211.948 105.251 216.349C102.109 221.465 89.4012 250.843 81.2 265.524L72.1543 257.615C72.1543 257.615 86.8515 210.722 89.3931 202.821C91.9346 194.921 94.1027 136.237 101.492 129.425L138.893 128.905Z" fill="black"/>
<path opacity="0.2" d="M116.392 158.99C116.392 159.217 116.319 159.469 116.27 159.737L116.392 158.99Z" fill="black"/>
<path opacity="0.2" d="M118.17 147.614C118.17 147.614 117.959 163.854 116.335 174.791C116.441 165.989 116.635 157.431 116.635 157.431L118.17 147.614Z" fill="black"/>
<path d="M121.378 62.8164C122.467 63.6661 123.707 64.3025 125.032 64.6921C125.032 64.6921 123.14 66.9657 117.074 66.5191C114.711 66.3405 111.707 67.6316 107.939 65.3823C107.939 65.3823 109.514 56.3854 108.824 51.0587C108.824 51.0587 102.596 48.3872 104.082 44.3353C105.43 40.6488 109.628 44.8793 110.391 45.6832C109.644 44.7332 105.162 38.7487 108.426 33.8524C109.472 32.2892 110.848 30.9749 112.457 30.0025C114.067 29.03 115.87 28.4233 117.74 28.2252L122.888 29.6056L124.959 34.4776C124.959 34.4776 127.728 38.2291 127.922 45.7401C128.117 53.2511 123.773 55.9144 120.614 56.8076C120.614 56.8076 120.525 57.6196 120.525 58.7158C120.485 60.1855 120.623 62.1262 121.378 62.8164Z" fill="#FFC5B3"/>
<path d="M123.01 46.3327L122.198 40.2671L125.616 45.0417C125.293 45.4231 124.895 45.7344 124.446 45.9564C123.998 46.1784 123.509 46.3065 123.01 46.3327Z" fill="#D67373"/>
<path d="M117.074 46.7144C117.548 47.3296 118.193 47.7921 118.927 48.0447C119.662 48.2973 120.454 48.3288 121.207 48.1354" stroke="#263238" stroke-linecap="round" stroke-linejoin="round"/>
<path d="M115.523 38.3265C115.523 38.3265 116.497 36.199 118.495 36.5238" stroke="#263238" stroke-linecap="round" stroke-linejoin="round"/>
<path d="M124.301 35.7281C124.895 35.6504 125.5 35.7151 126.065 35.917C126.63 36.1189 127.138 36.4521 127.549 36.8892" stroke="#263238" stroke-linecap="round" stroke-linejoin="round"/>
<path d="M119.161 41.0873C119.161 41.68 118.86 42.1591 118.495 42.1591C118.13 42.1591 117.829 41.68 117.829 41.0873C117.829 40.4945 118.13 40.0236 118.495 40.0236C118.86 40.0236 119.161 40.5026 119.161 41.0873Z" fill="#263238"/>
<path d="M125.917 40.6487C125.917 41.2334 125.616 41.7125 125.251 41.7125C124.885 41.7125 124.585 41.2334 124.585 40.6487C124.585 40.0641 124.885 39.5769 125.251 39.5769C125.616 39.5769 125.917 40.056 125.917 40.6487Z" fill="#263238"/>
<path d="M114.67 69.2799L119.883 68.4841L121.158 73.5267L118.73 78.0414H117.334L114.67 73.9895V69.2799Z" fill="#9094F2"/>
<path d="M117.334 78.0414L114.67 101.865L119.542 106.559L123.058 101.76L118.73 78.0414H117.334Z" fill="#9094F2"/>
<path opacity="0.3" d="M114.67 69.2799L119.883 68.4841L121.158 73.5267L118.73 78.0414H117.334L114.67 73.9895V69.2799Z" fill="black"/>
<path opacity="0.3" d="M117.334 78.0414L114.67 101.865L119.542 106.559L123.058 101.76L118.73 78.0414H117.334Z" fill="black"/>
<path d="M117.074 66.5191L119.713 73.4698C119.713 73.4698 126.534 70.0675 127.532 64.3673L122.66 62.6946C120.965 64.1978 119.088 65.4826 117.074 66.5191Z" fill="white"/>
<path d="M108.402 62.2399C108.402 62.2399 113.12 64.7246 117.074 66.5191L115.523 73.4698C115.523 73.4698 107.712 68.7927 105.089 65.1387L108.402 62.2399Z" fill="white"/>
<path opacity="0.2" d="M120.582 56.7832C120.582 56.7832 120.492 57.5952 120.492 58.6914C119.149 58.36 117.853 57.8608 116.635 57.2054C117.965 57.386 119.32 57.2411 120.582 56.7832Z" fill="black"/>
<path d="M110.432 45.6831C111.315 42.1629 111.001 38.4489 109.539 35.1271C109.539 35.1271 118.804 37.7824 118.828 29.3457C118.828 29.3457 106.469 31.3189 105.836 35.7118C105.203 40.1047 109.376 44.4895 110.432 45.6831Z" fill="#263238"/>
<path d="M118.69 30.588C118.69 30.588 122.23 35.6143 125.267 34.575V27.267H114.711L109.133 30.5962L112.998 34.575L115.872 32.212L118.69 30.588Z" fill="#263238"/>
<path d="M129.733 280.449L121.808 280.043L121.613 274.034L121.467 269.649L127.882 269.008L129.148 269.064L129.424 274.489L129.733 280.449Z" fill="#FFC5B3"/>
<path opacity="0.2" d="M129.424 274.489L121.613 274.034L121.467 269.649L127.882 269.008L129.148 269.064L129.424 274.489Z" fill="black"/>
<path d="M117.163 272.532L132.404 272.158L133.265 267.189H117.52L117.163 272.532Z" fill="#263238"/>
<path d="M131.438 280.781C131.438 280.781 134.094 272.954 136.164 273.733C138.235 274.513 131.438 280.781 131.438 280.781Z" stroke="#9094F2" stroke-miterlimit="10"/>
<path d="M131.893 280.782C131.893 280.782 135.904 276.965 137.52 278.451C139.136 279.937 131.893 280.782 131.893 280.782Z" stroke="#9094F2" stroke-miterlimit="10"/>
<path opacity="0.2" d="M79.8276 263.803L77.5702 267.254L70.855 263.535L72.7551 259.718L79.8276 263.803Z" fill="black"/>
<path d="M69.3608 260.685L81.0049 266.848L83.7495 263.47L71.8862 256.803L69.3608 260.685Z" fill="#263238"/>
<path d="M76.7744 273.985C76.7744 273.985 80.0711 269.86 81.4109 270.835C82.7507 271.809 76.7744 273.985 76.7744 273.985Z" stroke="#9094F2" stroke-miterlimit="10"/>
<path d="M77.3755 273.985C77.3755 273.985 83.0595 272.645 83.3031 274.488C83.5467 276.332 77.3755 273.985 77.3755 273.985Z" stroke="#9094F2" stroke-miterlimit="10"/>
<path d="M76.0842 269.584L69.9698 266.149C69.543 265.912 69.0398 265.854 68.5699 265.986C68.1 266.118 67.7014 266.431 67.4608 266.856L64.7081 271.728C64.4687 272.155 64.4086 272.66 64.541 273.132C64.6735 273.604 64.9876 274.004 65.4145 274.245L82.767 283.989C83.1946 284.228 83.6997 284.288 84.1716 284.156C84.6434 284.024 85.0435 283.709 85.2842 283.282C85.4979 282.901 85.5695 282.455 85.4863 282.026C85.403 281.596 85.1703 281.21 84.8294 280.936C82.5883 279.141 77.9924 275.016 76.9774 270.745C76.9162 270.501 76.8054 270.271 76.6517 270.072C76.498 269.872 76.3048 269.706 76.0842 269.584Z" fill="#263238"/>
<path d="M129.002 277.404H120.882C120.315 277.406 119.772 277.633 119.372 278.034C118.971 278.436 118.747 278.98 118.747 279.547V286.043C118.747 286.61 118.972 287.153 119.372 287.553C119.773 287.954 120.316 288.179 120.882 288.179H143.91C144.192 288.18 144.47 288.125 144.73 288.019C144.99 287.912 145.227 287.755 145.426 287.556C145.625 287.358 145.783 287.122 145.891 286.862C145.999 286.603 146.054 286.324 146.054 286.043C146.054 285.537 145.874 285.047 145.547 284.661C145.22 284.275 144.767 284.016 144.268 283.932C140.979 283.388 134.012 281.829 130.561 278.102C130.363 277.885 130.122 277.711 129.854 277.591C129.586 277.471 129.296 277.407 129.002 277.404Z" fill="#263238"/>
<path d="M107.566 127.573L105.024 133.014L100.518 132.364C96.2707 133.046 94.5006 130.635 94.5006 130.635L91.8291 128.199L96.7904 122.515L97.5537 123.7C105.698 124.861 107.566 127.573 107.566 127.573Z" fill="#FFC5B3"/>
<path d="M180.775 73.3805L179.2 75.4755L183.812 79.503L185.168 77.6516L180.775 73.3805Z" fill="white"/>
<path d="M91.6257 128.426L96.9443 122.206L95.1498 119.924L89.5957 126.607L91.6257 128.426Z" fill="white"/>
<path d="M193.735 34.7129C193.186 36.3447 193.008 38.0783 193.213 39.7877C193.418 41.4971 194.001 43.1393 194.921 44.5949C198.071 49.3695 197.357 33.5842 197.357 33.5842L193.735 34.7129Z" fill="#263238"/>
<path d="M200.191 70.514C200.191 70.514 180.703 97.7972 176.894 96.6523C173.086 95.5074 164.308 78.4878 164.308 78.4878L163.797 71.7564L158.048 63.8394L150.74 69.6046L154.28 76.1899C154.28 76.1899 155.336 79.6084 158.454 80.5666C158.454 80.5666 165.624 102.58 174.694 106.713C183.764 110.846 196.35 84.6184 196.35 84.6184L200.191 70.514Z" fill="#FFC5B2"/>
<path d="M241.911 269.332L231.85 273.157C218.858 244.623 208.302 161.409 208.302 161.409C208.302 161.409 207.994 163.74 207.531 167.491C206.021 179.915 202.821 207.839 203.471 217.835C204.502 234.652 201.53 276.21 201.53 276.21L189.35 277.655C189.35 277.655 189.764 236.576 188.027 213.816C186.289 191.055 191.608 132.656 191.608 132.656L225.2 131.114C230.965 137.739 232.402 219.289 233.848 226.783C235.293 234.278 241.911 269.332 241.911 269.332Z" fill="#263238"/>
<path d="M188.295 74.5822C188.377 74.1353 188.547 73.7095 188.797 73.3301C189.047 72.9507 189.37 72.6253 189.748 72.3735C192.468 70.5546 199.444 66.0237 201.319 65.8775C203.674 65.6907 215.984 62.8 220.864 65.8775C225.744 68.955 228.83 78.0007 228.83 78.0007C228.83 78.0007 228.473 119.811 226.296 133.387L191.551 132.665C191.551 132.665 186.086 86.8352 188.295 74.5822Z" fill="#F06866"/>
<path d="M227.206 89.7665L232.63 99.7217C232.63 99.7217 233.353 122.165 231.55 127.955L228.83 133.387V142.1L235.326 143.001L237.137 136.124C237.137 136.124 238.216 131.057 237.137 128.889C237.137 128.889 244.737 111.512 242.009 96.4899C242.009 96.4899 228.294 66.251 219.882 65.4147C211.469 64.5783 227.206 89.7665 227.206 89.7665Z" fill="#FFC5B2"/>
<path d="M216.13 65.4553C216.13 65.4553 210.763 70.6359 205.866 70.4897C200.97 70.3435 202.31 66.1699 202.31 66.1699C204.827 65.6989 205.647 63.1817 205.882 61.0218C205.998 59.9422 205.998 58.8533 205.882 57.7738C205.882 57.7738 200.044 57.7738 196.764 50.6444C193.483 43.5151 196.764 34.1202 196.764 34.1202C196.764 34.1202 209.163 30.9859 214.717 32.5531C220.271 34.1202 215.862 48.0785 215.862 48.0785C214.417 55.9143 216.13 65.4553 216.13 65.4553Z" fill="#FFC5B2"/>
<path d="M205.249 41.55C205.249 42.1103 204.941 42.565 204.567 42.565C204.193 42.565 203.893 42.1103 203.893 41.55C203.893 40.9898 204.193 40.535 204.567 40.535C204.941 40.535 205.249 40.9898 205.249 41.55Z" fill="#263238"/>
<path d="M198.331 42.224C198.331 42.7843 198.031 43.239 197.657 43.239C197.284 43.239 196.975 42.7843 196.975 42.224C196.975 41.6637 197.284 41.209 197.657 41.209C198.031 41.209 198.331 41.6393 198.331 42.224Z" fill="#263238"/>
<path d="M200.621 42.7112V48.1597C200.173 48.2987 199.695 48.302 199.245 48.169C198.796 48.0361 198.396 47.7729 198.096 47.4127L200.621 42.7112Z" fill="#D67373"/>
<path d="M202.935 49.1098C202.935 49.1098 205.826 49.1098 206.881 46.7306" stroke="#263238" stroke-linecap="round" stroke-linejoin="round"/>
<path d="M203.893 37.6362C203.893 37.6362 206.41 37.4332 207.141 39.0003" stroke="#263238" stroke-linecap="round" stroke-linejoin="round"/>
<path d="M195.294 39.5525C195.492 39.0576 195.813 38.6213 196.227 38.2847C196.64 37.948 197.132 37.7221 197.657 37.6281" stroke="#263238" stroke-linecap="round" stroke-linejoin="round"/>
<path opacity="0.2" d="M210.308 56.9049C209.163 58.5914 207.653 59.9984 205.891 61.0217C206.007 59.9422 206.007 58.8533 205.891 57.7737C207.406 57.7765 208.907 57.4813 210.308 56.9049Z" fill="black"/>
<path d="M204.421 70.6602L207.369 70.3842L208.197 76.5391L206.662 79.3568H204.908L203.268 76.3036L204.421 70.6602Z" fill="#263238"/>
<path d="M215.773 62.9786C212.835 65.9298 209.501 68.4577 205.866 70.4896L207.62 74.842C207.62 74.842 214.977 73.5752 218.127 64.8462L215.773 62.9786Z" fill="white"/>
<path d="M205.866 70.4896L203.893 74.842C203.893 74.842 200.905 71.8944 200.19 66.2023L203.893 63.8394C203.893 63.8394 204.031 68.1024 205.866 70.4896Z" fill="white"/>
<path d="M205.038 77.7327L203.033 103.757L206.403 107.85L209.512 103.506L206.476 77.7327H205.038Z" fill="#263238"/>
<path d="M218.363 44.1728C218.363 44.1728 211.25 45.0335 210.072 34.7292C210.072 34.7292 197.543 38.4725 193.02 34.6318C188.498 30.791 192.168 25.7972 192.168 25.7972C192.556 26.7689 193.02 27.7083 193.556 28.6067V25.3587C194.317 26.3577 195.156 27.2944 196.065 28.1601C199.714 28.7474 203.453 28.0255 206.621 26.122C212.054 22.874 218.964 29.0371 217.689 33.7873C217.73 33.8116 223.852 38.5862 218.363 44.1728Z" fill="#263238"/>
<path d="M213.483 44.4651C213.483 44.4651 215.399 37.6687 218.55 40.0641C221.701 42.4595 217.21 49.1503 215.018 48.7687C212.825 48.3871 213.483 44.4651 213.483 44.4651Z" fill="#FFC5B2"/>
<path d="M158.234 82.0119L165.088 78.228C165.088 78.228 172.452 92.4542 176.724 94.2406C176.724 94.2406 185.404 85.4792 188.262 74.509L192.152 92.7953C192.152 92.7953 185.42 107.013 176.91 107.216C168.401 107.419 161.426 91.2281 158.234 82.0119Z" fill="#F06866"/>
<path d="M222.334 84.1069L232.662 100.688L230.941 126.371L238.712 127.89C238.712 127.89 244.696 110.026 242.041 96.5061C240.116 86.689 234.034 74.2411 226.978 68.2891C224.47 66.2333 221.367 65.0402 218.127 64.8868C218.127 64.8868 216.219 69.2879 216.317 73.0068C216.414 76.7258 222.334 84.1069 222.334 84.1069Z" fill="#F06866"/>
<path opacity="0.2" d="M228.553 94.0783L222.333 84.1069C222.869 84.9677 228.553 102.198 228.553 102.198V94.0783Z" fill="black"/>
<path opacity="0.2" d="M208.303 161.409C208.303 161.409 207.994 163.74 207.531 167.491L205.907 147.743L208.303 161.409Z" fill="black"/>
<path d="M237.729 281.634L244.03 278.703L242.219 273.758L240.896 270.144L235.472 271.728L234.465 272.182L236.016 276.689L237.729 281.634Z" fill="#FFC5B2"/>
<path opacity="0.2" d="M236.016 276.689L242.219 273.758L240.896 270.144L235.472 271.728L234.465 272.182L236.016 276.689Z" fill="black"/>
<path d="M236.446 282.462C236.446 282.462 231.72 276.973 230.291 278.28C228.862 279.588 236.446 282.462 236.446 282.462Z" stroke="#F06866" stroke-miterlimit="10"/>
<path d="M236.081 282.576C236.081 282.576 231.566 280.79 230.738 282.527C229.91 284.265 236.081 282.576 236.081 282.576Z" stroke="#F06866" stroke-miterlimit="10"/>
<path d="M237.323 278.922L243.908 276.259C244.368 276.074 244.883 276.078 245.339 276.272C245.796 276.465 246.157 276.831 246.344 277.29L248.472 282.576C248.564 282.804 248.611 283.047 248.61 283.293C248.608 283.539 248.558 283.782 248.462 284.008C248.366 284.234 248.226 284.439 248.051 284.612C247.876 284.784 247.668 284.92 247.441 285.012L228.724 292.572C228.496 292.665 228.252 292.712 228.005 292.711C227.759 292.709 227.515 292.658 227.289 292.562C227.062 292.465 226.857 292.324 226.685 292.147C226.513 291.971 226.378 291.762 226.288 291.532C226.121 291.122 226.105 290.666 226.243 290.245C226.382 289.824 226.665 289.466 227.043 289.234C229.528 287.716 234.692 284.159 236.267 280.002C236.357 279.757 236.497 279.535 236.679 279.348C236.861 279.162 237.081 279.017 237.323 278.922Z" fill="#263238"/>
<path d="M191.689 287.846L198.632 287.675L198.94 282.414L199.167 278.573L193.565 277.866L192.46 277.883L192.087 282.633L191.689 287.846Z" fill="#FFC5B2"/>
<path opacity="0.2" d="M192.087 282.633L198.94 282.414L199.168 278.573L193.565 277.866L192.46 277.883L192.087 282.633Z" fill="black"/>
<path d="M190.178 288.098C190.178 288.098 188.035 281.179 186.208 281.813C184.381 282.446 190.178 288.098 190.178 288.098Z" stroke="#F06866" stroke-miterlimit="10"/>
<path d="M189.781 288.089C189.781 288.089 186.354 284.647 184.909 285.913C183.463 287.18 189.781 288.089 189.781 288.089Z" stroke="#F06866" stroke-miterlimit="10"/>
<path d="M192.395 285.199L199.5 285.385C199.747 285.392 199.989 285.447 200.214 285.547C200.44 285.647 200.643 285.79 200.812 285.969C200.982 286.148 201.115 286.358 201.203 286.588C201.292 286.818 201.334 287.063 201.327 287.31L201.173 292.994C201.167 293.24 201.112 293.482 201.011 293.707C200.911 293.932 200.768 294.134 200.589 294.303C200.41 294.472 200.199 294.604 199.969 294.692C199.739 294.779 199.494 294.82 199.248 294.813L179.07 294.285C178.824 294.279 178.582 294.224 178.357 294.124C178.133 294.023 177.93 293.88 177.761 293.701C177.592 293.522 177.46 293.311 177.372 293.081C177.285 292.851 177.244 292.606 177.251 292.36C177.265 291.916 177.435 291.491 177.733 291.161C178.03 290.831 178.435 290.617 178.875 290.558C181.766 290.152 187.913 288.934 191.015 285.759C191.195 285.577 191.41 285.433 191.647 285.337C191.885 285.24 192.139 285.193 192.395 285.199Z" fill="#263238"/>
<path d="M231.631 275.982L228.147 269.917L243.308 264.306L244.371 272.345L231.631 275.982Z" fill="#F06866"/>
<path d="M187.661 272.296V280.14H203.568L204.177 272.296H187.661Z" fill="#F06866"/>
<path d="M272.572 80.5666C272.572 80.5666 267.96 98.7554 263.088 104.391C263.088 104.391 254.245 95.5561 251.558 87.8665C251.558 87.8665 251.306 84.2775 248.74 82.7428L244.899 77.4891L238.493 79.7952L240.027 84.9189L246.694 88.6379C246.694 88.6379 255.147 111.95 262.828 111.821C270.51 111.691 273.977 101.443 273.977 101.443L278.199 79.5191L272.572 80.5666Z" fill="#FFC5B2"/>
<path d="M246.848 90.8222L251.59 87.8665C251.59 87.8665 259.661 101.053 263.437 103.701C263.437 103.701 268.139 95.1258 269.747 88.0695C270.59 84.23 271.628 80.4357 272.857 76.7015L278.232 84.4886C278.232 84.4886 274.7 109.287 267.392 111.804C260.084 114.321 255.951 107.184 254.286 104.374C252.621 101.565 246.848 90.8222 246.848 90.8222Z" fill="#263238"/>
<path d="M287.489 269.332C287.489 269.633 292.361 276.518 292.361 276.518L297.46 269.925L291.963 262.138L287.489 269.332Z" fill="#FFC5B2"/>
<path d="M290.063 273.888L295.341 268.163C295.712 267.764 296.226 267.528 296.771 267.506C297.315 267.485 297.846 267.68 298.248 268.049L302.827 272.288C303.026 272.47 303.186 272.69 303.299 272.935C303.412 273.18 303.476 273.444 303.487 273.714C303.497 273.983 303.454 274.252 303.361 274.505C303.267 274.758 303.124 274.989 302.941 275.187L287.935 291.427C287.564 291.824 287.052 292.058 286.509 292.079C285.966 292.101 285.437 291.907 285.036 291.541C284.678 291.21 284.449 290.764 284.389 290.281C284.33 289.797 284.444 289.309 284.712 288.902C286.465 286.23 289.908 280.302 289.527 275.439C289.504 275.157 289.539 274.874 289.632 274.607C289.724 274.34 289.871 274.095 290.063 273.888Z" fill="#263238"/>
<path d="M276.551 266.133L291.362 253.141L296.811 264.452L286.685 273.254L276.551 266.133Z" fill="#90D0A2"/>
<path d="M271.135 118.917C271.135 118.917 255.163 188.644 254.895 205.371C254.627 222.098 269.219 251.111 278.443 264.696L290.867 254.814L272.865 210.966L281.22 156.367L290.867 266.994L302.787 268.52C302.787 268.52 304.305 226.686 302.787 211.477C301.269 196.268 309.713 144.544 303.461 124.764L271.135 118.917Z" fill="#263238"/>
<path d="M303.501 124.748C303.501 124.748 306.221 98.8123 311.443 88.6542L313.473 76.9045C313.473 76.9045 309.697 72.2599 301.138 72.406C292.58 72.5522 288.812 71.594 288.812 71.594C288.812 71.594 277.631 70.8389 275.008 73.3074C272.385 75.7758 272.256 86.949 271.817 92.3163C271.379 97.6836 270.355 122.36 270.355 122.36L303.501 124.748Z" fill="#90D0A2"/>
<path d="M302.746 71.5453C302.746 71.5453 289.884 86.6079 292.32 124.748L307.358 127.33L305.312 111.512L314.951 82.5966C314.951 82.5966 316.972 73.5915 302.746 71.5453Z" fill="#263238"/>
<path d="M288.082 71.5453C288.082 71.5453 274.229 81.6628 273.165 120.485L265.914 120.688L271.85 89.6367C270.808 86.8342 270.671 83.7755 271.46 80.8914C272.272 78.0982 273.149 74.8177 275.017 73.2749C277.988 70.8145 282.722 71.0256 288.082 71.5453Z" fill="#263238"/>
<path d="M305.052 80.656C305.052 80.656 313.676 101.589 311.548 110.059C311.548 110.059 296.673 106.234 289.811 99.5837C289.811 99.5837 287.659 95.9541 284.127 95.6861L277.339 92.2026L271.833 97.9841L276.137 102.548L285.069 102.945C285.069 102.945 306.181 122.961 314.187 118.788C317.931 116.831 319.539 113.03 320.188 109.539C320.794 106.112 320.605 102.593 319.636 99.2508L313.911 78.764L305.052 80.656Z" fill="#FFC5B2"/>
<path d="M284.525 104.943L290.404 98.1058C290.404 98.1058 303.461 108.175 311.516 110.058C310.813 103.18 309.729 96.346 308.268 89.5879L304.208 82.5966L304.581 79.6572L314.423 78.3823C314.423 78.3823 323.355 103.351 320.984 112.348C318.613 121.345 313.521 122.238 304.947 118.917C296.372 115.596 284.525 104.943 284.525 104.943Z" fill="#263238"/>
<path d="M302.949 286.604H294.772L294.301 279.799L294.066 276.397L293.928 274.432L302.941 275.187V279.799L302.949 286.604Z" fill="#FFC5B2"/>
<path d="M294.423 283.559H302.21C302.755 283.559 303.278 283.775 303.663 284.16C304.048 284.546 304.265 285.068 304.265 285.613V291.857C304.263 292.401 304.045 292.921 303.66 293.305C303.275 293.688 302.754 293.903 302.21 293.903H280.091C279.822 293.905 279.555 293.852 279.306 293.75C279.057 293.648 278.83 293.497 278.639 293.307C278.448 293.117 278.297 292.891 278.194 292.642C278.09 292.393 278.037 292.127 278.037 291.857C278.036 291.371 278.208 290.9 278.522 290.528C278.835 290.156 279.271 289.908 279.75 289.827C282.909 289.308 289.6 287.813 292.913 284.224C293.105 284.015 293.338 283.848 293.598 283.733C293.858 283.619 294.139 283.559 294.423 283.559Z" fill="#263238"/>
<path opacity="0.1" d="M302.746 71.5453C301.264 73.5046 300.011 75.6269 299.011 77.8708C296.1 84.2957 294.15 91.1136 293.222 98.1058L302.746 90.3918L300.676 83.7578L312.263 75.3454C312.263 75.3454 309.234 72.268 302.746 71.5453Z" fill="white"/>
<path opacity="0.1" d="M276.843 92.8603C276.843 92.8603 281.431 76.4985 288.081 71.5453C288.081 71.5453 280.197 70.4491 276.567 72.2924L277.379 83.7578L273.993 84.8215L276.843 92.8603Z" fill="white"/>
<path d="M312.425 44.457C313.984 48.3628 312.312 52.7557 312.466 56.9537C312.531 58.87 312.986 60.7539 313.034 62.6377C313.083 64.5216 312.645 66.6003 311.24 67.9076C309.973 69.1012 308.162 69.4585 306.457 69.7752C303.794 70.2543 300.903 70.709 298.516 69.4423C297.964 69.15 297.46 68.7764 296.892 68.5328C295.712 68.1302 294.452 68.0215 293.221 68.2162C291.994 68.4139 290.738 68.3531 289.535 68.0375C285.735 66.714 288.349 61.4847 288.999 58.8051C290.001 54.7018 290.997 50.6012 291.987 46.5033C296.088 45.6913 300.156 44.5545 304.265 43.7262C305.607 43.3435 307.02 43.2823 308.39 43.5476C309.673 43.9374 311.142 44.8712 312.425 44.457Z" fill="#263238"/>
<path d="M312.531 52.5283C312.213 53.595 311.529 54.5152 310.598 55.1267C309.648 55.6302 309.502 56.5234 309.583 57.5627C309.754 59.9987 311.078 63.4416 306.522 65.3904C305.853 65.7251 305.102 65.8595 304.359 65.7773C303.616 65.6952 302.912 65.4001 302.332 64.9276C299.133 62.4022 298.118 55.3216 298.118 55.3216L292.32 38.6025C292.339 38.5663 292.364 38.5334 292.393 38.5051L292.442 38.4158C292.462 38.3825 292.487 38.3524 292.515 38.3264C292.721 38.0405 292.946 37.7692 293.189 37.5144C293.37 37.304 293.563 37.1034 293.766 36.9136C295.885 34.9485 300.262 32.4394 306.538 36.6294C313.432 41.2415 314.025 48.5414 312.531 52.5283Z" fill="#263238"/>
<path d="M312.864 53.9411C312.937 55.8818 311.15 56.9943 309.616 57.6033C308.866 57.8858 308.091 58.0952 307.302 58.2285C305.872 60.6077 302.779 62.2885 302.779 62.2885C302.549 63.1705 302.41 64.0739 302.365 64.9843C302.282 67.1878 302.421 69.3939 302.779 71.5697L300.684 74.8177C291.955 78.8127 288.845 71.5697 288.845 71.5697C292.044 71.2286 293.067 68.5409 293.368 66.2835C293.491 65.2478 293.491 64.2012 293.368 63.1654C291.949 62.5685 290.694 61.642 289.706 60.4628C288.717 59.2837 288.024 57.8858 287.684 56.3853C286.652 52.0167 287.497 47.908 289.308 43.8723C290.035 42.262 290.908 40.721 291.914 39.2683L292.32 38.6106C292.339 38.5744 292.364 38.5415 292.393 38.5131C292.428 38.4499 292.469 38.3901 292.515 38.3345V38.2777C292.661 38.0909 292.872 37.8229 293.148 37.5306H293.197L304.151 36.1096L308.909 39.9098L310.574 49.329L308.138 52.2278L307.123 53.4377L306.871 53.73L307.188 53.4621C309.12 51.8381 311.589 51.0261 312.49 52.5607C312.723 52.9843 312.851 53.4577 312.864 53.9411Z" fill="#FFC5B2"/>
<path d="M298.069 46.9093C297.931 47.4858 297.509 47.8837 297.135 47.7944C296.762 47.7051 296.559 47.161 296.697 46.5764C296.835 45.9918 297.257 45.602 297.639 45.6913C298.02 45.7806 298.215 46.3247 298.069 46.9093Z" fill="#263238"/>
<path d="M291.833 45.2284C291.695 45.813 291.273 46.2109 290.891 46.1216C290.509 46.0323 290.314 45.4801 290.453 44.9036C290.591 44.3271 291.013 43.9211 291.394 44.0104C291.776 44.0997 291.971 44.66 291.833 45.2284Z" fill="#263238"/>
<path d="M297.736 45.7319L296.234 44.9199C296.234 44.9199 296.494 46.4546 297.736 45.7319Z" fill="#263238"/>
<path d="M291.508 44.0997L290.006 43.2877C290.006 43.2877 290.29 44.8305 291.508 44.0997Z" fill="#263238"/>
<path d="M293.359 45.9186L291.93 51.0585C291.737 51.1192 291.534 51.1402 291.333 51.1204C291.132 51.1006 290.936 51.0404 290.759 50.9434C290.582 50.8463 290.426 50.7144 290.3 50.5556C290.175 50.3968 290.083 50.2143 290.03 50.0192L293.359 45.9186Z" fill="#D67373"/>
<path d="M293.668 54.6314C293.668 54.6314 297.216 55.1592 298.231 52.1954" stroke="#263238" stroke-linecap="round" stroke-linejoin="round"/>
<path d="M298.118 42.8817C298.418 42.7243 298.748 42.6299 299.086 42.6042C299.424 42.5785 299.764 42.6221 300.085 42.7323C300.405 42.8425 300.7 43.0171 300.951 43.2452C301.202 43.4734 301.404 43.7503 301.544 44.0591" stroke="#263238" stroke-linecap="round" stroke-linejoin="round"/>
<path d="M293.173 40.7543C292.905 40.5754 292.602 40.4555 292.284 40.4028C291.967 40.3501 291.641 40.3658 291.33 40.4488C291.019 40.5318 290.729 40.6802 290.48 40.8841C290.23 41.088 290.027 41.3427 289.884 41.6313" stroke="#263238" stroke-linecap="round" stroke-linejoin="round"/>
<path d="M311.435 49.459L307.229 53.4297H307.164C300.132 51.1561 301.545 38.1641 301.545 38.1641C299.555 39.4308 292.507 38.7325 292.32 38.5863C292.701 38.0231 293.139 37.5006 293.628 37.0273C293.936 36.7268 294.919 36.8162 295.325 36.7837L297.915 36.5807L303.161 36.1584C303.315 36.1584 304.046 35.9717 304.176 36.0772L308.934 39.8774L311.435 49.459Z" fill="#263238"/>
<path opacity="0.2" d="M296.948 63.7176C296.031 64.9169 294.771 65.8089 293.335 66.2754C293.458 65.2397 293.458 64.1931 293.335 63.1573C294.504 63.5278 295.722 63.7168 296.948 63.7176Z" fill="black"/>
<path opacity="0.3" d="M279.466 168.068L280.368 144.885L281.261 156.351L279.466 168.068Z" fill="black"/>
<path opacity="0.1" d="M302.941 275.974V279.799H294.301L294.066 276.397L302.941 275.974Z" fill="black"/>
<path d="M289.129 266.693L291.224 278.427H304.07L305.84 266.133L289.129 266.693Z" fill="#90D0A2"/>
</svg>
