<svg width="24" height="20" viewBox="0 0 24 20" fill="none" xmlns="http://www.w3.org/2000/svg">
<path d="M24 12.5V7.5H7.5V8.75H4.5V5H18V0H0V5H3V17.5H7.5V20H24V15H7.5V16.25H4.5V10H7.5V12.5H24Z" fill="#EA3E3E"/>
</svg>
