<svg width="16" height="16" viewBox="0 0 16 16" fill="none" xmlns="http://www.w3.org/2000/svg">
<path d="M8 0C3.58214 0 0 3.58214 0 8C0 12.4179 3.58214 16 8 16C12.4179 16 16 12.4179 16 8C16 3.58214 12.4179 0 8 0ZM8 14.6429C4.33214 14.6429 1.35714 11.6679 1.35714 8C1.35714 4.33214 4.33214 1.35714 8 1.35714C11.6679 1.35714 14.6429 4.33214 14.6429 8C14.6429 11.6679 11.6679 14.6429 8 14.6429Z" fill="#E82424"/>
<path d="M9.99236 4.51243C9.45665 4.04279 8.74951 3.78564 7.99951 3.78564C7.24951 3.78564 6.54236 4.04457 6.00665 4.51243C5.44951 4.99993 5.14236 5.65529 5.14236 6.35707V6.49279C5.14236 6.57136 5.20665 6.63564 5.28522 6.63564H6.14236C6.22094 6.63564 6.28522 6.57136 6.28522 6.49279V6.35707C6.28522 5.56957 7.05486 4.9285 7.99951 4.9285C8.94415 4.9285 9.71379 5.56957 9.71379 6.35707C9.71379 6.91243 9.32094 7.42136 8.71201 7.65529C8.33344 7.79993 8.01201 8.0535 7.78165 8.38564C7.54772 8.72493 7.42629 9.13207 7.42629 9.54457V9.9285C7.42629 10.0071 7.49058 10.0714 7.56915 10.0714H8.42629C8.50486 10.0714 8.56915 10.0071 8.56915 9.9285V9.52314C8.57007 9.34979 8.62321 9.18074 8.72164 9.03803C8.82007 8.89533 8.95922 8.78559 9.12094 8.72314C10.1745 8.31779 10.8549 7.38922 10.8549 6.35707C10.8567 5.65529 10.5495 4.99993 9.99236 4.51243ZM7.28522 11.9285C7.28522 12.1179 7.36048 12.2996 7.49443 12.4336C7.62839 12.5675 7.81007 12.6428 7.99951 12.6428C8.18895 12.6428 8.37063 12.5675 8.50458 12.4336C8.63854 12.2996 8.71379 12.1179 8.71379 11.9285C8.71379 11.7391 8.63854 11.5574 8.50458 11.4234C8.37063 11.2895 8.18895 11.2142 7.99951 11.2142C7.81007 11.2142 7.62839 11.2895 7.49443 11.4234C7.36048 11.5574 7.28522 11.7391 7.28522 11.9285Z" fill="#E82424"/>
</svg>
