<svg width="157" height="117" viewBox="0 0 157 117" fill="none" xmlns="http://www.w3.org/2000/svg">
<path d="M157 102.804H0V102.882H157V102.804Z" fill="#EBEBEB"/>
<path d="M141.269 105.793H112.726V105.871H141.269V105.793Z" fill="#EBEBEB"/>
<path d="M104.003 104.942H96.1875V105.02H104.003V104.942Z" fill="#EBEBEB"/>
<path d="M121.867 108.71H109.75V108.788H121.867V108.71Z" fill="#EBEBEB"/>
<path d="M23.5816 108.182H16.4727V108.261H23.5816V108.182Z" fill="#EBEBEB"/>
<path d="M34.8194 108.182H26.376V108.261H34.8194V108.182Z" fill="#EBEBEB"/>
<path d="M70.697 106.857H55.9893V106.936H70.697V106.857Z" fill="#EBEBEB"/>
<path d="M74.4181 88.7992H13.7878C13.3129 88.7984 12.8576 88.6091 12.5221 88.273C12.1865 87.9368 11.998 87.4812 11.998 87.0063V1.77724C12.0022 1.30499 12.1925 0.853445 12.5276 0.520681C12.8627 0.187916 13.3156 0.000808986 13.7878 0H74.4181C74.8936 0 75.3497 0.188899 75.6859 0.52514C76.0222 0.861382 76.2111 1.31742 76.2111 1.79294V87.0063C76.2111 87.4818 76.0222 87.9378 75.6859 88.2741C75.3497 88.6103 74.8936 88.7992 74.4181 88.7992ZM13.7878 0.0628002C13.3337 0.063632 12.8984 0.244626 12.5776 0.566056C12.2567 0.887486 12.0765 1.32309 12.0765 1.77724V87.0063C12.0765 87.4604 12.2567 87.896 12.5776 88.2174C12.8984 88.5389 13.3337 88.7199 13.7878 88.7207H74.4181C74.8726 88.7199 75.3081 88.539 75.6295 88.2176C75.9508 87.8963 76.1317 87.4607 76.1326 87.0063V1.77724C76.1317 1.3228 75.9508 0.887205 75.6295 0.565865C75.3081 0.244524 74.8726 0.0636303 74.4181 0.0628002H13.7878Z" fill="#EBEBEB"/>
<path d="M142.339 88.7992H81.706C81.2308 88.7984 80.7752 88.6092 80.4391 88.2731C80.1031 87.9371 79.9139 87.4815 79.9131 87.0063V1.77724C79.918 1.30471 80.109 0.853162 80.4446 0.520484C80.7803 0.187806 81.2335 0.000800163 81.706 0H142.339C142.811 0.00163421 143.263 0.189106 143.598 0.521783C143.932 0.854459 144.122 1.30553 144.126 1.77724V87.0063C144.126 87.4807 143.938 87.9358 143.603 88.2718C143.268 88.6079 142.814 88.7975 142.339 88.7992ZM81.706 0.0628002C81.2516 0.0636303 80.816 0.244524 80.4946 0.565865C80.1733 0.887205 79.9924 1.3228 79.9916 1.77724V87.0063C79.9924 87.4607 80.1733 87.8963 80.4946 88.2176C80.816 88.539 81.2516 88.7199 81.706 88.7207H142.339C142.794 88.7199 143.229 88.539 143.551 88.2176C143.872 87.8963 144.053 87.4607 144.054 87.0063V1.77724C144.053 1.3228 143.872 0.887205 143.551 0.565865C143.229 0.244524 142.794 0.0636303 142.339 0.0628002H81.706Z" fill="#EBEBEB"/>
<path d="M133.827 101.02H139.714V68.3577H133.827V101.02Z" fill="#F0F0F0"/>
<path d="M73.7336 102.804L138.584 102.804V101.017L73.7336 101.017V102.804Z" fill="#F0F0F0"/>
<path d="M133.827 68.3546H72.603V101.017H133.827V68.3546Z" fill="#F5F5F5"/>
<path d="M134.439 68.3546H140.456V66.7972H134.439V68.3546Z" fill="#F0F0F0"/>
<path d="M134.439 66.7972H71.8618V68.3547H134.439V66.7972Z" fill="#FAFAFA"/>
<path d="M131.714 80.1423H74.7319V71.6266H131.714V80.1423ZM75.115 79.7561H131.321V72.0316H75.115V79.7561Z" fill="#E0E0E0"/>
<path d="M131.714 97.7482H74.7319V82.5035H131.714V97.7482ZM75.115 97.34H131.321V82.896H75.115V97.34Z" fill="#E0E0E0"/>
<path d="M82.918 73.0898H123.512C123.8 73.0898 124.033 72.8565 124.033 72.5686V72.3425C124.033 72.0546 123.8 71.8213 123.512 71.8213H82.918C82.6302 71.8213 82.3968 72.0546 82.3968 72.3425V72.5686C82.3968 72.8565 82.6302 73.0898 82.918 73.0898Z" fill="#E0E0E0"/>
<path d="M82.918 83.9698H123.512C123.8 83.9698 124.033 83.7365 124.033 83.4486V83.2225C124.033 82.9347 123.8 82.7013 123.512 82.7013H82.918C82.6302 82.7013 82.3968 82.9347 82.3968 83.2225V83.4486C82.3968 83.7365 82.6302 83.9698 82.918 83.9698Z" fill="#E0E0E0"/>
<path d="M17.9294 102.804H20.3755L20.3755 61.23H17.9294L17.9294 102.804Z" fill="#E6E6E6"/>
<path d="M17.1601 102.804H18.8589L18.8589 61.23H17.1601L17.1601 102.804Z" fill="#F0F0F0"/>
<path d="M45.7343 61.23H16.6328V64.235H45.7343V61.23Z" fill="#F0F0F0"/>
<path d="M46.8298 102.804H49.2759L49.2759 64.2381H46.8298L46.8298 102.804Z" fill="#E6E6E6"/>
<path d="M46.0605 102.804H47.7593L47.7593 64.2381H46.0605L46.0605 102.804Z" fill="#F0F0F0"/>
<path d="M62.3132 102.804H64.7593V64.2381H62.3132L62.3132 102.804Z" fill="#E6E6E6"/>
<path d="M61.5376 102.804H63.2363L63.2363 64.2381H61.5376L61.5376 102.804Z" fill="#F0F0F0"/>
<path d="M33.4128 102.804H35.8589L35.8589 64.2381H33.4128L33.4128 102.804Z" fill="#E6E6E6"/>
<path d="M32.6401 102.804H34.3389L34.3389 64.2381H32.6401L32.6401 102.804Z" fill="#F0F0F0"/>
<path d="M45.7372 64.235H64.7593V61.23H45.7372V64.235Z" fill="#E6E6E6"/>
<path d="M43.2694 37.9846H19.7539L21.8357 19.782H41.1875L43.2694 37.9846Z" fill="#EBEBEB"/>
<path d="M32.791 37.9846H30.2319V61.23H32.791V37.9846Z" fill="#F5F5F5"/>
<path d="M36.7381 61.23H26.2944C26.2944 60.9352 26.4115 60.6525 26.62 60.444C26.8285 60.2356 27.1112 60.1184 27.406 60.1184H35.6171C35.7639 60.1172 35.9094 60.145 36.0454 60.2003C36.1813 60.2556 36.305 60.3373 36.4092 60.4407C36.5134 60.544 36.5961 60.667 36.6526 60.8024C36.709 60.9379 36.7381 61.0832 36.7381 61.23Z" fill="#F0F0F0"/>
<path d="M32.791 39.9974L30.2319 38.7759V37.9846H32.791V39.9974Z" fill="#E0E0E0"/>
<path d="M42.5127 61.1641H53.5561L54.922 46.1643H43.8786L42.5127 61.1641Z" fill="#E6E6E6"/>
<path d="M41.9409 61.1641H52.9843L54.3502 46.1643H43.3068L41.9409 61.1641Z" fill="#F0F0F0"/>
<path d="M51.4742 59.503L52.5387 47.8253H44.8174L43.7529 59.503H51.4742Z" fill="white"/>
<path d="M133.384 50.4064H110.967L106.606 65.94H129.022L133.384 50.4064Z" fill="#E6E6E6"/>
<path d="M129.022 65.9399L128.934 66.7972H106.512L106.603 65.9399H129.022Z" fill="#E6E6E6"/>
<path d="M132.697 50.4064H110.277L105.916 65.94H128.335L132.697 50.4064Z" fill="#F0F0F0"/>
<path d="M128.081 64.9258L131.689 51.474C131.739 51.2825 131.641 51.1161 131.478 51.1161H110.867C110.785 51.1258 110.707 51.1615 110.647 51.2179C110.586 51.2743 110.544 51.3486 110.528 51.4301L106.923 64.8724C106.87 65.064 106.967 65.2304 107.131 65.2304H127.742C127.823 65.2222 127.9 65.1882 127.961 65.1335C128.022 65.0787 128.064 65.006 128.081 64.9258Z" fill="white"/>
<path d="M122.492 65.9399L122.401 66.7972H97.7139L97.8049 65.9399H122.492Z" fill="#F0F0F0"/>
<path d="M138.028 9.87219H83.6372V43.4419H138.028V9.87219Z" fill="#F0F0F0"/>
<path d="M136.483 11.417H85.1821V41.9001H136.483V11.417Z" fill="white"/>
<path d="M138.028 43.4451H138.584V9.87533H138.028V43.4451Z" fill="#E6E6E6"/>
<path d="M78.5001 116.984C112.124 116.984 139.382 115.392 139.382 113.429C139.382 111.466 112.124 109.875 78.5001 109.875C44.8762 109.875 17.6187 111.466 17.6187 113.429C17.6187 115.392 44.8762 116.984 78.5001 116.984Z" fill="#F5F5F5"/>
<path d="M66.0748 4.71C67.5402 3.40586 69.4378 2.55178 71.7676 2.14776C74.0975 1.74375 76.5603 2.00018 79.1561 2.91706C81.7434 3.83394 84.1099 5.48977 86.2556 7.88454C88.2506 10.1118 89.5987 12.4449 90.2999 14.8836C90.9994 17.1388 91.0636 19.5432 90.4852 21.8324C89.9357 23.9544 88.7659 25.8643 87.1254 27.318C85.9579 28.4126 84.5335 29.1955 82.9837 29.5945C81.5998 29.9392 80.1714 30.0705 78.7479 29.9839C77.3809 29.8959 75.0092 29.6625 71.6326 29.2836C70.8421 29.1976 70.0477 29.1536 69.2525 29.1518C68.708 29.1482 68.165 29.2104 67.6354 29.337C67.2153 29.4441 66.8071 29.5935 66.4171 29.7829C66.0403 29.9682 65.4029 30.3104 64.4985 30.816C62.6397 31.9526 61.0236 31.7538 59.6504 30.2194C59.3092 29.8565 59.0434 29.4297 58.8682 28.9635C58.6931 28.4973 58.6121 28.001 58.6299 27.5033C58.6655 26.4922 59.1972 25.5261 60.225 24.605C62.3186 22.5989 65.1227 21.5057 68.0216 21.5655C69.6719 21.6206 71.3183 21.7589 72.9546 21.98C74.6941 22.1904 75.9784 22.3223 76.8073 22.3662C77.6303 22.4132 78.4558 22.3445 79.2597 22.1621C80.0616 21.9845 80.8031 21.6002 81.4106 21.0474C82.0051 20.5313 82.4811 19.893 82.8063 19.1761C83.1314 18.4591 83.298 17.6804 83.2946 16.8932C83.3197 15.2185 82.6917 13.6621 81.4106 12.224C79.8971 10.5347 78.3575 9.67329 76.7916 9.6398C75.2258 9.60631 73.3617 10.0564 71.1993 10.99C68.9992 12.022 67.246 11.8127 65.9398 10.362C65.5681 9.9635 65.2836 9.49179 65.1047 8.97705C64.9257 8.46231 64.8561 7.91588 64.9005 7.37272C64.9099 6.8732 65.0186 6.38054 65.2202 5.92341C65.4218 5.46628 65.7123 5.05381 66.0748 4.71ZM50.8961 38.5247C50.0756 37.6332 49.6176 36.4675 49.6118 35.2559C49.593 34.0167 50.1278 32.9083 51.2163 31.9307C51.6643 31.5163 52.1934 31.1994 52.77 31C53.3467 30.8006 53.9585 30.7229 54.5667 30.772C55.1828 30.8093 55.785 30.9703 56.3374 31.2454C56.8899 31.5205 57.3812 31.9042 57.7821 32.3734C58.1943 32.8197 58.5126 33.3442 58.7182 33.9159C58.9237 34.4876 59.0123 35.0948 58.9786 35.7013C58.9449 36.3079 58.7897 36.9015 58.5221 37.447C58.2545 37.9924 57.8801 38.4785 57.421 38.8763C56.3471 39.8372 55.1958 40.2475 53.967 40.1072C52.7798 39.9877 51.6823 39.4221 50.8961 38.5247Z" fill="#EA3E3E"/>
<g opacity="0.5">
<path opacity="0.5" d="M94.1526 25.7637C94.5935 24.7161 95.3245 23.8162 96.2596 23.17C97.3585 22.3871 98.6416 21.9025 99.9836 21.7633C101.547 21.5951 103.128 21.8263 104.577 22.4353C105.947 22.9419 107.184 23.7525 108.195 24.806C109.071 25.7176 109.679 26.8529 109.953 28.0873C110.206 29.241 110.107 30.4439 109.671 31.5413C109.374 32.3462 108.88 33.0633 108.232 33.6262C107.653 34.1243 107.001 34.5309 106.298 34.832C105.624 35.1188 104.432 35.5772 102.722 36.2073C102.322 36.354 101.931 36.5239 101.55 36.716C101.289 36.8443 101.044 37.0047 100.822 37.1933C100.645 37.3444 100.485 37.5138 100.345 37.6988C100.21 37.8778 99.9867 38.1949 99.6759 38.6408C99.0479 39.633 98.2263 39.9261 97.211 39.52C96.9603 39.4281 96.7303 39.2876 96.5342 39.1066C96.338 38.9255 96.1796 38.7075 96.068 38.465C95.956 38.1811 95.9043 37.8771 95.9162 37.5722C95.928 37.2673 96.0033 36.9682 96.1371 36.694C96.6577 35.2309 97.7372 34.0339 99.1389 33.3656C99.9413 32.9919 100.762 32.6586 101.598 32.3671C102.48 32.0531 103.127 31.805 103.535 31.6292C103.94 31.4535 104.318 31.222 104.659 30.9415C105 30.663 105.263 30.3005 105.422 29.8896C105.583 29.5 105.657 29.0802 105.641 28.6591C105.624 28.2379 105.516 27.8254 105.325 27.4498C104.904 26.6233 104.181 25.991 103.306 25.6852C102.175 25.2393 101.233 25.1964 100.48 25.5564C99.5647 26.0434 98.7639 26.72 98.131 27.5409C97.323 28.5645 96.4312 28.8785 95.4557 28.4829C95.1822 28.3806 94.9329 28.2225 94.7237 28.0187C94.5145 27.8149 94.35 27.5699 94.2405 27.2991C94.1248 27.0618 94.0574 26.8038 94.0423 26.5402C94.0272 26.2766 94.0647 26.0126 94.1526 25.7637ZM95.0098 45.6085C94.4031 45.3785 93.9038 44.9307 93.6094 44.3525C93.4586 44.0484 93.3771 43.7148 93.3705 43.3754C93.364 43.0361 93.4327 42.6996 93.5717 42.39C93.6849 42.0828 93.8609 41.8027 94.0885 41.5675C94.3162 41.3323 94.5904 41.1472 94.8937 41.0241C95.1979 40.8942 95.5253 40.8273 95.8561 40.8273C96.1869 40.8273 96.5142 40.8942 96.8185 41.0241C97.123 41.1387 97.4014 41.3133 97.6372 41.5376C97.8729 41.7619 98.0612 42.0312 98.191 42.3296C98.3207 42.628 98.3892 42.9494 98.3924 43.2748C98.3956 43.6001 98.3334 43.9228 98.2095 44.2237C98.101 44.5461 97.9225 44.8405 97.687 45.0859C97.4514 45.3312 97.1644 45.5215 96.8467 45.643C96.252 45.8638 95.5958 45.8515 95.0098 45.6085Z" fill="#EA3E3E"/>
</g>
<g opacity="0.1">
<path opacity="0.1" d="M115.272 23.9142C114.988 23.4674 114.837 22.9491 114.836 22.4196C114.825 21.7923 114.979 21.1731 115.282 20.6235C115.631 19.9834 116.138 19.443 116.754 19.0535C117.311 18.6621 117.948 18.4022 118.62 18.2936C119.201 18.1994 119.798 18.2667 120.344 18.4883C120.855 18.6953 121.292 19.0508 121.6 19.5088C121.83 19.835 121.975 20.214 122.02 20.6109C122.056 20.9642 122.039 21.3209 121.97 21.6691C121.901 22.0062 121.761 22.5839 121.549 23.4024C121.502 23.595 121.464 23.79 121.436 23.9864C121.4 24.2283 121.419 24.4754 121.493 24.7086C121.527 24.8091 121.59 24.9787 121.684 25.2173C121.742 25.3151 121.779 25.4233 121.794 25.5356C121.809 25.6479 121.802 25.7621 121.773 25.8716C121.744 25.9811 121.693 26.0837 121.624 26.1735C121.555 26.2633 121.469 26.3386 121.37 26.3948C121.166 26.5383 120.913 26.5948 120.667 26.5518C120.528 26.5205 120.398 26.4605 120.283 26.3756C120.169 26.2907 120.074 26.1828 120.004 26.0588C119.783 25.7456 119.627 25.3911 119.546 25.0164C119.481 24.6915 119.473 24.3578 119.524 24.0304C119.592 23.6241 119.681 23.2216 119.791 22.8246C119.904 22.4007 119.979 22.0899 120.02 21.8826C120.06 21.6758 120.071 21.4646 120.055 21.2546C120.037 21.0498 119.966 20.853 119.851 20.6832C119.743 20.519 119.602 20.3799 119.436 20.2753C119.27 20.1707 119.084 20.1031 118.89 20.0771C118.458 20.0184 118.021 20.1311 117.671 20.3911C117.473 20.5013 117.3 20.6513 117.163 20.8319C117.025 21.0124 116.927 21.2194 116.874 21.4399C116.819 21.9197 116.867 22.4057 117.015 22.8655C117.194 23.4464 117.078 23.8703 116.673 24.1434C116.562 24.221 116.436 24.2747 116.303 24.3011C116.17 24.3276 116.033 24.3263 115.9 24.2973C115.775 24.2788 115.655 24.2354 115.547 24.1696C115.44 24.1038 115.346 24.0169 115.272 23.9142ZM123.107 28.8315C122.858 29.0017 122.555 29.0744 122.256 29.0356C122.098 29.0131 121.947 28.9554 121.814 28.8668C121.682 28.7783 121.571 28.661 121.49 28.5237C121.402 28.3993 121.341 28.2581 121.311 28.1089C121.28 27.9597 121.281 27.8059 121.314 27.6571C121.344 27.5061 121.405 27.3627 121.491 27.2354C121.578 27.1081 121.69 26.9995 121.819 26.9161C121.944 26.8294 122.084 26.7689 122.233 26.7381C122.381 26.7073 122.534 26.707 122.683 26.7371C122.832 26.7646 122.974 26.8226 123.1 26.9074C123.226 26.9922 123.333 27.1021 123.414 27.2301C123.509 27.3571 123.575 27.5034 123.607 27.6585C123.639 27.8137 123.636 27.974 123.6 28.1281C123.529 28.416 123.353 28.667 123.107 28.8315Z" fill="#EA3E3E"/>
</g>
<path d="M58.3382 111.351L55.9644 110.735L57.3805 105.306L59.7543 105.922L58.3382 111.351Z" fill="#FFC3BD"/>
<path d="M55.9392 110.107L58.5894 110.946C58.6114 110.951 58.6321 110.961 58.6503 110.974C58.6684 110.988 58.6837 111.005 58.6951 111.025C58.7065 111.044 58.7139 111.066 58.7168 111.089C58.7196 111.111 58.7179 111.134 58.7118 111.156L58.1529 113.213C58.1137 113.321 58.0343 113.409 57.9314 113.46C57.8284 113.511 57.7098 113.52 57.6003 113.486C56.6834 113.172 56.2595 112.99 55.0883 112.619C54.3692 112.393 52.6359 111.881 51.6343 111.567C50.6326 111.253 51.0063 110.311 51.4427 110.371C53.4586 110.581 54.6298 110.412 55.4682 110.12C55.6195 110.064 55.7851 110.059 55.9392 110.107Z" fill="#263238"/>
<path opacity="0.2" d="M59.7542 105.925L57.3803 105.309L56.6519 108.107L59.0257 108.723L59.7542 105.925Z" fill="black"/>
<path d="M65.7361 50.4064C65.7361 50.4064 61.3903 71.0581 60.2348 77.8186C58.9788 85.2227 56.2188 106.421 56.2188 106.421L60.2537 107.887C60.2537 107.887 66.5682 85.4079 67.5259 78.2896C69.5324 71.3313 74.616 50.4064 74.616 50.4064H65.7361Z" fill="#EA3E3E"/>
<path opacity="0.3" d="M71.3157 57.148C69.9058 60.5329 69.394 66.6967 69.6389 70.3831C70.7568 66.031 71.9971 61.0604 72.9579 57.1668C72.6471 56.0961 72.22 54.972 71.3157 57.148Z" fill="black"/>
<path d="M60.1721 108.365L55.8452 107.115L56.0085 105.284L61.1581 106.732L60.1721 108.365Z" fill="#263238"/>
<path d="M54.9658 110.239C55.1799 110.3 55.3999 110.339 55.622 110.355C55.6332 110.357 55.6448 110.355 55.6549 110.35C55.6651 110.345 55.6734 110.337 55.6786 110.327C55.6845 110.318 55.6877 110.308 55.6877 110.297C55.6877 110.287 55.6845 110.276 55.6786 110.267C55.6189 110.192 55.1008 109.542 54.7774 109.561C54.7402 109.562 54.704 109.573 54.6721 109.592C54.6403 109.611 54.6138 109.638 54.5953 109.671C54.5633 109.716 54.5438 109.769 54.5389 109.824C54.5339 109.879 54.5436 109.935 54.567 109.985C54.6643 110.115 54.8062 110.206 54.9658 110.239ZM55.4996 110.239C55.0474 110.186 54.7428 110.076 54.6675 109.925C54.6528 109.892 54.6474 109.857 54.6518 109.821C54.6563 109.786 54.6704 109.752 54.6926 109.724C54.7014 109.708 54.7141 109.695 54.7294 109.685C54.7448 109.675 54.7623 109.669 54.7805 109.668C54.9501 109.661 55.2829 109.978 55.4996 110.233V110.239Z" fill="#EA3E3E"/>
<path d="M55.6095 110.355H55.6378C55.647 110.354 55.6559 110.35 55.6635 110.345C55.6711 110.339 55.6774 110.332 55.6817 110.324C55.6817 110.296 55.9706 109.658 55.8073 109.363C55.785 109.325 55.755 109.293 55.7193 109.267C55.6836 109.242 55.643 109.224 55.6001 109.215C55.5529 109.202 55.5025 109.204 55.4566 109.221C55.4107 109.239 55.3718 109.271 55.3457 109.313C55.2044 109.545 55.396 110.129 55.5844 110.336C55.5905 110.345 55.5993 110.352 55.6095 110.355ZM55.6095 109.332C55.6311 109.338 55.6512 109.349 55.6685 109.364C55.6857 109.378 55.6999 109.396 55.71 109.416C55.7668 109.676 55.7347 109.947 55.6189 110.186C55.4713 109.953 55.3583 109.52 55.4525 109.369C55.4525 109.341 55.4996 109.31 55.5812 109.325L55.6095 109.332Z" fill="#EA3E3E"/>
<path d="M69.0988 32.7187C68.8884 33.2274 68.6874 33.6796 68.4708 34.1443C68.2541 34.609 68.0218 35.0643 67.7863 35.5196C67.309 36.4271 66.8066 37.322 66.2539 38.1949C65.1543 40.0093 63.8245 41.6737 62.2975 43.1467L62.241 43.2032C62.1609 43.2754 62.0723 43.3376 61.9773 43.3885C61.7158 43.5294 61.4284 43.616 61.1326 43.6428C60.9632 43.6549 60.7933 43.6549 60.6239 43.6428C60.3705 43.6265 60.1187 43.5918 59.8703 43.5392C59.4244 43.445 59.0288 43.3288 58.6394 43.2063C57.867 42.9614 57.1479 42.6631 56.4414 42.3617C55.7349 42.0602 55.0379 41.7337 54.3533 41.3789C53.6688 41.024 52.9969 40.6692 52.3312 40.2673C52.1768 40.173 52.0611 40.0268 52.0049 39.8549C51.9487 39.683 51.9557 39.4967 52.0245 39.3294C52.0934 39.1622 52.2196 39.025 52.3806 38.9425C52.5416 38.86 52.7267 38.8377 52.9026 38.8794C54.3596 39.2311 55.8134 39.6236 57.2453 39.9721C57.9581 40.1511 58.6708 40.3081 59.3554 40.44C59.678 40.5053 60.004 40.5525 60.3319 40.5813C60.4553 40.5885 60.579 40.5885 60.7024 40.5813C60.7495 40.5813 60.7684 40.5813 60.7558 40.5813C60.6442 40.5844 60.5356 40.618 60.4418 40.6786L60.1278 40.9204C60.7353 40.248 61.2986 39.5369 61.814 38.7915C62.3415 38.0285 62.8408 37.2215 63.3212 36.4114C63.8016 35.6013 64.2632 34.7503 64.6996 33.8994C65.1361 33.0484 65.5694 32.1724 65.9556 31.3528L65.9745 31.312C66.1598 30.8956 66.5029 30.5699 66.9283 30.4065C67.3538 30.2431 67.8267 30.2554 68.2431 30.4407C68.6595 30.626 68.9852 30.9691 69.1486 31.3945C69.3121 31.82 69.2998 32.2929 69.1145 32.7093L69.0988 32.7187Z" fill="#FFC3BD"/>
<path d="M68.6155 29.3966C66.5933 29.4531 65.2055 31.648 63.8804 34.3829C64.8961 36.1387 66.3516 37.5997 68.1037 38.6219C68.1037 38.6219 73.4166 29.2616 68.6155 29.3966Z" fill="#E0E0E0"/>
<path d="M52.2309 40.2799L50.4097 39.8152L51.8289 37.9908C51.8289 37.9908 53.399 38.2389 53.9956 39.5608L53.3487 40.0224C53.1918 40.1431 53.0107 40.2285 52.8178 40.273C52.625 40.3174 52.4248 40.3198 52.2309 40.2799Z" fill="#FFC3BD"/>
<path d="M49.967 37.95L50.3186 37.636C50.4625 37.5099 50.6462 37.4386 50.8374 37.4346C51.0287 37.4306 51.2152 37.4941 51.3643 37.614L51.829 37.9877L50.4097 39.812L49.8288 38.9077C49.7326 38.7582 49.6936 38.579 49.719 38.403C49.7444 38.2271 49.8324 38.0662 49.967 37.95Z" fill="#FFC3BD"/>
<path d="M79.5865 111.068H77.1027L76.5093 105.535H78.993L79.5865 111.068Z" fill="#FFC3BD"/>
<path d="M76.8862 110.792H79.6777C79.7238 110.789 79.7691 110.805 79.8038 110.835C79.8385 110.866 79.8597 110.909 79.8629 110.955L79.998 113.078C79.9955 113.192 79.9484 113.3 79.8668 113.38C79.7852 113.46 79.6756 113.505 79.5615 113.505C78.5912 113.486 78.1265 113.432 76.8988 113.432C76.1452 113.432 74.0728 113.508 73.0209 113.508C71.969 113.508 72.0067 112.516 72.4494 112.428C74.4307 112.023 75.7558 111.467 76.4592 110.939C76.5814 110.844 76.7315 110.793 76.8862 110.792Z" fill="#263238"/>
<path opacity="0.2" d="M78.993 105.535H76.5093L76.817 108.39H79.3007L78.993 105.535Z" fill="black"/>
<path d="M70.5903 50.4064C70.5903 50.4064 71.1398 71.1681 71.5323 78.0102C71.9719 85.5022 75.6928 107.699 75.6928 107.699H80.2458C80.2458 107.699 79.2473 85.2196 78.4937 77.8689C78.8077 69.8179 79.015 50.4001 79.015 50.4001L70.5903 50.4064Z" fill="#EA3E3E"/>
<path d="M80.4281 107.699H75.2659L75.021 106.038L80.5662 106.132L80.4281 107.699Z" fill="#263238"/>
<path d="M76.0068 111.206C76.23 111.201 76.4521 111.173 76.6694 111.121C76.68 111.119 76.6897 111.114 76.6971 111.106C76.7044 111.098 76.709 111.088 76.7102 111.077C76.7132 111.067 76.7127 111.056 76.7087 111.045C76.7047 111.035 76.6975 111.027 76.6882 111.021C76.6097 110.971 75.9064 110.506 75.6018 110.622C75.5678 110.635 75.5376 110.656 75.514 110.683C75.4903 110.711 75.4741 110.744 75.4668 110.779C75.4471 110.833 75.4434 110.891 75.4562 110.947C75.4691 111.003 75.4978 111.053 75.539 111.093C75.6764 111.185 75.8424 111.225 76.0068 111.206ZM76.5092 111.043C76.0634 111.128 75.7368 111.112 75.6206 111.002C75.5967 110.976 75.5802 110.944 75.5731 110.909C75.5659 110.874 75.5682 110.838 75.5798 110.804C75.5827 110.787 75.5901 110.771 75.601 110.757C75.612 110.743 75.6263 110.732 75.6426 110.726C75.8059 110.663 76.2204 110.864 76.5092 111.043Z" fill="#EA3E3E"/>
<path d="M76.6537 111.125H76.682C76.6904 111.12 76.6976 111.113 76.703 111.105C76.7084 111.096 76.712 111.087 76.7134 111.077C76.7134 111.049 76.7699 110.362 76.5187 110.135C76.4866 110.105 76.4477 110.082 76.4052 110.069C76.3626 110.056 76.3177 110.053 76.2738 110.06C76.2253 110.061 76.1783 110.077 76.1403 110.107C76.1022 110.138 76.0752 110.179 76.0634 110.227C76.0069 110.487 76.3774 110.986 76.6255 111.128L76.6537 111.125ZM76.302 110.154C76.3253 110.154 76.3485 110.158 76.3701 110.166C76.3917 110.175 76.4113 110.188 76.4276 110.205C76.5651 110.433 76.6226 110.7 76.5909 110.964C76.3743 110.789 76.1262 110.409 76.1639 110.239C76.1639 110.205 76.1921 110.167 76.2769 110.157L76.302 110.154Z" fill="#EA3E3E"/>
<path d="M66.7815 30.9948C66.9155 30.5883 67.1565 30.2254 67.4791 29.9441C67.8018 29.6629 68.1943 29.4738 68.6153 29.3966C69.2289 29.2535 69.8507 29.1486 70.4773 29.0826C72.3599 28.9787 74.2467 28.9787 76.1293 29.0826C77.1153 29.1265 78.1201 29.2427 78.9208 29.3558H78.949C79.1547 29.3797 79.3534 29.4453 79.533 29.5484C79.7126 29.6516 79.8692 29.7903 79.9935 29.956C80.1178 30.1216 80.207 30.3109 80.2558 30.5122C80.3046 30.7134 80.3119 30.9225 80.2772 31.1267C79.6504 34.3265 79.2402 37.5649 79.0495 40.8199C78.8548 45.5487 79.1186 49.2602 79.0244 50.4H65.7359C64.9289 38.8668 65.9714 33.623 66.7815 30.9948Z" fill="#E0E0E0"/>
<path d="M77.0304 22.0459C77.2622 22.2133 77.4466 22.438 77.5655 22.698C77.6844 22.958 77.7338 23.2445 77.7088 23.5293C77.6838 23.8142 77.5852 24.0876 77.4229 24.323C77.2605 24.5583 77.0397 24.7474 76.7823 24.8719C77.3193 25.7605 75.8906 27.3305 74.4524 26.3445C73.0143 25.3586 75.0459 21.2075 77.0304 22.0459Z" fill="#263238"/>
<path d="M71.0836 21.0914C70.8863 21.0972 70.6909 21.0517 70.5164 20.9593C70.342 20.8669 70.1946 20.7308 70.0885 20.5643C69.9825 20.3978 69.9215 20.2067 69.9115 20.0095C69.9016 19.8124 69.943 19.6161 70.0317 19.4397C69.3629 19.1791 69.4822 17.719 70.688 17.6562C71.8937 17.5934 72.5155 20.724 71.0836 21.0914Z" fill="#263238"/>
<path d="M70.6912 30.3167C70.6013 30.2342 70.5344 30.1297 70.4971 30.0136C70.4598 29.8974 70.4533 29.7736 70.4783 29.6542C70.5034 29.5348 70.559 29.4239 70.6398 29.3325C70.7206 29.2411 70.8238 29.1723 70.9392 29.1329C72.1513 28.687 72.3711 27.8078 72.2737 26.8501C72.2459 26.5808 72.2018 26.3134 72.1419 26.0494L74.1986 24.4072L75.712 23.2014C75.3352 24.7714 74.9145 27.5064 75.712 28.8911C75.8014 29.036 75.836 29.2081 75.8095 29.3763C75.783 29.5444 75.6972 29.6976 75.5676 29.808C75.0464 30.2696 73.9788 30.8662 72.2204 30.772C71.4134 30.7311 70.9644 30.5459 70.6912 30.3167Z" fill="#FFC3BD"/>
<path d="M66.1003 31.0514C66.2501 30.5993 66.5141 30.1935 66.8667 29.8733C67.2194 29.5532 67.6487 29.3295 68.1131 29.2239C68.7091 29.1293 69.3096 29.0664 69.9123 29.0355C69.9752 29.0265 70.0394 29.0332 70.099 29.0552C70.1587 29.0771 70.2119 29.1136 70.254 29.1612C70.296 29.2089 70.3256 29.2663 70.3399 29.3282C70.3543 29.3901 70.353 29.4546 70.3362 29.5159C69.2843 33.4221 67.7834 41.2375 68.2481 50.9182C68.2503 50.9784 68.2401 51.0385 68.2182 51.0946C68.1963 51.1508 68.1632 51.2019 68.1209 51.2449C68.0785 51.2878 68.0279 51.3216 67.972 51.3443C67.9161 51.3669 67.8562 51.3779 67.7959 51.3766H65.1583C65.0439 51.3785 64.9331 51.3367 64.8485 51.2597C64.7638 51.1827 64.7118 51.0762 64.703 50.9621C63.9086 39.1337 65.3122 33.24 66.1003 31.0514Z" fill="#263238"/>
<path d="M78.8485 29.1203C78.0041 28.9994 77.1542 28.9218 76.3019 28.888C76.1476 28.8767 75.9944 28.9203 75.8691 29.0111C75.7439 29.1019 75.6547 29.234 75.6174 29.3841C74.6409 33.6859 73.7711 43.244 73.7334 50.9339C73.7346 50.9925 73.7474 51.0502 73.7709 51.1038C73.7945 51.1575 73.8283 51.2059 73.8706 51.2465C73.9129 51.287 73.9628 51.3188 74.0173 51.3401C74.0719 51.3613 74.1301 51.3716 74.1887 51.3704H78.8987C79.0154 51.3729 79.1284 51.3296 79.2135 51.2498C79.2987 51.17 79.3491 51.0599 79.354 50.9433C79.3854 49.3953 79.1719 45.7686 79.354 41.2658C79.5281 38.0572 79.931 34.8652 80.5598 31.714C80.723 30.8316 79.781 29.2522 78.8485 29.1203Z" fill="#263238"/>
<path d="M80.5033 30.4862C81.5112 32.006 82.4281 33.5289 83.2947 35.1271C83.7218 35.9278 84.1425 36.7411 84.5225 37.5952C84.7109 38.0222 84.8961 38.4587 85.0688 38.9203C85.2592 39.4196 85.4062 39.9344 85.5084 40.4589C85.5858 40.8411 85.6028 41.2332 85.5587 41.6207C85.5074 41.9343 85.4264 42.2423 85.3169 42.5407C85.1378 43.0271 84.9182 43.4976 84.6606 43.9474C84.1984 44.7631 83.6834 45.5476 83.1189 46.2961C82.0327 47.7456 80.8449 49.116 79.5644 50.397C79.4165 50.5452 79.2192 50.634 79.0101 50.6463C78.801 50.6587 78.5947 50.5937 78.4303 50.4639C78.2659 50.334 78.155 50.1483 78.1187 49.942C78.0823 49.7357 78.123 49.5233 78.233 49.3451V49.3262C79.1468 47.8536 80.0699 46.3526 80.9052 44.8643C81.3197 44.1232 81.7153 43.3696 82.0324 42.6412C82.3496 41.9127 82.582 41.1151 82.4187 41.0931C82.3185 40.7591 82.1968 40.4318 82.0544 40.1135C81.8974 39.7555 81.7184 39.385 81.53 39.0176C81.147 38.2797 80.7356 37.5292 80.3054 36.7913C79.4451 35.3093 78.5282 33.8146 77.6207 32.3671V32.3482C77.3738 31.966 77.2889 31.5013 77.3846 31.0564C77.4803 30.6115 77.7488 30.2229 78.131 29.976C78.5132 29.7291 78.9779 29.6441 79.4228 29.7398C79.8677 29.8355 80.2564 30.104 80.5033 30.4862Z" fill="#FFC3BD"/>
<path d="M78.5504 29.0795C80.5726 29.0418 81.6433 30.7531 82.9684 33.4755C81.4675 36.2544 78.6038 37.457 78.6038 37.457C78.6038 37.457 74.5752 29.1485 78.5504 29.0795Z" fill="#E0E0E0"/>
<path d="M77.5141 49.2635L76.3491 49.634L78.5063 51.2731C78.5063 51.2731 80.271 50.3562 79.7183 49.5241L79.3604 49.3639C78.7777 49.1068 78.1212 49.071 77.5141 49.2635Z" fill="#FFC3BD"/>
<path d="M75.6963 51.072L77.0057 52.3877C77.048 52.429 77.0985 52.461 77.1538 52.4818C77.2092 52.5025 77.2682 52.5116 77.3273 52.5083C77.3863 52.5051 77.444 52.4896 77.4968 52.4629C77.5495 52.4362 77.5961 52.3988 77.6337 52.3531L78.5035 51.273L76.3463 49.6339L75.6743 50.5539C75.6124 50.6273 75.5803 50.7213 75.5843 50.8173C75.5884 50.9132 75.6284 51.0041 75.6963 51.072Z" fill="#FFC3BD"/>
<path opacity="0.2" d="M72.1416 26.0619C72.2016 26.3259 72.2456 26.5933 72.2735 26.8626C73.0522 27.0604 74.1575 26.1687 74.2611 25.4119C74.2744 25.0799 74.2534 24.7474 74.1983 24.4197L72.1416 26.0619Z" fill="black"/>
<path d="M77.0023 20.972C76.4717 23.2893 76.2833 24.6709 74.8577 25.704C74.3914 26.0451 73.843 26.2564 73.2684 26.3166C72.6937 26.3768 72.1134 26.2835 71.5866 26.0464C71.0597 25.8093 70.6051 25.4368 70.2691 24.9668C69.933 24.4968 69.7276 23.9462 69.6736 23.371C69.4915 21.1981 70.3895 17.7723 72.9266 17.1632C75.4637 16.554 77.533 18.6515 77.0023 20.972Z" fill="#FFC3BD"/>
<path d="M75.9286 23.0004C75.2567 23.035 74.5407 20.6643 76.0228 19.5213C75.7873 19.6501 75.1436 19.4146 75.2567 18.9718C74.8202 19.1539 72.9111 19.0754 73.3727 18.2999C72.4024 18.5511 70.286 18.1303 70.06 17.204C69.8339 16.2777 70.9266 16.2463 71.0962 16.3688C70.6157 15.6968 70.6252 14.7108 71.9 14.3529C73.1748 13.9949 75.0965 15.8381 75.0965 15.8381C74.8956 15.3514 75.6021 14.9589 76.3337 15.3765C77.0653 15.7941 77.4076 16.9811 77.4076 16.9811C77.4076 16.6231 79.1157 17.1035 78.3056 18.6044C79.144 18.9184 79.5271 19.3643 79.4737 20.1399C79.4203 20.9155 78.8896 20.9594 78.8896 20.9594C79.002 21.2387 79.0175 21.5475 78.9339 21.8366C78.8502 22.1257 78.6721 22.3785 78.4281 22.5546C77.5583 23.2548 76.7984 22.4321 75.9286 23.0004Z" fill="#263238"/>
<path d="M77.2599 23.1794C76.9646 23.6116 76.5285 23.9279 76.0259 24.0743C75.3791 24.247 75.1593 23.6693 75.423 23.0664C75.6617 22.5232 76.2834 21.7758 76.8926 21.87C77.5017 21.9642 77.6242 22.6393 77.2599 23.1794Z" fill="#FFC3BD"/>
<path d="M73.1623 20.8778C73.1309 21.0662 72.999 21.2075 72.8703 21.1918C72.7415 21.1761 72.6599 21.0065 72.6913 20.815C72.7227 20.6234 72.8546 20.501 72.9833 20.501C73.1121 20.501 73.178 20.6862 73.1623 20.8778Z" fill="#263238"/>
<path d="M70.8637 20.4602C70.8323 20.6517 70.7036 20.793 70.5749 20.7742C70.4461 20.7553 70.3645 20.5889 70.3959 20.3974C70.4273 20.2058 70.556 20.0834 70.6848 20.0834C70.8135 20.0834 70.8951 20.2718 70.8637 20.4602Z" fill="#263238"/>
<path d="M71.7713 20.8872C71.4368 21.4398 71.0279 21.9438 70.5562 22.385C70.6783 22.4998 70.8236 22.5872 70.9822 22.6414C71.1409 22.6955 71.3093 22.7152 71.4762 22.699L71.7713 20.8872Z" fill="#ED847E"/>
<path d="M71.8839 23.6348C72.1123 23.6606 72.3435 23.6405 72.564 23.5758C72.7846 23.5111 72.99 23.4031 73.1682 23.258C73.1786 23.2469 73.1843 23.2323 73.1843 23.2171C73.1843 23.202 73.1786 23.1874 73.1682 23.1763C73.1568 23.1666 73.1423 23.1613 73.1274 23.1613C73.1124 23.1613 73.0979 23.1666 73.0865 23.1763C72.8906 23.3318 72.6619 23.4409 72.4177 23.4953C72.1735 23.5497 71.9201 23.548 71.6767 23.4903C71.6692 23.4885 71.6615 23.4882 71.654 23.4894C71.6464 23.4906 71.6392 23.4934 71.6327 23.4975C71.6263 23.5016 71.6207 23.507 71.6164 23.5133C71.6121 23.5196 71.6091 23.5268 71.6076 23.5343C71.6058 23.5415 71.6055 23.5491 71.6067 23.5564C71.608 23.5638 71.6108 23.5708 71.6149 23.577C71.6191 23.5832 71.6245 23.5885 71.6308 23.5925C71.6371 23.5965 71.6442 23.5991 71.6516 23.6002C71.7281 23.6174 71.8057 23.629 71.8839 23.6348Z" fill="#263238"/>
<path d="M73.2562 19.5716C73.2374 19.5766 73.2201 19.5864 73.206 19.5999C73.1951 19.6101 73.1864 19.6225 73.1804 19.6363C73.1745 19.6501 73.1714 19.6649 73.1714 19.6799C73.1714 19.6949 73.1745 19.7098 73.1804 19.7235C73.1864 19.7373 73.1951 19.7497 73.206 19.76C73.3283 19.8967 73.4818 20.0018 73.6535 20.0663C73.8252 20.1309 74.0099 20.1529 74.192 20.1305C74.2071 20.129 74.2217 20.1244 74.2349 20.117C74.2481 20.1096 74.2596 20.0995 74.2688 20.0874C74.2779 20.0753 74.2845 20.0615 74.288 20.0467C74.2915 20.032 74.292 20.0167 74.2893 20.0018C74.2867 19.9867 74.2811 19.9723 74.2728 19.9594C74.2646 19.9465 74.2539 19.9354 74.2414 19.9266C74.2288 19.9179 74.2147 19.9117 74.1997 19.9084C74.1848 19.9052 74.1693 19.9049 74.1543 19.9076C74.0103 19.9203 73.8654 19.8984 73.7316 19.8438C73.5978 19.7892 73.4789 19.7034 73.385 19.5936C73.3676 19.5785 73.3464 19.5684 73.3237 19.5645C73.301 19.5607 73.2777 19.5631 73.2562 19.5716Z" fill="#263238"/>
<path d="M70.2139 19.0033C70.2312 19.011 70.2499 19.0149 70.2689 19.0149C70.2878 19.0149 70.3065 19.011 70.3238 19.0033C70.4579 18.9364 70.6049 18.8998 70.7547 18.896C70.9044 18.8922 71.0532 18.9213 71.1904 18.9813C71.2172 18.9965 71.2489 19.0007 71.2787 18.9931C71.3086 18.9855 71.3343 18.9666 71.3506 18.9405C71.3643 18.9132 71.367 18.8818 71.3583 18.8526C71.3495 18.8234 71.3299 18.7987 71.3035 18.7835C71.1339 18.7021 70.9483 18.6599 70.7603 18.6599C70.5722 18.6599 70.3866 18.7021 70.217 18.7835C70.2033 18.7894 70.191 18.7982 70.1808 18.8093C70.1707 18.8203 70.163 18.8334 70.1583 18.8476C70.1536 18.8618 70.1519 18.8769 70.1533 18.8918C70.1548 18.9067 70.1594 18.9212 70.1668 18.9342C70.1739 18.962 70.1906 18.9865 70.2139 19.0033Z" fill="#263238"/>
</svg>
