<svg width="188" height="187" viewBox="0 0 188 187" fill="none" xmlns="http://www.w3.org/2000/svg">
<rect x="22" width="144" height="174" rx="8" fill="white"/>
<rect x="22.5" y="0.5" width="143" height="173" rx="7.5" stroke="#2F3447" stroke-opacity="0.1"/>
<rect x="14" y="6" width="160" height="174" rx="8" fill="white"/>
<rect x="14.5" y="6.5" width="159" height="173" rx="7.5" stroke="#2F3447" stroke-opacity="0.1"/>
<g filter="url(#filter0_d)">
<rect x="6" y="12" width="176" height="168" rx="8" fill="white"/>
<rect x="6.5" y="12.5" width="175" height="167" rx="7.5" stroke="#2F3447" stroke-opacity="0.1"/>
</g>
<rect x="14" y="20" width="160" height="152" rx="8" fill="white"/>
<rect x="14.5" y="20.5" width="159" height="151" rx="7.5" stroke="#2F3447" stroke-opacity="0.1"/>
<defs>
<filter id="filter0_d" x="0" y="7" width="188" height="180" filterUnits="userSpaceOnUse" color-interpolation-filters="sRGB">
<feFlood flood-opacity="0" result="BackgroundImageFix"/>
<feColorMatrix in="SourceAlpha" type="matrix" values="0 0 0 0 0 0 0 0 0 0 0 0 0 0 0 0 0 0 127 0"/>
<feOffset dy="1"/>
<feGaussianBlur stdDeviation="3"/>
<feColorMatrix type="matrix" values="0 0 0 0 0 0 0 0 0 0 0 0 0 0 0 0 0 0 0.25 0"/>
<feBlend mode="normal" in2="BackgroundImageFix" result="effect1_dropShadow"/>
<feBlend mode="normal" in="SourceGraphic" in2="effect1_dropShadow" result="shape"/>
</filter>
</defs>
</svg>
