<svg width="52" height="52" viewBox="0 0 52 52" fill="none" xmlns="http://www.w3.org/2000/svg">
<circle cx="26" cy="26" r="26" fill="#252A39" fill-opacity="0.1"/>
<circle cx="26" cy="26" r="18" fill="#252A39"/>
<path d="M34.9928 22.46C34.5015 21.2286 33.7647 20.1102 32.8273 19.1727C31.8898 18.2353 30.7714 17.4985 29.54 17.0072C29.2556 15.3056 27.782 14 26 14C24.218 14 22.7444 15.3056 22.46 17.0072C21.2285 17.4982 20.1099 18.235 19.1724 19.1724C18.235 20.1099 17.4982 21.2285 17.0072 22.46C15.3056 22.7444 14 24.218 14 26C14 27.782 15.3056 29.2556 17.0072 29.54C17.4985 30.7714 18.2353 31.8898 19.1727 32.8273C20.1102 33.7647 21.2286 34.5015 22.46 34.9928C22.7444 36.6944 24.218 38 26 38C27.782 38 29.2556 36.6944 29.54 34.9928C30.7714 34.5015 31.8898 33.7647 32.8273 32.8273C33.7647 31.8898 34.5015 30.7714 34.9928 29.54C36.6944 29.2556 38 27.782 38 26C38 24.218 36.6944 22.7444 34.9928 22.46ZM26 16.4C26.3183 16.4 26.6235 16.5264 26.8485 16.7515C27.0736 16.9765 27.2 17.2817 27.2 17.6C27.2 17.672 27.1724 17.732 27.1592 17.8004C27.1423 17.9162 27.1087 18.029 27.0596 18.1352C27.0428 18.1676 27.0188 18.194 26.9984 18.2252C26.945 18.3164 26.8806 18.4007 26.8064 18.476C26.7584 18.5204 26.6984 18.5504 26.6432 18.5864C26.5784 18.6296 26.5184 18.68 26.4452 18.71C26.3072 18.7664 26.1584 18.8 26 18.8C25.8416 18.8 25.6928 18.7664 25.5548 18.71C25.4816 18.6812 25.4216 18.6308 25.3568 18.5864C25.3016 18.5504 25.2416 18.5204 25.1936 18.476C25.1194 18.4007 25.055 18.3164 25.0016 18.2252C24.9812 18.194 24.9572 18.1676 24.9404 18.1352C24.8915 18.0289 24.8579 17.9162 24.8408 17.8004C24.8276 17.732 24.8 17.672 24.8 17.6C24.8 17.2817 24.9264 16.9765 25.1515 16.7515C25.3765 16.5264 25.6817 16.4 26 16.4ZM17.6 24.8C17.672 24.8 17.732 24.8276 17.8004 24.8408C17.9192 24.8612 18.0332 24.89 18.1352 24.9404C18.1676 24.9572 18.194 24.9812 18.2252 25.0016C18.3152 25.058 18.404 25.118 18.476 25.1936C18.5204 25.2416 18.5504 25.3016 18.5864 25.3568C18.6296 25.4216 18.68 25.4816 18.71 25.5548C18.7664 25.6928 18.8 25.8416 18.8 26C18.8 26.1584 18.7664 26.3072 18.71 26.4452C18.6812 26.5184 18.6308 26.5784 18.5864 26.6432C18.5504 26.6984 18.5204 26.7584 18.476 26.8064C18.404 26.882 18.3152 26.942 18.2252 26.9984C18.194 27.0188 18.1676 27.0428 18.1352 27.0596C18.0289 27.1085 17.9162 27.1421 17.8004 27.1592C17.732 27.1724 17.672 27.2 17.6 27.2C17.2817 27.2 16.9765 27.0736 16.7515 26.8485C16.5264 26.6235 16.4 26.3183 16.4 26C16.4 25.6817 16.5264 25.3765 16.7515 25.1515C16.9765 24.9264 17.2817 24.8 17.6 24.8ZM26 35.6C25.6817 35.6 25.3765 35.4736 25.1515 35.2485C24.9264 35.0235 24.8 34.7183 24.8 34.4C24.8 34.328 24.8276 34.268 24.8408 34.1996C24.8612 34.0808 24.89 33.9668 24.9404 33.8648C24.9572 33.8324 24.9812 33.806 25.0016 33.7748C25.058 33.6848 25.118 33.596 25.1936 33.524C25.2416 33.4796 25.3016 33.4496 25.3568 33.4136C25.4216 33.3704 25.4816 33.32 25.5548 33.29C25.6928 33.2336 25.8416 33.2 26 33.2C26.1584 33.2 26.3072 33.2336 26.4452 33.29C26.5184 33.3188 26.5784 33.3692 26.6432 33.4136C26.6984 33.4496 26.7584 33.4796 26.8064 33.524C26.882 33.596 26.942 33.6848 26.9984 33.7748C27.0188 33.806 27.0428 33.8324 27.0596 33.8648C27.11 33.9668 27.1388 34.082 27.1592 34.1996C27.1724 34.268 27.2 34.328 27.2 34.4C27.2 34.7183 27.0736 35.0235 26.8485 35.2485C26.6235 35.4736 26.3183 35.6 26 35.6ZM29.0996 32.5856C29.0924 32.5724 29.0792 32.5628 29.0732 32.5508C28.7767 32.0586 28.3669 31.6443 27.878 31.3424C27.8132 31.3028 27.7472 31.2704 27.6788 31.2344C27.4923 31.1349 27.2971 31.0525 27.0956 30.9884C27.0188 30.9632 26.942 30.9356 26.8628 30.9152C26.5832 30.8468 26.2976 30.8 26 30.8C25.7024 30.8 25.4168 30.8468 25.1384 30.9164C25.0592 30.9368 24.9824 30.9632 24.9044 30.9896C24.7034 31.054 24.5086 31.1363 24.3224 31.2356C24.2552 31.2704 24.188 31.304 24.1232 31.3436C23.6343 31.6455 23.2245 32.0598 22.928 32.552C22.9208 32.5652 22.9076 32.5748 22.9016 32.5868C21.3744 31.8587 20.1437 30.628 19.4156 29.1008C19.4288 29.0936 19.4384 29.0804 19.4504 29.0744C19.9426 28.7779 20.3569 28.3681 20.6588 27.8792C20.6984 27.8144 20.732 27.7472 20.7668 27.68C20.8664 27.4952 20.9468 27.3008 21.0128 27.098C21.038 27.02 21.0656 26.9432 21.086 26.864C21.1532 26.5832 21.2 26.2976 21.2 26C21.2 25.7024 21.1532 25.4168 21.0836 25.1384C21.0623 25.0599 21.0379 24.9822 21.0104 24.9056C20.9463 24.7041 20.8639 24.5089 20.7644 24.3224C20.7284 24.254 20.696 24.188 20.6564 24.1232C20.3545 23.6343 19.9402 23.2245 19.448 22.928C19.436 22.9208 19.4264 22.9076 19.4144 22.9004C20.1425 21.3732 21.3732 20.1425 22.9004 19.4144C22.9076 19.4264 22.9208 19.436 22.9268 19.4492C23.2244 19.9424 23.6324 20.3552 24.122 20.6576C24.1868 20.6972 24.254 20.7308 24.3212 20.7656C24.5072 20.8652 24.7004 20.9456 24.9044 21.0116C24.9812 21.0368 25.058 21.0644 25.1372 21.0848C25.4168 21.1532 25.7012 21.2 26 21.2C26.3725 21.195 26.7419 21.131 27.0944 21.0104C27.2984 20.9444 27.4916 20.864 27.6776 20.7644C27.7448 20.7296 27.812 20.696 27.8768 20.6564C28.3664 20.354 28.7744 19.9412 29.072 19.448C29.0792 19.4348 29.0924 19.4252 29.0984 19.4132C30.6256 20.1413 31.8563 21.372 32.5844 22.8992C32.5712 22.9064 32.5616 22.9196 32.5496 22.9256C32.0574 23.2221 31.6431 23.6319 31.3412 24.1208C31.3016 24.1856 31.268 24.2528 31.2332 24.32C31.1336 24.506 31.0532 24.6992 30.9872 24.9032C30.962 24.98 30.9344 25.0568 30.914 25.136C30.8468 25.4168 30.8 25.7012 30.8 26C30.805 26.3725 30.869 26.7419 30.9896 27.0944C31.0556 27.2984 31.136 27.4916 31.2356 27.6776C31.2704 27.7448 31.304 27.812 31.3436 27.8768C31.646 28.3664 32.0588 28.7744 32.552 29.072C32.5652 29.0792 32.5748 29.0924 32.5868 29.0984C31.8591 30.6266 30.6278 31.8579 29.0996 32.5856ZM34.4 27.2C34.328 27.2 34.268 27.1724 34.1996 27.1592C34.0838 27.1423 33.971 27.1087 33.8648 27.0596C33.8324 27.0428 33.806 27.0188 33.7748 26.9984C33.6836 26.945 33.5993 26.8806 33.524 26.8064C33.4796 26.7584 33.4496 26.6984 33.4136 26.6432C33.3704 26.5784 33.32 26.5184 33.29 26.4452C33.2336 26.3072 33.2 26.1584 33.2 26C33.2 25.8416 33.2336 25.6928 33.29 25.5548C33.3188 25.4816 33.3692 25.4216 33.4136 25.3568C33.4496 25.3016 33.4796 25.2416 33.524 25.1936C33.596 25.118 33.6848 25.058 33.7748 25.0016C33.806 24.9812 33.8324 24.9572 33.8648 24.9404C33.9668 24.89 34.082 24.8612 34.1996 24.8408C34.268 24.8276 34.328 24.8 34.4 24.8C34.7183 24.8 35.0235 24.9264 35.2485 25.1515C35.4736 25.3765 35.6 25.6817 35.6 26C35.6 26.3183 35.4736 26.6235 35.2485 26.8485C35.0235 27.0736 34.7183 27.2 34.4 27.2Z" fill="white"/>
</svg>
