<svg width="34" height="34" viewBox="0 0 34 34" fill="none" xmlns="http://www.w3.org/2000/svg">
<rect x="1" y="1" width="32" height="32" rx="16" stroke="#EA3E3E" stroke-width="2"/>
<path d="M21.875 16.0015L18.125 16H15.875L12.125 16.0015L11.972 16.012C11.7027 16.049 11.4558 16.1822 11.2772 16.3871C11.0985 16.592 11 16.8546 11 17.1265L11.0105 17.2795C11.0475 17.5488 11.1807 17.7957 11.3856 17.9743C11.5905 18.153 11.8531 18.2515 12.125 18.2515L15.875 18.25H18.125L21.875 18.2515L22.028 18.241C22.2973 18.204 22.5442 18.0708 22.7228 17.8659C22.9015 17.661 23 17.3984 23 17.1265L22.9895 16.9735C22.9525 16.7042 22.8193 16.4573 22.6144 16.2787C22.4095 16.1 22.1469 16.0015 21.875 16.0015Z" fill="#EA3E3E"/>
</svg>
