<svg width="315" height="306" viewBox="0 0 315 306" fill="none" xmlns="http://www.w3.org/2000/svg">
<path d="M157.297 305.088C244.17 305.088 314.595 264.428 314.595 214.271C314.595 164.115 244.17 123.455 157.297 123.455C70.4245 123.455 0 164.115 0 214.271C0 264.428 70.4245 305.088 157.297 305.088Z" fill="#F0F0F0"/>
<path d="M247.633 245.783C237.318 239.828 237.318 230.174 247.633 224.219C257.947 218.264 274.671 218.264 284.986 224.219C295.3 230.174 295.3 239.828 284.986 245.783C274.671 251.738 257.947 251.738 247.633 245.783Z" fill="#E0E0E0"/>
<path d="M37.8401 246.611L10.7082 230.949C9.17931 230.067 9.17931 228.632 10.7082 227.751L168.526 136.634C169.384 136.2 170.332 135.973 171.294 135.973C172.255 135.973 173.203 136.2 174.061 136.634L201.2 152.297C202.728 153.178 202.728 154.613 201.2 155.494L43.3814 246.611C42.5225 247.046 41.5734 247.272 40.6108 247.272C39.6481 247.272 38.699 247.046 37.8401 246.611Z" fill="#E0E0E0"/>
<path d="M135.365 218.691L158.692 205.205C161.095 203.817 162.297 202.001 162.297 200.178C162.297 198.356 162.297 196.933 162.297 196.933L138.103 183.287C137.427 182.85 136.864 182.26 136.46 181.563C136.056 180.867 135.823 180.085 135.779 179.282V150.514L95.0547 174.054V202.809C95.1016 203.611 95.3362 204.392 95.7398 205.088C96.1433 205.784 96.7044 206.375 97.378 206.814L117.967 218.671C122.761 221.468 130.559 221.468 135.365 218.691Z" fill="#EA3E3E"/>
<g opacity="0.6">
<path opacity="0.6" d="M135.365 218.691L158.692 205.205C161.095 203.817 162.297 202.001 162.297 200.178C162.297 198.356 162.297 196.933 162.297 196.933L138.103 183.287C137.427 182.85 136.864 182.26 136.46 181.563C136.056 180.867 135.823 180.085 135.779 179.282V150.514L95.0547 174.054V202.809C95.1016 203.611 95.3362 204.392 95.7398 205.088C96.1433 205.784 96.7044 206.375 97.378 206.814L117.967 218.671C122.761 221.468 130.559 221.468 135.365 218.691Z" fill="black"/>
</g>
<path opacity="0.3" d="M104.823 207.902V211.134L97.3586 206.828C96.6852 206.389 96.1245 205.797 95.722 205.101C95.3196 204.405 95.0866 203.624 95.042 202.822V174.054L102.8 169.574C102.96 171.544 103.134 173.58 103.3 175.583L97.846 178.721V201.186C97.8892 201.99 98.1223 202.772 98.5262 203.468C98.93 204.165 99.4931 204.755 100.169 205.192L104.823 207.902Z" fill="black"/>
<path d="M97.8457 201.193C97.8916 201.996 98.1258 202.777 98.5294 203.473C98.933 204.169 99.4947 204.76 100.169 205.199L117.941 215.44C122.748 218.21 130.546 218.217 135.359 215.44L158.726 201.954C163.539 199.177 163.539 194.677 158.726 191.9L140.94 181.658C140.268 181.219 139.708 180.627 139.305 179.931C138.903 179.236 138.669 178.455 138.624 177.653V155.181L97.8991 178.721L97.8457 201.193Z" fill="#EA3E3E"/>
<path opacity="0.3" d="M97.8457 201.193C97.8916 201.996 98.1258 202.777 98.5294 203.473C98.933 204.169 99.4947 204.76 100.169 205.199L117.941 215.44C122.748 218.21 130.546 218.217 135.359 215.44L158.726 201.954C163.539 199.177 163.539 194.677 158.726 191.9L140.94 181.658C140.268 181.219 139.708 180.627 139.305 179.931C138.903 179.236 138.669 178.455 138.624 177.653V155.181L97.8991 178.721L97.8457 201.193Z" fill="black"/>
<path opacity="0.5" d="M145.648 184.402L140.914 181.672C140.242 181.232 139.682 180.64 139.279 179.945C138.877 179.249 138.643 178.468 138.598 177.666V155.181L97.873 178.721V201.193C97.9189 201.996 98.1531 202.777 98.5567 203.473C98.9603 204.169 99.522 204.76 100.196 205.199L104.87 207.869L145.648 184.402Z" fill="black"/>
<path d="M162.304 196.94V200.185C162.304 202.007 161.096 203.817 158.699 205.212L135.332 218.691C132.775 220.056 129.919 220.765 127.021 220.754V217.523C129.919 217.534 132.775 216.825 135.332 215.46L158.699 201.967C161.096 200.585 162.304 198.763 162.304 196.94Z" fill="#EA3E3E"/>
<path opacity="0.5" d="M162.304 196.94V200.185C162.304 202.007 161.096 203.817 158.699 205.212L135.332 218.691C132.775 220.056 129.919 220.765 127.021 220.754V217.523C129.919 217.534 132.775 216.825 135.332 215.46L158.699 201.967C161.096 200.585 162.304 198.763 162.304 196.94Z" fill="black"/>
<path d="M32.4205 229.119C33.3009 229.545 34.2688 229.757 35.2464 229.74C36.224 229.722 37.1838 229.475 38.0485 229.019L195.606 138.056C196.451 137.505 197.154 136.763 197.659 135.89C198.163 135.016 198.455 134.036 198.51 133.029V5.56751C198.48 4.58769 198.219 3.62887 197.748 2.76918C197.277 1.90948 196.609 1.17324 195.8 0.620458C194.921 0.194756 193.953 -0.0174401 192.976 0.00112084C192 0.0196818 191.041 0.268476 190.179 0.727277L32.6208 91.7169C31.7789 92.2714 31.08 93.017 30.5811 93.893C30.0822 94.769 29.7974 95.7505 29.75 96.7574V224.199C29.7798 225.171 30.0369 226.122 30.5006 226.976C30.9644 227.831 31.6219 228.565 32.4205 229.119Z" fill="#EA3E3E"/>
<path d="M38.0672 229.013L195.625 138.05C196.471 137.5 197.175 136.758 197.68 135.884C198.184 135.01 198.475 134.03 198.529 133.022V5.56753C198.529 3.71823 197.227 2.96382 195.625 3.89181L38.0672 94.8547C37.222 95.4054 36.5186 96.1476 36.014 97.021C35.5094 97.8945 35.2179 98.8746 35.1631 99.8819V227.337C35.1631 229.186 36.4649 229.941 38.0672 229.013Z" fill="#EA3E3E"/>
<path opacity="0.5" d="M38.0672 229.013L195.625 138.05C196.471 137.5 197.175 136.758 197.68 135.884C198.184 135.01 198.475 134.03 198.529 133.022V5.56753C198.529 3.71823 197.227 2.96382 195.625 3.89181L38.0672 94.8547C37.222 95.4054 36.5186 96.1476 36.014 97.021C35.5094 97.8945 35.2179 98.8746 35.1631 99.8819V227.337C35.1631 229.186 36.4649 229.941 38.0672 229.013Z" fill="black"/>
<path d="M37.6403 232.324C36.8141 232.685 35.9195 232.862 35.0182 232.843C34.1169 232.825 33.2303 232.611 32.4195 232.217C31.6191 231.661 30.9605 230.925 30.4967 230.068C30.0328 229.211 29.7767 228.257 29.749 227.283V215.68L35.1901 218.831V230.435C35.1567 232.124 36.2316 232.891 37.6403 232.324Z" fill="#EA3E3E"/>
<path opacity="0.5" d="M37.6403 232.324C36.8141 232.685 35.9195 232.862 35.0182 232.843C34.1169 232.825 33.2303 232.611 32.4195 232.217C31.6191 231.661 30.9605 230.925 30.4967 230.068C30.0328 229.211 29.7767 228.257 29.749 227.283V215.68L35.1901 218.831V230.435C35.1567 232.124 36.2316 232.891 37.6403 232.324Z" fill="black"/>
<path d="M35.1572 218.831V230.435C35.1572 232.284 36.4925 233.032 38.0614 232.11L195.619 141.147C196.46 140.599 197.161 139.861 197.666 138.992C198.17 138.124 198.464 137.149 198.523 136.147V124.49L35.1572 218.831Z" fill="#EA3E3E"/>
<path opacity="0.3" d="M35.1631 218.805V230.435C35.1631 232.284 36.4983 233.032 38.0672 232.11L195.625 141.147C196.465 140.598 197.165 139.86 197.668 138.991C198.171 138.123 198.464 137.149 198.522 136.147V124.49L35.1631 218.805Z" fill="black"/>
<path d="M40.6045 204.244V101.691C40.6356 101.087 40.809 100.499 41.1107 99.9742C41.4123 99.4498 41.8336 99.0041 42.3403 98.6735L191.313 12.6376C192.274 12.0835 193.055 12.5308 193.055 13.639V116.245C193.023 116.85 192.848 117.438 192.545 117.963C192.242 118.487 191.82 118.933 191.313 119.263L42.347 205.279C41.3856 205.833 40.6045 205.379 40.6045 204.244Z" fill="#EA3E3E"/>
<path d="M40.6045 204.244V101.691C40.6356 101.087 40.809 100.499 41.1107 99.9742C41.4123 99.4498 41.8336 99.0041 42.3403 98.6735L191.313 12.6376C192.274 12.0835 193.055 12.5308 193.055 13.639V116.245C193.023 116.85 192.848 117.438 192.545 117.963C192.242 118.487 191.82 118.933 191.313 119.263L42.347 205.279C41.3856 205.833 40.6045 205.379 40.6045 204.244Z" fill="#263238"/>
<path d="M116.839 175.356C116.046 175.872 115.386 176.567 114.913 177.387C114.439 178.206 114.166 179.125 114.115 180.069C114.115 181.805 115.337 182.513 116.839 181.645C117.633 181.129 118.294 180.432 118.767 179.612C119.24 178.791 119.513 177.871 119.563 176.925C119.563 175.189 118.341 174.488 116.839 175.356Z" fill="#EA3E3E"/>
<path opacity="0.7" d="M36.018 97.0111C35.5005 97.8809 35.2048 98.8644 35.1567 99.8752V218.831L29.749 215.68V96.7574C29.7841 95.7433 30.0782 94.7549 30.6036 93.8867L36.018 97.0111Z" fill="black"/>
<path opacity="0.3" d="M198.496 5.0868C198.289 3.59134 197.081 3.08395 195.619 3.89177L38.0608 94.8547C37.2066 95.389 36.5015 96.1308 36.0112 97.0111L30.5635 93.8666C31.057 92.9866 31.7641 92.245 32.6197 91.7102L190.178 0.753962C191.041 0.295097 192.001 0.0462912 192.979 0.0277319C193.957 0.00917257 194.925 0.221382 195.806 0.647143C196.546 1.15143 197.169 1.80877 197.633 2.5747C198.097 3.34064 198.392 4.19731 198.496 5.0868Z" fill="black"/>
<path d="M206.995 20.7757C206.761 20.6583 206.499 20.6068 206.238 20.6268C205.977 20.6468 205.726 20.7375 205.512 20.8892L56.8473 106.772C56.2607 107.16 55.7737 107.68 55.4258 108.292C55.0778 108.903 54.8787 109.587 54.8445 110.29V212.215C54.8237 212.559 54.892 212.903 55.0429 213.213C55.1937 213.523 55.422 213.788 55.7057 213.984C56.0328 214.165 57.782 215.179 58.3027 215.46C58.487 215.554 58.6928 215.597 58.8993 215.585C59.1057 215.573 59.3053 215.507 59.4777 215.393L208.11 129.511C208.696 129.123 209.183 128.602 209.531 127.991C209.879 127.379 210.078 126.695 210.112 125.992V23.5396C210.142 23.2807 210.099 23.0187 209.988 22.7828C209.878 22.5469 209.703 22.3466 209.485 22.2044C209.151 21.9841 207.368 20.996 206.995 20.7757Z" fill="#EA3E3E"/>
<path d="M59.4452 108.214L208.117 22.3647C209.239 21.6971 210.12 22.2446 210.12 23.5397V125.992C210.086 126.695 209.887 127.379 209.539 127.991C209.191 128.602 208.704 129.123 208.117 129.511L59.4452 215.393C58.3236 216.061 57.4424 214.986 57.4424 213.691V111.732C57.4776 111.03 57.6772 110.346 58.0251 109.735C58.3729 109.123 58.8594 108.603 59.4452 108.214Z" fill="#FAFAFA"/>
<path d="M209.025 22.752C209.419 22.752 209.479 23.246 209.479 23.5398V125.992C209.443 126.581 209.27 127.152 208.975 127.662C208.679 128.172 208.269 128.606 207.777 128.93L59.1248 214.812C59.025 214.877 58.9098 214.914 58.791 214.919C58.4171 214.919 58.1234 214.345 58.1234 213.691V111.732C58.1556 111.144 58.3229 110.571 58.6124 110.058C58.9018 109.545 59.3056 109.106 59.7924 108.775L208.451 22.9389C208.623 22.8279 208.821 22.7635 209.025 22.752ZM209.025 22.0844C208.703 22.098 208.39 22.1946 208.117 22.3647L59.4452 108.214C58.8594 108.603 58.3729 109.123 58.0251 109.735C57.6772 110.346 57.4776 111.03 57.4424 111.732V213.691C57.4424 214.719 58.0165 215.587 58.7776 215.587C59.0133 215.582 59.2437 215.515 59.4452 215.393L208.11 129.511C208.697 129.123 209.184 128.602 209.532 127.991C209.88 127.379 210.079 126.695 210.113 125.992V23.5398C210.113 22.6184 209.659 22.0844 208.992 22.0844H209.025Z" fill="#E0E0E0"/>
<path d="M55.6661 213.984C55.8864 214.098 57.4687 214.999 58.163 215.4C57.9137 215.193 57.7162 214.931 57.5864 214.634C57.4565 214.337 57.3979 214.014 57.4153 213.691V118.388L54.8116 116.866V212.215C54.79 212.559 54.8573 212.902 55.007 213.212C55.1567 213.522 55.3837 213.788 55.6661 213.984Z" fill="#F0F0F0"/>
<path d="M210.147 23.5198C210.147 22.2379 209.232 21.7172 208.144 22.3648L59.4452 108.214C58.8594 108.603 58.3729 109.123 58.0251 109.735C57.6772 110.346 57.4776 111.03 57.4424 111.732V118.408L210.147 30.1959V23.5198Z" fill="#EA3E3E"/>
<g opacity="0.4">
<path opacity="0.4" d="M208.117 22.3648L59.445 108.207C58.8483 108.583 58.3568 109.105 58.0163 109.723L55.4326 108.22C55.7725 107.624 56.2599 107.125 56.848 106.772L205.513 20.8893C205.726 20.7366 205.976 20.6447 206.237 20.6235C206.499 20.6023 206.761 20.6527 206.995 20.7692C207.356 20.9962 209.045 21.9509 209.479 22.1845C209.254 22.1013 209.013 22.0742 208.775 22.1056C208.538 22.137 208.312 22.226 208.117 22.3648Z" fill="white"/>
</g>
<path opacity="0.15" d="M54.8115 116.873V110.257C54.839 109.536 55.0529 108.834 55.4324 108.22L58.0228 109.716C57.6487 110.319 57.4392 111.009 57.4152 111.719V118.395L54.8115 116.873Z" fill="black"/>
<path d="M178.795 100.376L89.7544 151.783C89.3214 152.063 88.9609 152.443 88.7022 152.889C88.4435 153.336 88.2939 153.837 88.2656 154.353V179.883C88.2939 180.398 88.4435 180.899 88.7022 181.346C88.9609 181.793 89.3214 182.172 89.7544 182.453L92.3515 183.948C92.813 184.182 93.323 184.303 93.8402 184.303C94.3575 184.303 94.8675 184.182 95.329 183.948L184.356 132.542C184.789 132.259 185.15 131.879 185.408 131.431C185.667 130.983 185.816 130.481 185.845 129.965V104.428C185.816 103.913 185.667 103.412 185.408 102.965C185.149 102.518 184.789 102.139 184.356 101.858L181.752 100.363C181.293 100.133 180.786 100.014 180.272 100.017C179.758 100.019 179.252 100.142 178.795 100.376Z" fill="#EA3E3E"/>
<path opacity="0.5" d="M185.844 104.201C185.738 103.434 185.117 103.153 184.369 103.587L95.3288 154.994C94.8897 155.267 94.5286 155.648 94.2807 156.102L88.7061 152.884C88.9559 152.438 89.3141 152.061 89.7475 151.789L178.794 100.383C179.255 100.149 179.764 100.027 180.28 100.027C180.796 100.027 181.305 100.149 181.765 100.383L184.369 101.878C184.766 102.138 185.103 102.48 185.357 102.881C185.612 103.281 185.778 103.731 185.844 104.201Z" fill="white"/>
<path d="M95.0753 184.075C94.6394 184.247 94.1721 184.325 93.7039 184.304C93.2358 184.284 92.7772 184.165 92.3581 183.955L89.7544 182.459C89.3222 182.178 88.9622 181.798 88.7036 181.352C88.445 180.905 88.2949 180.404 88.2656 179.889V154.359C88.2857 153.838 88.4373 153.331 88.7063 152.884L94.2809 156.102C94.01 156.543 93.8581 157.047 93.8402 157.564V183.1C93.8402 183.948 94.3743 184.342 95.0753 184.075Z" fill="#263238"/>
<path d="M95.3299 154.994L184.37 103.587C185.191 103.113 185.859 103.494 185.859 104.442V129.978C185.831 130.494 185.681 130.997 185.422 131.444C185.164 131.892 184.803 132.273 184.37 132.555L95.3433 183.962C94.5221 184.436 93.8545 184.048 93.8545 183.1V157.571C93.8813 157.056 94.0288 156.554 94.2851 156.106C94.5414 155.659 94.8993 155.278 95.3299 154.994Z" fill="#EA3E3E"/>
<path d="M155.188 114.009L89.7612 151.789C89.3277 152.061 88.9696 152.438 88.7197 152.884L94.2943 156.102C94.5423 155.648 94.9034 155.267 95.3425 154.994L160.769 117.22L155.188 114.009Z" fill="#455A64"/>
<path d="M160.756 117.22L95.3296 154.994C94.8965 155.276 94.536 155.657 94.2773 156.104C94.0186 156.552 93.8691 157.054 93.8408 157.571V183.094C93.8408 184.042 94.5084 184.429 95.3296 183.955L160.756 146.181V117.22Z" fill="#37474F"/>
<path d="M110.418 151.883L144.179 132.395C145.575 131.587 146.71 132.161 146.71 133.677C146.647 134.528 146.385 135.352 145.944 136.083C145.503 136.814 144.896 137.43 144.173 137.883L110.418 157.377C109.022 158.185 107.881 157.611 107.881 156.095C107.944 155.243 108.206 154.418 108.647 153.686C109.088 152.955 109.694 152.337 110.418 151.883Z" fill="#EA3E3E"/>
<path d="M117.334 158.339C117.341 158.331 117.348 158.326 117.357 158.322C117.366 158.318 117.375 158.316 117.385 158.316C117.394 158.316 117.403 158.318 117.412 158.322C117.421 158.326 117.428 158.331 117.435 158.339C117.464 158.384 117.479 158.438 117.475 158.492V162.291C117.475 162.658 117.444 163.024 117.381 163.386C117.326 163.716 117.232 164.039 117.101 164.347C116.981 164.629 116.824 164.894 116.633 165.135C116.446 165.358 116.22 165.545 115.966 165.689C115.767 165.818 115.535 165.888 115.298 165.889C115.208 165.882 115.119 165.856 115.039 165.814C114.959 165.772 114.888 165.713 114.831 165.642C114.684 165.446 114.588 165.217 114.55 164.975C114.487 164.652 114.458 164.323 114.464 163.993V160.188C114.463 160.121 114.477 160.055 114.504 159.994C114.52 159.939 114.556 159.892 114.604 159.861L115.025 159.614C115.038 159.601 115.056 159.594 115.075 159.594C115.093 159.594 115.111 159.601 115.125 159.614C115.156 159.659 115.17 159.713 115.165 159.767V163.519C115.16 163.726 115.18 163.932 115.225 164.133C115.243 164.262 115.299 164.383 115.385 164.481C115.415 164.516 115.453 164.545 115.496 164.563C115.539 164.582 115.585 164.59 115.632 164.587C115.746 164.58 115.857 164.543 115.952 164.481C116.071 164.41 116.179 164.322 116.273 164.22C116.377 164.1 116.463 163.965 116.527 163.82C116.602 163.648 116.658 163.469 116.694 163.286C116.732 163.065 116.75 162.842 116.747 162.618V158.859C116.749 158.792 116.765 158.726 116.794 158.666C116.81 158.611 116.846 158.563 116.894 158.532L117.334 158.339Z" fill="#FAFAFA"/>
<path d="M119.952 161.93C119.955 161.881 119.943 161.832 119.918 161.79C119.902 161.773 119.883 161.759 119.86 161.751C119.838 161.743 119.815 161.74 119.791 161.743C119.709 161.732 119.626 161.732 119.544 161.743L119.157 161.817C119.032 161.848 118.902 161.848 118.777 161.817C118.679 161.785 118.594 161.722 118.536 161.637C118.471 161.528 118.428 161.408 118.409 161.283C118.344 160.925 118.344 160.559 118.409 160.201C118.459 159.996 118.531 159.797 118.623 159.607C118.714 159.417 118.826 159.238 118.957 159.073C119.083 158.915 119.237 158.782 119.411 158.679C119.551 158.593 119.708 158.539 119.871 158.519C119.99 158.506 120.109 158.532 120.212 158.592C120.31 158.652 120.387 158.741 120.432 158.846C120.486 158.97 120.516 159.104 120.519 159.24C120.526 159.307 120.512 159.375 120.479 159.433C120.463 159.488 120.427 159.536 120.379 159.567L119.978 159.801C119.96 159.811 119.939 159.817 119.918 159.817C119.897 159.817 119.876 159.811 119.858 159.801L119.771 159.734C119.737 159.707 119.695 159.69 119.651 159.687C119.565 159.697 119.483 159.726 119.411 159.774C119.306 159.837 119.213 159.918 119.137 160.014C119.056 160.119 119.014 160.249 119.017 160.381C119.008 160.432 119.008 160.484 119.017 160.535C119.03 160.554 119.047 160.57 119.066 160.581C119.086 160.593 119.108 160.6 119.13 160.602C119.203 160.614 119.278 160.614 119.351 160.602L119.725 160.535C120.038 160.475 120.252 160.535 120.392 160.709C120.54 160.956 120.607 161.243 120.586 161.53C120.584 161.728 120.557 161.926 120.506 162.117C120.453 162.325 120.377 162.527 120.279 162.718C120.181 162.916 120.057 163.1 119.912 163.265C119.773 163.428 119.608 163.565 119.424 163.673C119.277 163.767 119.11 163.824 118.937 163.84C118.811 163.844 118.688 163.809 118.583 163.739C118.48 163.669 118.401 163.569 118.356 163.452C118.302 163.326 118.275 163.189 118.276 163.052C118.27 162.983 118.284 162.913 118.316 162.852C118.332 162.797 118.368 162.749 118.416 162.718L118.817 162.484C118.87 162.484 118.91 162.451 118.937 162.484L119.024 162.578C119.041 162.598 119.063 162.614 119.087 162.625C119.111 162.637 119.137 162.643 119.164 162.645C119.258 162.645 119.349 162.615 119.424 162.558C119.545 162.489 119.653 162.401 119.745 162.297C119.79 162.243 119.828 162.182 119.858 162.117C119.905 162.064 119.938 162 119.952 161.93Z" fill="#FAFAFA"/>
<path d="M121.314 160.121C121.312 159.774 121.342 159.428 121.4 159.086C121.456 158.765 121.543 158.449 121.661 158.145C121.759 157.872 121.894 157.614 122.061 157.377C122.201 157.174 122.384 157.003 122.596 156.876C122.75 156.772 122.939 156.732 123.123 156.763C123.286 156.801 123.429 156.898 123.524 157.037C123.649 157.218 123.738 157.422 123.784 157.637C123.848 157.918 123.879 158.205 123.877 158.492V158.906C123.879 158.976 123.863 159.045 123.831 159.106C123.814 159.161 123.779 159.209 123.73 159.24L121.995 160.248C121.991 160.365 122.006 160.483 122.041 160.595C122.067 160.671 122.113 160.738 122.175 160.789C122.23 160.832 122.299 160.854 122.369 160.849C122.449 160.839 122.527 160.812 122.596 160.769C122.697 160.714 122.787 160.641 122.863 160.555C122.931 160.478 122.989 160.393 123.036 160.301C123.065 160.249 123.096 160.197 123.13 160.148C123.158 160.114 123.192 160.084 123.23 160.061L123.644 159.821C123.658 159.809 123.676 159.803 123.694 159.803C123.712 159.803 123.73 159.809 123.744 159.821C123.761 159.842 123.774 159.866 123.781 159.893C123.788 159.919 123.789 159.947 123.784 159.974C123.777 160.104 123.75 160.233 123.704 160.355C123.646 160.54 123.57 160.719 123.477 160.889C123.372 161.084 123.247 161.268 123.103 161.436C122.959 161.608 122.788 161.755 122.596 161.87C122.438 161.974 122.249 162.018 122.061 161.997C121.897 161.958 121.754 161.857 121.661 161.717C121.529 161.514 121.441 161.287 121.4 161.049C121.34 160.743 121.311 160.433 121.314 160.121ZM122.596 157.991C122.493 158.047 122.404 158.124 122.335 158.218C122.261 158.312 122.2 158.415 122.155 158.525C122.108 158.636 122.07 158.75 122.041 158.866C122.018 158.971 122.002 159.079 121.995 159.186L123.17 158.519C123.163 158.427 123.149 158.335 123.13 158.245C123.119 158.164 123.087 158.088 123.036 158.025C123.016 157.996 122.99 157.971 122.961 157.953C122.931 157.935 122.897 157.923 122.863 157.918C122.768 157.91 122.673 157.936 122.596 157.991Z" fill="#FAFAFA"/>
<path d="M125.973 156.129C125.771 156.244 125.612 156.422 125.519 156.636C125.415 156.918 125.368 157.217 125.379 157.517V159.927C125.38 159.996 125.366 160.065 125.339 160.128C125.323 160.183 125.287 160.23 125.239 160.261L124.845 160.488C124.839 160.495 124.831 160.501 124.822 160.505C124.814 160.509 124.804 160.511 124.795 160.511C124.785 160.511 124.776 160.509 124.767 160.505C124.759 160.501 124.751 160.495 124.745 160.488C124.715 160.443 124.701 160.389 124.705 160.335V156.015C124.705 155.946 124.719 155.878 124.745 155.815C124.763 155.761 124.798 155.714 124.845 155.681L125.239 155.454C125.252 155.442 125.27 155.435 125.289 155.435C125.307 155.435 125.325 155.442 125.339 155.454C125.37 155.497 125.384 155.549 125.379 155.601V155.815C125.459 155.636 125.557 155.466 125.673 155.307C125.778 155.161 125.915 155.04 126.073 154.954L126.314 154.813C126.326 154.801 126.343 154.794 126.36 154.794C126.378 154.794 126.395 154.801 126.407 154.813C126.439 154.858 126.456 154.912 126.454 154.967V155.575C126.453 155.644 126.437 155.712 126.407 155.775C126.39 155.828 126.358 155.874 126.314 155.908L125.973 156.129Z" fill="#FAFAFA"/>
<path d="M130.953 155.808C130.96 155.801 130.967 155.795 130.976 155.791C130.985 155.788 130.994 155.786 131.003 155.786C131.013 155.786 131.022 155.788 131.031 155.791C131.04 155.795 131.047 155.801 131.054 155.808C131.083 155.854 131.097 155.908 131.094 155.962V156.629C131.093 156.698 131.08 156.766 131.054 156.83C131.031 156.879 130.996 156.923 130.953 156.957L128.67 158.292C128.657 158.304 128.639 158.311 128.62 158.311C128.601 158.311 128.584 158.304 128.57 158.292C128.54 158.249 128.526 158.197 128.53 158.145V152.136C128.53 152.068 128.544 152 128.57 151.936C128.589 151.884 128.624 151.839 128.67 151.809L129.091 151.562C129.104 151.549 129.122 151.542 129.141 151.542C129.159 151.542 129.177 151.549 129.191 151.562C129.221 151.605 129.235 151.657 129.231 151.709V156.79L130.953 155.808Z" fill="#FAFAFA"/>
<path d="M133.003 150.868C133.153 150.764 133.335 150.714 133.517 150.728C133.673 150.74 133.819 150.812 133.924 150.928C134.049 151.071 134.14 151.24 134.191 151.422C134.263 151.658 134.303 151.903 134.311 152.15C134.311 152.203 134.311 152.277 134.311 152.363V152.877C134.311 152.957 134.311 153.031 134.311 153.091C134.298 153.381 134.258 153.67 134.191 153.952C134.129 154.228 134.04 154.496 133.924 154.753C133.818 154.993 133.681 155.217 133.517 155.421C133.376 155.606 133.202 155.762 133.003 155.882C132.848 155.982 132.666 156.031 132.482 156.022C132.328 156.009 132.185 155.937 132.082 155.822C131.954 155.684 131.862 155.516 131.815 155.334C131.743 155.098 131.703 154.853 131.694 154.607C131.694 154.553 131.694 154.486 131.694 154.4V153.885C131.694 153.799 131.694 153.725 131.694 153.672C131.702 153.379 131.74 153.089 131.808 152.804C131.873 152.526 131.964 152.256 132.082 151.996C132.188 151.758 132.322 151.534 132.482 151.329C132.624 151.142 132.801 150.986 133.003 150.868ZM133.63 152.59C133.63 152.443 133.605 152.296 133.557 152.156C133.532 152.071 133.481 151.996 133.41 151.943C133.353 151.905 133.285 151.888 133.217 151.896C133.14 151.91 133.068 151.94 133.003 151.983C132.924 152.026 132.852 152.08 132.789 152.143C132.713 152.223 132.648 152.312 132.596 152.41C132.529 152.531 132.479 152.662 132.449 152.797C132.405 152.968 132.378 153.142 132.369 153.318C132.369 153.371 132.369 153.431 132.369 153.505V153.979C132.369 154.052 132.369 154.112 132.369 154.153C132.375 154.3 132.402 154.446 132.449 154.586C132.473 154.672 132.525 154.747 132.596 154.8C132.623 154.82 132.655 154.833 132.688 154.84C132.722 154.847 132.756 154.847 132.789 154.84C132.865 154.827 132.937 154.8 133.003 154.76C133.08 154.715 133.152 154.662 133.217 154.6C133.291 154.518 133.356 154.429 133.41 154.333C133.474 154.21 133.524 154.08 133.557 153.946C133.601 153.775 133.625 153.601 133.63 153.425C133.634 153.363 133.634 153.3 133.63 153.238V152.771C133.634 152.711 133.634 152.65 133.63 152.59Z" fill="#FAFAFA"/>
<path d="M136.355 154.773C136.44 154.721 136.517 154.656 136.582 154.58C136.662 154.486 136.731 154.383 136.789 154.273C136.855 154.138 136.906 153.997 136.942 153.852C136.983 153.688 137.003 153.52 137.002 153.351V153.011C137.002 153.078 136.935 153.158 136.889 153.251C136.843 153.349 136.789 153.443 136.728 153.532C136.659 153.626 136.583 153.715 136.501 153.799C136.418 153.887 136.321 153.961 136.214 154.019C136.146 154.066 136.068 154.098 135.987 154.114C135.905 154.13 135.822 154.13 135.74 154.112C135.592 154.066 135.465 153.969 135.38 153.839C135.271 153.666 135.192 153.477 135.146 153.278C135.089 153.026 135.058 152.769 135.053 152.51C135.053 152.423 135.053 152.317 135.053 152.19C135.053 152.063 135.053 151.956 135.053 151.863C135.061 151.569 135.092 151.277 135.146 150.988C135.201 150.704 135.279 150.425 135.38 150.153C135.474 149.918 135.595 149.694 135.74 149.486C135.863 149.302 136.025 149.147 136.214 149.032C136.303 148.979 136.4 148.94 136.501 148.918C136.576 148.904 136.653 148.904 136.728 148.918C136.788 148.935 136.842 148.965 136.889 149.005C136.931 149.038 136.97 149.076 137.002 149.119V148.905C137.003 148.836 137.016 148.768 137.042 148.705C137.061 148.653 137.096 148.608 137.142 148.578L137.536 148.344C137.55 148.332 137.568 148.325 137.586 148.325C137.605 148.325 137.623 148.332 137.636 148.344C137.669 148.389 137.685 148.443 137.683 148.498V152.837C137.701 153.487 137.581 154.134 137.329 154.733C137.132 155.205 136.791 155.602 136.355 155.868C136.206 155.961 136.036 156.014 135.861 156.022C135.722 156.03 135.584 155.995 135.467 155.922C135.354 155.837 135.262 155.727 135.2 155.601C135.135 155.449 135.098 155.286 135.093 155.121C135.087 155.051 135.1 154.982 135.133 154.92C135.149 154.865 135.185 154.818 135.233 154.787L135.587 154.586C135.595 154.578 135.605 154.571 135.616 154.566C135.627 154.561 135.638 154.559 135.65 154.559C135.662 154.559 135.674 154.561 135.685 154.566C135.696 154.571 135.706 154.578 135.714 154.586C135.747 154.621 135.776 154.659 135.8 154.7C135.841 154.772 135.908 154.824 135.987 154.847C136.068 154.907 136.188 154.84 136.355 154.773ZM135.727 151.535C135.727 151.713 135.727 151.887 135.727 152.056C135.708 152.323 135.784 152.588 135.941 152.804C136 152.855 136.076 152.883 136.154 152.883C136.233 152.883 136.309 152.855 136.368 152.804C136.562 152.678 136.713 152.496 136.802 152.283C136.923 152.005 136.991 151.706 137.002 151.402C137.002 151.302 137.002 151.182 137.002 151.041C137.002 150.901 137.002 150.781 137.002 150.694C137.016 150.455 136.945 150.219 136.802 150.027C136.743 149.972 136.665 149.942 136.585 149.942C136.505 149.942 136.427 149.972 136.368 150.027C136.178 150.152 136.029 150.331 135.941 150.541C135.804 150.855 135.731 151.193 135.727 151.535Z" fill="#FAFAFA"/>
<path d="M139.239 145.607C139.252 145.596 139.268 145.59 139.285 145.59C139.303 145.59 139.319 145.596 139.332 145.607C139.367 145.65 139.384 145.705 139.379 145.761V146.488C139.379 146.558 139.363 146.626 139.332 146.689C139.313 146.739 139.281 146.783 139.239 146.815L138.791 147.076C138.785 147.083 138.777 147.089 138.769 147.092C138.76 147.096 138.751 147.098 138.741 147.098C138.732 147.098 138.723 147.096 138.714 147.092C138.705 147.089 138.698 147.083 138.691 147.076C138.674 147.056 138.661 147.032 138.653 147.007C138.645 146.982 138.642 146.955 138.645 146.929V146.201C138.644 146.132 138.66 146.063 138.691 146.001C138.71 145.949 138.745 145.904 138.791 145.874L139.239 145.607ZM139.352 151.876C139.352 151.943 139.339 152.008 139.312 152.07C139.291 152.122 139.256 152.168 139.212 152.203L138.811 152.43C138.806 152.437 138.799 152.443 138.791 152.447C138.783 152.45 138.774 152.452 138.765 152.452C138.756 152.452 138.747 152.45 138.739 152.447C138.731 152.443 138.724 152.437 138.718 152.43C138.683 152.387 138.666 152.332 138.671 152.277V147.957C138.671 147.888 138.687 147.819 138.718 147.757C138.737 147.705 138.769 147.659 138.811 147.623L139.212 147.396C139.226 147.384 139.244 147.376 139.262 147.376C139.281 147.376 139.299 147.384 139.312 147.396C139.342 147.439 139.356 147.491 139.352 147.543V151.876Z" fill="#FAFAFA"/>
<path d="M142.863 149.84C142.863 149.908 142.849 149.976 142.823 150.04C142.804 150.092 142.769 150.137 142.723 150.167L142.322 150.4C142.31 150.413 142.293 150.42 142.276 150.42C142.258 150.42 142.241 150.413 142.229 150.4C142.194 150.357 142.177 150.302 142.182 150.247V147.897C142.203 147.62 142.152 147.342 142.035 147.089C141.942 146.922 141.795 146.895 141.588 147.016C141.381 147.154 141.228 147.359 141.154 147.596C141.042 147.911 140.988 148.244 140.994 148.578V150.935C140.993 151.003 140.98 151.071 140.954 151.135C140.937 151.19 140.902 151.237 140.853 151.268L140.46 151.495C140.453 151.502 140.446 151.508 140.437 151.512C140.428 151.516 140.419 151.518 140.41 151.518C140.4 151.518 140.391 151.516 140.382 151.512C140.373 151.508 140.366 151.502 140.359 151.495C140.329 151.453 140.314 151.401 140.319 151.349V147.029C140.318 146.96 140.332 146.892 140.359 146.829C140.376 146.774 140.411 146.726 140.46 146.695L140.853 146.468C140.86 146.461 140.867 146.455 140.876 146.452C140.885 146.448 140.894 146.446 140.904 146.446C140.913 146.446 140.922 146.448 140.931 146.452C140.94 146.455 140.947 146.461 140.954 146.468C140.984 146.514 140.998 146.568 140.994 146.622V146.829C141.082 146.625 141.189 146.431 141.314 146.248C141.424 146.079 141.573 145.94 141.748 145.841C141.9 145.73 142.089 145.682 142.276 145.707C142.349 145.726 142.419 145.76 142.478 145.807C142.538 145.854 142.587 145.913 142.623 145.981C142.72 146.162 142.783 146.358 142.81 146.562C142.845 146.827 142.863 147.095 142.863 147.363V149.84Z" fill="#FAFAFA"/>
<path d="M176.539 130.405L170.056 134.144L171.064 125.051C170.283 124.637 169.789 123.629 169.789 122.18C169.789 119.597 171.365 116.599 173.301 115.504C175.237 114.409 176.806 115.571 176.806 118.175C176.766 119.707 176.329 121.202 175.537 122.514L176.539 130.405Z" fill="#455A64"/>
<path d="M176.545 130.405L170.837 127.114L170.056 134.151L176.545 130.405Z" fill="#37474F"/>
<path d="M173.287 115.484C171.875 116.438 170.822 117.836 170.296 119.456L175.523 122.474C176.315 121.162 176.752 119.666 176.792 118.135C176.805 115.551 175.236 114.369 173.287 115.484Z" fill="#37474F"/>
<path d="M141.775 85.2076C139.552 83.9258 136.488 84.1061 133.096 86.0622C126.327 89.9744 120.839 99.4746 120.839 107.292C120.839 111.218 122.228 113.969 124.457 115.237L128.777 117.747C130.993 119.029 134.058 118.842 137.456 116.886C144.226 112.981 149.713 103.474 149.713 95.6559C149.713 91.7503 148.338 88.9797 146.122 87.7312" fill="#EA3E3E"/>
<path d="M137.449 88.5791C130.679 92.4913 125.191 101.998 125.191 109.809C125.191 117.62 130.679 120.798 137.449 116.886C144.219 112.974 149.713 103.474 149.706 95.6559C149.7 87.8381 144.212 84.6735 137.449 88.5791Z" fill="#EA3E3E"/>
<path d="M144.212 105.924V106.818C142.591 109.713 140.264 112.152 137.449 113.909C134.812 115.424 132.429 115.591 130.68 114.623V112.78C130.769 110.863 131.317 108.995 132.276 107.333C133.235 105.671 134.579 104.263 136.194 103.227L137.977 102.199C139.552 101.291 141.088 101.17 142.29 101.871C143.491 102.572 144.212 104.048 144.212 105.924Z" fill="#EA3E3E"/>
<path opacity="0.4" d="M141.775 85.2076L146.115 87.7312C143.898 86.4427 140.834 86.623 137.436 88.5791C133.003 91.1427 129.117 96.1031 126.967 101.417L122.621 98.9005C124.777 93.5595 128.63 88.6258 133.089 86.0622C136.494 84.1127 139.559 83.9258 141.775 85.2076Z" fill="white"/>
<path opacity="0.2" d="M128.623 117.647L124.464 115.237C122.234 113.969 120.846 111.231 120.846 107.292L125.192 109.816C125.219 113.621 126.5 116.332 128.623 117.647Z" fill="black"/>
<path opacity="0.1" d="M122.635 98.9005L126.981 101.417C125.867 104.078 125.269 106.926 125.218 109.809L120.872 107.286C120.926 104.405 121.524 101.559 122.635 98.9005Z" fill="black"/>
<path d="M135.901 101.778C135.486 101.782 135.079 101.676 134.719 101.471C134.286 101.182 133.938 100.781 133.714 100.311C133.489 99.841 133.396 99.319 133.444 98.8003C133.5 97.5839 133.848 96.3988 134.456 95.3442C135.065 94.2895 135.917 93.396 136.942 92.7383C137.354 92.4097 137.855 92.2129 138.38 92.1738C138.906 92.1346 139.431 92.2549 139.886 92.5189C140.342 92.7829 140.708 93.1783 140.935 93.6534C141.163 94.1285 141.242 94.6612 141.161 95.1818C141.104 96.3979 140.756 97.5826 140.148 98.6371C139.539 99.6916 138.687 100.585 137.663 101.244C137.133 101.575 136.525 101.759 135.901 101.778Z" fill="white"/>
<path d="M142.29 101.865C141.088 101.164 139.552 101.284 137.977 102.192L136.194 103.22C134.578 104.257 133.234 105.666 132.275 107.33C131.315 108.993 130.768 110.862 130.68 112.78V114.63C132.429 115.598 134.812 115.431 137.449 113.915C140.264 112.159 142.591 109.72 144.212 106.825V105.931C144.212 104.048 143.518 102.572 142.29 101.865Z" fill="white"/>
<path d="M279.538 217.363C279.538 217.363 280.426 209.565 284.305 203.509C288.184 197.454 293.511 193.682 298.485 193.288C303.459 192.894 307.478 197.474 302.157 200.632C296.836 203.79 287.383 206.981 283.03 218.731L279.538 217.363Z" fill="#EA3E3E"/>
<path opacity="0.1" d="M279.538 217.363C279.538 217.363 280.426 209.565 284.305 203.509C288.184 197.454 293.511 193.682 298.485 193.288C303.459 192.894 307.478 197.474 302.157 200.632C296.836 203.79 287.383 206.981 283.03 218.731L279.538 217.363Z" fill="black"/>
<path d="M281 215.333H280.947C280.881 215.306 280.829 215.255 280.801 215.19C280.774 215.125 280.773 215.051 280.8 214.986C286.047 202.067 296.035 196.666 300.588 195.625C300.622 195.617 300.657 195.616 300.692 195.622C300.727 195.628 300.76 195.64 300.79 195.659C300.819 195.677 300.845 195.702 300.865 195.73C300.886 195.759 300.9 195.791 300.908 195.825C300.916 195.859 300.917 195.895 300.911 195.929C300.906 195.964 300.893 195.997 300.875 196.027C300.856 196.057 300.832 196.082 300.803 196.103C300.775 196.123 300.742 196.138 300.708 196.146C296.248 197.174 286.454 202.475 281.294 215.193C281.268 215.246 281.225 215.289 281.171 215.314C281.118 215.34 281.058 215.346 281 215.333Z" fill="white"/>
<path d="M307.557 215.487C307.11 216.501 306.002 217.035 304.974 217.449C303.946 217.863 302.824 218.311 302.263 219.272C301.142 221.208 302.984 223.945 301.783 225.821C301.5 226.199 301.143 226.515 300.735 226.752C300.326 226.988 299.874 227.139 299.406 227.197C298.638 227.337 297.857 227.337 297.083 227.404C296.712 227.399 296.341 227.37 295.974 227.317C294.895 227.076 293.767 227.196 292.763 227.657C291.221 228.525 290.76 230.468 289.812 231.97C289.233 232.854 288.47 233.603 287.574 234.166C286.679 234.728 285.673 235.09 284.625 235.228C283.957 235.315 282.622 235.442 281.954 235.048C281.902 235.022 281.853 234.991 281.807 234.954C281.707 234.847 281.587 234.707 281.534 234.634C281.53 234.618 281.53 234.602 281.534 234.587C281.26 233.579 281.707 232.537 281.727 231.496V231.309C281.681 230.101 281.647 228.899 281.621 227.697C281.563 225.472 281.54 223.246 281.554 221.021C281.554 219.579 281.394 218.003 282.008 216.648C282.675 215.153 284.358 215.119 284.992 213.657C285.246 213.07 285.379 212.449 285.626 211.855C286.008 210.991 286.619 210.248 287.394 209.708C288.169 209.168 289.077 208.85 290.019 208.79C292.95 208.643 295.574 211.013 298.505 210.793C299.259 210.733 300 210.499 300.748 210.366C303.118 209.919 305.862 210.593 307.197 212.602C307.49 213.016 307.676 213.496 307.739 213.999C307.802 214.502 307.74 215.013 307.557 215.487Z" fill="#EA3E3E"/>
<path d="M281.24 229.96C281.177 229.942 281.124 229.899 281.091 229.842C281.059 229.785 281.05 229.717 281.067 229.653C285.113 214.472 301.095 212.295 304.854 212.549C304.887 212.551 304.919 212.559 304.949 212.573C304.979 212.588 305.006 212.608 305.027 212.633C305.049 212.658 305.066 212.687 305.076 212.718C305.086 212.75 305.09 212.783 305.088 212.816C305.081 212.881 305.049 212.941 305 212.983C304.95 213.025 304.886 213.047 304.821 213.043C301.155 212.783 285.506 214.926 281.547 229.787C281.529 229.85 281.486 229.903 281.429 229.936C281.372 229.968 281.304 229.977 281.24 229.96Z" fill="white"/>
<path d="M299.019 222.27C298.969 222.262 298.922 222.239 298.886 222.203C297.408 220.922 295.666 219.984 293.784 219.454C291.902 218.924 289.926 218.816 287.997 219.138C287.932 219.144 287.867 219.126 287.815 219.086C287.763 219.047 287.728 218.989 287.717 218.925C287.707 218.859 287.723 218.793 287.762 218.739C287.8 218.686 287.858 218.649 287.924 218.638C289.935 218.303 291.996 218.417 293.958 218.972C295.92 219.528 297.735 220.51 299.273 221.849C299.297 221.872 299.315 221.899 299.328 221.93C299.341 221.96 299.348 221.993 299.348 222.026C299.348 222.059 299.341 222.091 299.328 222.122C299.315 222.152 299.297 222.18 299.273 222.203C299.243 222.239 299.202 222.265 299.157 222.277C299.111 222.288 299.063 222.286 299.019 222.27Z" fill="white"/>
<path d="M242.799 34.0013L244.922 34.8158V30.1425C244.922 26.4306 247.88 25.5426 251.091 27.3986C254.309 29.2546 256.913 33.761 256.913 37.473V38.1406C257.36 38.0038 257.833 37.97 258.295 38.0417C258.758 38.1134 259.198 38.2887 259.583 38.5545C260.803 39.3496 261.817 40.4212 262.545 41.6821C263.272 42.9431 263.692 44.3579 263.769 45.8115V46.1186L266.734 47.8277C267.535 48.3512 268.203 49.0561 268.682 49.8853C269.161 50.7146 269.438 51.645 269.491 52.6012C269.491 54.3637 268.256 55.078 266.734 54.1968L242.799 40.3704C241.997 39.8482 241.329 39.1434 240.851 38.3138C240.373 37.4842 240.098 36.5532 240.049 35.5969C240.049 33.8411 241.271 33.1268 242.799 34.0013Z" fill="#E6E6E6"/>
<path d="M271.233 30.3028L275.085 32.526C275.064 32.3576 275.053 32.1882 275.052 32.0186V30.9036C275.052 28.9008 276.44 28.113 278.163 29.1077C278.903 29.5609 279.536 30.169 280.019 30.8903C280.299 28.3934 282.262 27.4654 284.639 28.834C285.997 29.7178 287.128 30.9091 287.94 32.3114C288.752 33.7137 289.222 35.2876 289.312 36.9055V38.5746C289.329 39.2414 289.195 39.9035 288.918 40.5107L292.123 42.3533C292.622 42.6845 293.037 43.1282 293.334 43.6488C293.631 44.1694 293.801 44.7524 293.832 45.3509C293.832 46.4525 293.057 46.8998 292.103 46.3523L271.233 34.3352C270.728 34.0063 270.308 33.5627 270.008 33.0406C269.707 32.5184 269.535 31.9326 269.504 31.3309C269.504 30.2026 270.278 29.7553 271.233 30.3028Z" fill="#E6E6E6"/>
<path d="M256.319 131.627C253.515 136.367 250.818 140.486 248.922 142.462C245.323 144.132 236.871 146.709 233.567 147.136C232.986 147.21 232.398 147.072 231.911 146.749C230.609 145.894 229.601 145.754 228.232 145.28C227.158 144.913 226.704 144.399 226.503 144.612C226.296 144.855 226.192 145.168 226.214 145.487C226.235 145.805 226.38 146.102 226.617 146.315C227.13 146.803 227.699 147.228 228.313 147.583C226.847 147.947 225.317 147.974 223.839 147.663C220.975 146.909 219.627 148.284 221.563 151.395C222.231 152.503 224.981 154.286 230.509 153.805C232.481 153.699 234.445 153.476 236.391 153.138C241.692 152.003 247.587 150.908 251.212 149.8C252.56 149.269 253.767 148.433 254.737 147.356C260.832 140.406 262.855 135.453 265.526 130.953L265.299 123.609C260.972 123.462 258.662 127.661 256.319 131.627Z" fill="#FFA8A7"/>
<path d="M266.039 123.462C264.784 123.286 263.506 123.456 262.341 123.953C261.176 124.451 260.169 125.258 259.429 126.286C256.465 130.085 251.218 139.205 251.218 139.205C251.218 139.205 252.934 143.778 257.567 144.545L265.011 134.491C265.011 134.491 268.536 127.508 266.039 123.462Z" fill="#455A64"/>
<path d="M282.136 225.968H277.282V234.62H282.136V225.968Z" fill="#FFA8A7"/>
<path d="M265.312 225.507L260.465 225.681L260.218 216.521L265.312 216.348V225.507Z" fill="#FFA8A7"/>
<path d="M282.817 151.068C282.817 155.888 282.109 194.724 282.109 194.724C282.216 196.112 283.444 198.676 283.197 204.01C282.83 211.254 282.343 230.294 282.343 230.294C281.509 230.721 280.59 230.952 279.654 230.97C278.719 230.989 277.791 230.794 276.941 230.401C276.941 230.401 273.003 203.696 272.135 196.546C271.374 190.277 269.424 169.528 269.424 169.528L266.8 194.056C267.357 196.688 267.559 199.382 267.401 202.067C267.174 205.405 265.612 222.683 265.612 222.683C264.773 223.178 263.833 223.475 262.863 223.553C261.892 223.63 260.917 223.486 260.011 223.131C260.011 223.131 257.247 197.094 257.193 194.036C257.127 190.564 258.809 151.028 258.809 151.028L282.817 151.068Z" fill="#37474F"/>
<path d="M277.282 232.124V231.403C276.814 231.609 275.74 235.896 273.81 237.725C272.281 239.18 270.198 240.856 269.664 242.478C269.13 244.101 272.568 245.095 274.004 244.835C275.659 244.528 278.544 243.306 279.265 242.165C279.986 241.023 280.326 239.367 280.914 238.539C281.501 237.712 282.856 236.79 283.17 235.829C283.268 234.929 283.175 234.019 282.896 233.158C282.669 232.264 282.429 231.282 282.135 231.369V231.917C281.451 232.478 280.591 232.781 279.705 232.771C278.998 232.831 277.275 232.684 277.282 232.124Z" fill="#263238"/>
<path d="M260.411 224.119C260.157 224.119 259.95 224.499 259.396 225.127C258.572 225.994 257.608 226.716 256.545 227.263C254.729 228.211 251.204 229.667 249.595 230.421C248.594 230.888 248.641 232.144 249.675 232.858C250.71 233.572 253.2 234.086 256.191 233.392C257.82 233.011 259.943 231.443 261.292 231.529C262.641 231.616 265.144 231.589 266.139 230.862C267.134 230.134 266.733 228.625 266.453 227.323C266.146 225.895 265.785 223.671 265.311 223.772V224.272C264.73 225.194 261.719 225.568 260.437 224.893L260.411 224.119Z" fill="#263238"/>
<path d="M269.423 169.528C266.899 168.701 264.59 167.321 262.667 165.489C262.667 165.489 264.002 168.032 267.848 170.402L267.02 192.307L269.423 169.528Z" fill="#263238"/>
<path d="M280.105 124.17C280.105 124.17 284.111 125.091 283.824 132.328L282.99 143.844V161.136C279.424 165.182 263.629 164.888 258.188 160.815C258.188 160.815 258.802 140.353 259.169 132.475C259.429 126.88 260.718 124.063 266.219 123.449L272.982 123.742L280.105 124.17Z" fill="#EA3E3E"/>
<path d="M275.005 109.135C275.028 110.104 274.859 111.068 274.508 111.971C274.157 112.874 273.63 113.699 272.959 114.398C272.287 115.097 271.484 115.656 270.596 116.043C269.707 116.43 268.751 116.637 267.782 116.652C263.776 116.652 261.426 113.194 260.558 109.135C258.956 101.704 263.789 101.611 267.782 101.611C269.737 101.651 271.597 102.467 272.951 103.877C274.306 105.288 275.045 107.179 275.005 109.135Z" fill="#263238"/>
<path d="M278.691 112.173C278.691 112.173 277.582 117.594 277.135 118.488C276.854 119.027 276.375 119.436 275.8 119.63L275.88 115.818L278.691 112.173Z" fill="#263238"/>
<path d="M277.295 104.408C277.295 104.408 278.089 104.208 278.937 105.53C279.658 106.658 279.825 109.195 278.69 112.206L276.601 112.46L277.295 104.408Z" fill="#263238"/>
<path d="M278.062 105.51L280.626 105.557C280.644 105.391 280.627 105.223 280.576 105.065C280.526 104.906 280.444 104.759 280.334 104.634C280.224 104.508 280.09 104.407 279.939 104.336C279.788 104.265 279.624 104.226 279.458 104.221C279.107 104.226 278.771 104.361 278.514 104.599C278.256 104.836 278.095 105.161 278.062 105.51Z" fill="#263238"/>
<path d="M278.376 104.902L280.272 103.08C280.163 102.951 280.028 102.846 279.877 102.772C279.725 102.698 279.559 102.656 279.391 102.649C279.222 102.642 279.053 102.671 278.896 102.732C278.739 102.793 278.596 102.887 278.477 103.006C278.225 103.252 278.075 103.584 278.057 103.935C278.038 104.286 278.152 104.631 278.376 104.902Z" fill="#263238"/>
<path d="M275.973 112.426C276.394 112.687 276.988 111.852 277.509 111.285C278.029 110.717 279.645 110.197 280.486 112.039C281.327 113.882 279.892 115.704 278.69 116.305C276.534 117.373 275.853 115.818 275.853 115.818L275.673 124.403C272.642 129.077 265.765 128.93 268.242 124.176V121.566C267.223 121.735 266.189 121.789 265.158 121.726C263.475 121.459 262.421 120.077 261.906 118.181C261.092 115.137 260.778 112.68 261.473 106.692C262.234 100.136 269.564 100.062 273.49 102.686C277.415 105.31 275.973 112.426 275.973 112.426Z" fill="#FFA8A7"/>
<path d="M266.84 105.67C268.589 105.497 270.318 105.136 272.074 105.002C272.453 104.957 272.837 104.975 273.209 105.056C274.544 105.423 274.384 106.985 274.598 108.074C274.965 109.956 275.265 113.141 275.973 113.154C276.187 113.154 276.988 111.772 277.509 111.278C277.795 110.852 277.957 110.355 277.976 109.843C278.11 109.068 278.176 108.274 278.236 107.486C278.29 106.818 278.357 106.151 278.357 105.483C278.387 104.729 278.327 103.973 278.176 103.233C278.009 102.604 277.688 102.026 277.242 101.551L277.108 101.404C276.228 100.484 275.16 99.7644 273.977 99.2944C272.275 98.6566 270.489 98.2676 268.676 98.1394C266.865 98.0111 265.063 97.7883 263.275 97.4718C263.173 97.4419 263.064 97.4419 262.961 97.4718C262.889 97.5119 262.828 97.5696 262.783 97.6396C262.739 97.7096 262.713 97.7896 262.708 97.8723C262.634 98.2872 262.68 98.7143 262.84 99.1042C262.999 99.4941 263.266 99.8309 263.609 100.075C262.401 100.169 261.012 99.5414 259.85 99.2209C259.756 99.1811 259.655 99.1605 259.553 99.1605C259.451 99.1605 259.35 99.1811 259.256 99.2209C259.139 99.3024 259.056 99.4234 259.022 99.5614C258.938 99.8751 258.926 100.204 258.989 100.523C259.095 101.489 259.455 102.41 260.03 103.193C260.93 104.365 262.201 105.196 263.636 105.55C264.691 105.753 265.772 105.794 266.84 105.67Z" fill="#263238"/>
<path d="M268.249 121.566C268.249 121.566 272.001 120.778 273.31 120.051C274.089 119.624 274.722 118.973 275.125 118.181C274.928 118.976 274.577 119.725 274.091 120.384C273.136 121.666 268.249 122.601 268.249 122.601V121.566Z" fill="#F28F8F"/>
<path d="M269.15 111.445C269.143 111.651 269.217 111.852 269.357 112.003C269.497 112.154 269.692 112.244 269.898 112.253C270.061 112.266 270.225 112.23 270.368 112.149C270.51 112.067 270.625 111.945 270.697 111.798C270.769 111.65 270.794 111.484 270.77 111.322C270.746 111.159 270.674 111.008 270.562 110.888C270.451 110.767 270.305 110.683 270.145 110.647C269.985 110.61 269.818 110.623 269.665 110.683C269.513 110.744 269.382 110.849 269.29 110.984C269.198 111.12 269.149 111.281 269.15 111.445Z" fill="#263238"/>
<path d="M270.352 108.207L271.961 109.135C272.078 108.906 272.104 108.642 272.035 108.394C271.966 108.147 271.806 107.935 271.587 107.8C271.48 107.74 271.362 107.703 271.24 107.691C271.118 107.679 270.996 107.693 270.879 107.731C270.763 107.77 270.656 107.832 270.565 107.914C270.475 107.996 270.402 108.095 270.352 108.207Z" fill="#263238"/>
<path d="M268.583 116.859L266.867 117.527C266.902 117.645 266.96 117.754 267.039 117.848C267.117 117.942 267.214 118.019 267.324 118.075C267.433 118.13 267.553 118.162 267.675 118.168C267.798 118.175 267.92 118.157 268.036 118.114C268.269 118.014 268.456 117.828 268.557 117.595C268.659 117.362 268.668 117.099 268.583 116.859Z" fill="#F28F8F"/>
<path d="M262.247 108.895L263.716 107.72C263.65 107.617 263.563 107.53 263.461 107.463C263.36 107.396 263.245 107.351 263.124 107.332C263.004 107.312 262.881 107.318 262.763 107.349C262.645 107.381 262.536 107.436 262.441 107.513C262.244 107.679 262.116 107.912 262.08 108.167C262.045 108.422 262.104 108.681 262.247 108.895Z" fill="#263238"/>
<path d="M262.894 111.225C262.906 111.371 262.96 111.51 263.05 111.626C263.139 111.742 263.261 111.829 263.399 111.877C263.538 111.925 263.687 111.932 263.829 111.896C263.971 111.861 264.1 111.785 264.2 111.677C264.299 111.57 264.365 111.436 264.39 111.291C264.415 111.147 264.397 110.998 264.338 110.864C264.28 110.729 264.183 110.615 264.061 110.534C263.938 110.454 263.795 110.411 263.649 110.41C263.546 110.414 263.444 110.437 263.35 110.48C263.256 110.523 263.172 110.584 263.102 110.66C263.031 110.736 262.977 110.825 262.941 110.922C262.906 111.019 262.89 111.122 262.894 111.225Z" fill="#263238"/>
<path d="M266.92 110.597L266.833 115.344L264.136 114.73L266.92 110.597Z" fill="#F28F8F"/>
<path d="M202.869 150.354L207.055 147.937L208.711 145.927L204.532 148.344L202.869 150.354Z" fill="#EA3E3E"/>
<path opacity="0.4" d="M202.869 150.354L207.055 147.937L208.711 145.927L204.532 148.344L202.869 150.354Z" fill="black"/>
<path d="M214.252 156.923L218.438 154.506L221.93 151.415L217.75 153.825L214.252 156.923Z" fill="#EA3E3E"/>
<path opacity="0.4" d="M214.252 156.923L218.438 154.506L221.93 151.415L217.75 153.825L214.252 156.923Z" fill="black"/>
<path d="M249.809 165.262C250.799 166.588 251.398 168.165 251.538 169.815C250.553 168.486 249.954 166.91 249.809 165.262ZM259.536 165.388C258.128 155.808 252.98 146.335 246.852 142.79C243.907 141.087 241.184 141.027 239 142.302L235.061 144.572L234.841 144.706C234.666 144.802 234.496 144.909 234.334 145.026C234.01 145.249 233.706 145.499 233.426 145.774L233.292 145.901C233.172 146.021 233.045 146.161 232.932 146.295C232.818 146.428 232.645 146.635 232.511 146.815C232.228 147.188 231.971 147.581 231.743 147.99C231.623 148.197 231.51 148.418 231.403 148.658L197.001 128.803L192.821 131.213V133.884L193.175 134.084L193.509 134.278V134.812L192.841 135.205V136.754L197.895 147.436L202.889 150.327L204.551 148.324L208.958 150.961L211.488 155.294L214.279 156.903L217.77 153.805L222.056 156.282L223.498 162.231L230.702 166.397C231.058 167.911 231.504 169.402 232.037 170.863C232.084 171.01 232.144 171.163 232.204 171.33C234.594 177.606 238.393 182.98 242.679 185.457C243.193 185.762 243.731 186.023 244.288 186.238C244.582 186.355 244.883 186.456 245.189 186.539C245.456 186.61 245.723 186.67 245.99 186.719C246.834 186.873 247.698 186.873 248.541 186.719L248.888 186.632C249.054 186.599 249.217 186.552 249.375 186.492L249.749 186.345C249.881 186.297 250.009 186.237 250.13 186.165C250.253 186.111 250.373 186.051 250.49 185.984L250.664 185.878C250.695 185.867 250.725 185.852 250.75 185.831C251.705 185.284 254.055 183.922 254.696 183.561C257.874 181.718 259.93 177.058 259.93 170.469C259.925 168.768 259.793 167.07 259.536 165.388Z" fill="#EA3E3E"/>
<path d="M248.587 173.346C246.932 172.392 245.596 169.561 245.596 167.024C245.596 164.487 246.932 163.199 248.587 164.147C250.243 165.095 251.572 167.932 251.572 170.476C251.572 173.019 250.236 174.301 248.587 173.346ZM255.35 167.799C253.948 158.225 248.801 148.745 242.665 145.206C239.821 143.564 237.191 143.444 235.055 144.572L234.834 144.706C234.659 144.802 234.489 144.909 234.327 145.026C234.003 145.249 233.7 145.499 233.419 145.774L233.285 145.901C233.165 146.021 233.038 146.161 232.925 146.295C232.811 146.428 232.638 146.635 232.504 146.815C232.221 147.188 231.964 147.581 231.737 147.99C231.616 148.197 231.503 148.418 231.396 148.658C230.774 149.948 230.325 151.316 230.061 152.724L192.814 131.213V133.884L193.168 134.084L193.502 134.277V134.812L192.834 135.205V136.754L197.888 147.436L202.882 150.327L204.545 148.324L208.951 150.961L211.481 155.294L214.272 156.903L217.763 153.805L222.049 156.282L223.491 162.231L230.702 166.397C231.058 167.911 231.504 169.402 232.037 170.863C232.084 171.01 232.144 171.163 232.204 171.33C234.594 177.606 238.393 182.98 242.679 185.457C243.193 185.762 243.731 186.023 244.288 186.238C244.582 186.355 244.883 186.456 245.189 186.539C245.456 186.61 245.723 186.67 245.99 186.719C246.833 186.873 247.697 186.873 248.541 186.719L248.888 186.632C249.054 186.599 249.217 186.552 249.375 186.492L249.749 186.345C249.881 186.297 250.009 186.237 250.129 186.165C250.253 186.111 250.373 186.051 250.49 185.984L250.664 185.878C250.695 185.867 250.724 185.852 250.75 185.831C253.795 183.908 255.751 179.315 255.751 172.886C255.74 171.183 255.606 169.483 255.35 167.799Z" fill="#EA3E3E"/>
<path opacity="0.4" d="M251.572 170.469C251.572 173.013 250.237 174.301 248.588 173.346C246.939 172.392 245.597 169.568 245.597 167.024C245.597 164.481 246.932 163.192 248.588 164.147C249.064 164.437 249.48 164.818 249.809 165.268C249.953 166.917 250.551 168.493 251.538 169.821C251.563 170.036 251.574 170.253 251.572 170.469Z" fill="black"/>
<path opacity="0.4" d="M259.917 170.462C259.917 177.052 257.861 181.712 254.683 183.554C254.015 183.915 251.692 185.277 250.737 185.824C253.781 183.902 255.737 179.308 255.737 172.879C255.73 171.179 255.601 169.481 255.35 167.799C253.948 158.225 248.801 148.745 242.666 145.206C239.821 143.564 237.191 143.444 235.055 144.572L238.994 142.302C241.177 141.027 243.901 141.087 246.845 142.79C252.98 146.335 258.128 155.808 259.53 165.388C259.784 167.068 259.913 168.764 259.917 170.462Z" fill="white"/>
<path d="M255.738 172.866C255.738 179.295 253.782 183.888 250.737 185.811C251.692 185.263 254.042 183.902 254.683 183.541C257.861 181.698 259.917 177.038 259.917 170.449C259.917 170.209 259.917 169.962 259.917 169.715L255.738 172.131C255.731 172.392 255.738 172.632 255.738 172.866Z" fill="#EA3E3E"/>
<path opacity="0.1" d="M255.738 172.866C255.738 179.295 253.782 183.888 250.737 185.811C251.692 185.263 254.042 183.902 254.683 183.541C257.861 181.698 259.917 177.038 259.917 170.449C259.917 170.209 259.917 169.962 259.917 169.715L255.738 172.131C255.731 172.392 255.738 172.632 255.738 172.866Z" fill="black"/>
<path opacity="0.15" d="M230.221 155.454V156.81L192.821 135.219L193.509 134.818V134.257L230.221 155.454Z" fill="black"/>
<path opacity="0.15" d="M230.221 156.015V156.81L192.821 135.219L193.509 134.818V134.812L230.221 156.015Z" fill="black"/>
<path opacity="0.15" d="M246.484 183.548C245.067 183.511 243.685 183.098 242.479 182.353C236.383 178.834 231.423 168.366 231.423 159.019C231.423 153.565 233.072 149.493 235.949 147.83C237.952 146.668 240.322 146.815 242.812 148.251C248.901 151.769 253.861 162.271 253.861 171.617C253.861 177.065 252.212 181.144 249.335 182.8C248.467 183.296 247.484 183.554 246.484 183.548ZM238.84 147.73C237.95 147.725 237.075 147.955 236.303 148.398C233.679 149.913 232.11 153.885 232.11 159.013C232.11 168.146 236.917 178.374 242.832 181.765C245.096 183.1 247.239 183.221 249.021 182.192C251.645 180.677 253.214 176.711 253.214 171.584C253.214 162.444 248.407 152.223 242.499 148.825C241.394 148.153 240.132 147.785 238.84 147.757V147.73Z" fill="black"/>
<path opacity="0.4" d="M231.37 148.645C230.747 149.935 230.298 151.302 230.034 152.71L192.788 131.2L196.967 128.79L231.37 148.645Z" fill="white"/>
<path d="M279.779 150.734C281.728 147.042 283.958 138.751 285.066 134.565C286.642 128.623 284.092 124.884 281.194 124.731C279.385 125.011 273.423 146.688 273.423 146.688C272.756 147.216 263.696 151.816 260.785 152.971C260.265 153.168 259.69 153.168 259.17 152.971C257.774 152.463 256.82 152.557 255.451 152.423C254.376 152.316 253.835 151.936 253.695 152.163C253.568 152.445 253.551 152.764 253.649 153.057C253.747 153.351 253.952 153.596 254.222 153.745C254.812 154.088 255.439 154.362 256.092 154.56C254.922 154.915 253.702 155.079 252.48 155.047C249.676 154.987 248.668 156.202 250.844 159.053C252.18 160.829 254.389 161.389 259.323 159.687C260.738 159.193 262.661 158.238 264.457 157.591C268.156 156.255 269.13 156.095 271.948 155.141C276.054 153.752 278.911 152.377 279.779 150.734Z" fill="#FFA8A7"/>
<path d="M280.106 124.17C281.808 124.403 283.444 124.784 284.452 126.173C285.46 127.561 286.268 129.511 285.28 134.818C284.523 138.551 283.51 142.227 282.249 145.821C282.249 145.821 278.283 147.516 274.07 143.217L276.968 132.014C276.968 132.014 277.435 124.731 280.106 124.17Z" fill="#455A64"/>
</svg>
