[
    {
        "id" : 1,
        "name" : "Anulacion en la Operación",
        "statu" : true
    },
    {
        "id" : 2,
        "name" : "Devolución por Item",
        "statu" : true
    },
    {
        "id" : 3,
        "name" : "Descuento por Item",
        "statu" : true
    },
    {
        "id" : 4,
        "name" : "Correccion por error en la descripcion",
        "statu" : true
    },
    {
        "id" : 5,
        "name" : "Descuento Global",
        "statu" : true
    }
]