<svg width="18" height="18" viewBox="0 0 18 18" fill="none" xmlns="http://www.w3.org/2000/svg">
<path d="M0 11.25V15.75H2.25V18H15.75V15.75H18V11.25H0ZM14.625 16.875H3.375V13.5H14.625V16.875Z" fill="#5B5B5B"/>
<path d="M13.5 6.75V2.25L10.4625 0H4.5V6.75H0V10.125H18V6.75H13.5ZM10.125 1.125L11.5875 2.25H10.125V1.125ZM12.375 7.875H5.625V1.125H9V3.375H12.375V7.875ZM16.875 9H15.75V7.875H16.875V9Z" fill="#5B5B5B"/>
</svg>
