<svg width="20" height="18" viewBox="0 0 20 18" fill="none" xmlns="http://www.w3.org/2000/svg">
<path d="M2.6087 2.5V0H4.34783V2.5H6.95652V4.16667H4.34783V6.66667H2.6087V4.16667H0V2.5H2.6087ZM5.21739 7.5V5H7.82609V2.5H13.913L15.5043 4.16667H18.2609C19.2174 4.16667 20 4.91667 20 5.83333V15.8333C20 16.75 19.2174 17.5 18.2609 17.5H4.34783C3.3913 17.5 2.6087 16.75 2.6087 15.8333V7.5H5.21739ZM11.3043 15C13.7043 15 15.6522 13.1333 15.6522 10.8333C15.6522 8.53333 13.7043 6.66667 11.3043 6.66667C8.90435 6.66667 6.95652 8.53333 6.95652 10.8333C6.95652 13.1333 8.90435 15 11.3043 15ZM8.52174 10.8333C8.52174 12.3083 9.76522 13.5 11.3043 13.5C12.8435 13.5 14.087 12.3083 14.087 10.8333C14.087 9.35833 12.8435 8.16667 11.3043 8.16667C9.76522 8.16667 8.52174 9.35833 8.52174 10.8333Z" fill="#E82424"/>
</svg>
