<svg width="26" height="26" viewBox="0 0 26 26" fill="none" xmlns="http://www.w3.org/2000/svg">
<g filter="url(#filter0_d)">
<path d="M18.724 14.3716C19.7073 14.3716 20.5105 13.5883 20.5105 12.6298C20.5105 11.4723 18.724 9.58339 18.724 9.58339C18.724 9.58339 16.9375 11.4723 16.9375 12.6298C16.9375 13.5883 17.7408 14.3716 18.724 14.3716ZM10.2393 13.4174C10.399 13.571 10.6577 13.571 10.8152 13.4174L16.5775 7.87844C16.7373 7.72482 16.7373 7.476 16.5775 7.32454L10.8175 1.78559C10.804 1.77261 10.7883 1.75963 10.7725 1.74881L9.013 0.0568343C8.97464 0.0204187 8.9229 0 8.869 0C8.8151 0 8.76336 0.0204187 8.725 0.0568343L7.645 1.09539C7.60713 1.13228 7.5859 1.18203 7.5859 1.23386C7.5859 1.2857 7.60713 1.33545 7.645 1.37233L9.157 2.82631L4.4815 7.32454C4.32175 7.47816 4.32175 7.72698 4.4815 7.87844L10.2393 13.4174ZM10.5295 3.71124L14.5547 7.58202H6.5065L10.5295 3.71124ZM21.82 15.9229H4.18C4.081 15.9229 4 16.0008 4 16.096V17.8269C4 17.9221 4.081 18 4.18 18H21.82C21.919 18 22 17.9221 22 17.8269V16.096C22 16.0008 21.919 15.9229 21.82 15.9229Z" fill="#5B5B5B"/>
</g>
<defs>
<filter id="filter0_d" x="0" y="0" width="26" height="26" filterUnits="userSpaceOnUse" color-interpolation-filters="sRGB">
<feFlood flood-opacity="0" result="BackgroundImageFix"/>
<feColorMatrix in="SourceAlpha" type="matrix" values="0 0 0 0 0 0 0 0 0 0 0 0 0 0 0 0 0 0 127 0"/>
<feOffset dy="4"/>
<feGaussianBlur stdDeviation="2"/>
<feColorMatrix type="matrix" values="0 0 0 0 0 0 0 0 0 0 0 0 0 0 0 0 0 0 0.25 0"/>
<feBlend mode="normal" in2="BackgroundImageFix" result="effect1_dropShadow"/>
<feBlend mode="normal" in="SourceGraphic" in2="effect1_dropShadow" result="shape"/>
</filter>
</defs>
</svg>
