<svg width="16" height="16" viewBox="0 0 16 16" fill="none" xmlns="http://www.w3.org/2000/svg">
<path d="M13.8462 2.46143H2.23077C1.63913 2.46143 1.07173 2.69645 0.653377 3.1148C0.235027 3.53315 0 4.10056 0 4.6922V10.7691C0 11.3404 0.226923 11.8882 0.630847 12.2921C1.03477 12.696 1.58261 12.923 2.15385 12.923H2.46154V14.4491C2.46154 14.8604 2.62492 15.2549 2.91575 15.5457C3.20657 15.8365 3.60102 15.9999 4.01231 15.9999H11.9877C12.399 15.9999 12.7934 15.8365 13.0843 15.5457C13.3751 15.2549 13.5385 14.8604 13.5385 14.4491V12.923H13.8462C14.4174 12.923 14.9652 12.696 15.3692 12.2921C15.7731 11.8882 16 11.3404 16 10.7691V4.61527C16 4.04404 15.7731 3.4962 15.3692 3.09227C14.9652 2.68835 14.4174 2.46143 13.8462 2.46143ZM12.3077 14.4491C12.3074 14.5339 12.2736 14.6151 12.2136 14.6751C12.1537 14.735 12.0725 14.7688 11.9877 14.7691H4.01231C3.92753 14.7688 3.84632 14.735 3.78637 14.6751C3.72642 14.6151 3.69261 14.5339 3.69231 14.4491V8.31989C3.69261 8.23511 3.72642 8.1539 3.78637 8.09395C3.84632 8.034 3.92753 8.00019 4.01231 7.99989H11.9877C12.0725 8.00019 12.1537 8.034 12.2136 8.09395C12.2736 8.1539 12.3074 8.23511 12.3077 8.31989V14.4491ZM13.3077 6.15066C13.1194 6.16579 12.931 6.1228 12.768 6.0275C12.6049 5.9322 12.475 5.78916 12.3958 5.6177C12.3166 5.44624 12.2918 5.2546 12.325 5.06865C12.3581 4.8827 12.4475 4.71139 12.581 4.57783C12.7146 4.44428 12.8859 4.3549 13.0718 4.32178C13.2578 4.28865 13.4494 4.31336 13.6209 4.39258C13.7924 4.4718 13.9354 4.60171 14.0307 4.76478C14.126 4.92785 14.169 5.11623 14.1538 5.3045C14.1363 5.52306 14.0415 5.72822 13.8865 5.88326C13.7314 6.0383 13.5262 6.13309 13.3077 6.15066Z" fill="#5B5B5B"/>
<path d="M11.3842 0H4.61494C4.09725 0.000770881 3.5971 0.187678 3.20578 0.526605C2.81446 0.865532 2.55807 1.33388 2.4834 1.84615H13.5157C13.441 1.33388 13.1846 0.865532 12.7933 0.526605C12.402 0.187678 11.9019 0.000770881 11.3842 0Z" fill="#5B5B5B"/>
</svg>
