<svg width="20" height="20" viewBox="0 0 20 20" fill="none" xmlns="http://www.w3.org/2000/svg">
<rect x="0.6" y="0.6" width="18.8" height="18.8" rx="9.4" stroke="#EA3E3E" stroke-width="1.2"/>
<rect x="5" y="9" width="10" height="2" fill="#EA3E3E"/>
</svg>
