<svg width="20" height="17" viewBox="0 0 20 17" fill="none" xmlns="http://www.w3.org/2000/svg">
<path d="M0 14H6.72108V16H0V14ZM0 7H8.64138V9H0V7ZM0 0H19.2031V2H0V0ZM17.9299 9.025L19.0398 8.634L20 10.366L19.1205 11.171C19.2312 11.7177 19.2312 12.2823 19.1205 12.829L20 13.634L19.0398 15.366L17.9299 14.975C17.5362 15.345 17.0677 15.63 16.5521 15.805L16.3226 17H14.4023L14.1719 15.804C13.6623 15.6306 13.1932 15.3478 12.795 14.974L11.6851 15.366L10.7249 13.634L11.6044 12.829C11.4937 12.2823 11.4937 11.7177 11.6044 11.171L10.7249 10.366L11.6851 8.634L12.795 9.025C13.1887 8.655 13.6572 8.37 14.1728 8.195L14.4023 7H16.3226L16.553 8.196C17.0677 8.37 17.5362 8.656 17.9299 9.026V9.025ZM15.3625 14C15.8718 14 16.3602 13.7893 16.7203 13.4142C17.0804 13.0391 17.2828 12.5304 17.2828 12C17.2828 11.4696 17.0804 10.9609 16.7203 10.5858C16.3602 10.2107 15.8718 10 15.3625 10C14.8532 10 14.3647 10.2107 14.0046 10.5858C13.6445 10.9609 13.4422 11.4696 13.4422 12C13.4422 12.5304 13.6445 13.0391 14.0046 13.4142C14.3647 13.7893 14.8532 14 15.3625 14Z" fill="black"/>
</svg>
