<svg width="22" height="21" viewBox="0 0 22 21" fill="none" xmlns="http://www.w3.org/2000/svg">
<path d="M7.31592 9.42116L10.4738 12.5791L21.0001 2.05273" stroke="#515151" stroke-width="2" stroke-linecap="round" stroke-linejoin="round"/>
<path d="M19.9474 10.4737V17.8421C19.9474 18.4005 19.7256 18.9359 19.3308 19.3308C18.9359 19.7256 18.4005 19.9474 17.8421 19.9474H3.10526C2.54691 19.9474 2.01143 19.7256 1.61662 19.3308C1.2218 18.9359 1 18.4005 1 17.8421V3.10526C1 2.54691 1.2218 2.01143 1.61662 1.61662C2.01143 1.2218 2.54691 1 3.10526 1H14.6842" stroke="#515151" stroke-width="2" stroke-linecap="round" stroke-linejoin="round"/>
</svg>
